[rospy.client][INFO] 2023-02-16 14:36:08,482: init_node, name[/baseController], pid[1287]
[xmlrpc][INFO] 2023-02-16 14:36:08,483: XML-RPC server binding to 0.0.0.0:0
[xmlrpc][INFO] 2023-02-16 14:36:08,484: Started XML-RPC server [http://intechAGV:34785/]
[rospy.init][INFO] 2023-02-16 14:36:08,485: ROS Slave URI: [http://intechAGV:34785/]
[rospy.impl.masterslave][INFO] 2023-02-16 14:36:08,485: _ready: http://intechAGV:34785/
[rospy.registration][INFO] 2023-02-16 14:36:08,487: Registering with master node http://localhost:11311
[xmlrpc][INFO] 2023-02-16 14:36:08,488: xml rpc node: starting XML-RPC server
[rospy.init][INFO] 2023-02-16 14:36:08,586: registered with master
[rospy.rosout][INFO] 2023-02-16 14:36:08,587: initializing /rosout core topic
[rospy.rosout][INFO] 2023-02-16 14:36:08,601: connected to core topic /rosout
[rospy.simtime][INFO] 2023-02-16 14:36:08,604: /use_sim_time is not set, will not subscribe to simulated time [/clock] topic
[rosout][INFO] 2023-02-16 14:36:08,612: /baseController started
[rospy.internal][INFO] 2023-02-16 14:36:08,812: topic[/rosout] adding connection to [/rosout], count 0
[rospy.internal][INFO] 2023-02-16 14:36:25,429: topic[/cmd_vel] adding connection to [http://intechAGV:37621/], count 0
[rospy.internal][INFO] 2023-02-16 14:36:42,023: topic[/cmd_vel] removing connection to http://intechAGV:37621/
[rospy.internal][INFO] 2023-02-16 15:55:40,160: topic[/cmd_vel] adding connection to [http://intechAGV:39215/], count 0
