[roslaunch][INFO] 2023-02-18 15:57:20,642: Checking log directory for disk usage. This may take a while.
Press Ctrl-C to interrupt
[roslaunch][INFO] 2023-02-18 15:57:20,680: Done checking log file disk usage. Usage is <1GB.
[roslaunch][INFO] 2023-02-18 15:57:20,681: roslaunch starting with args ['/opt/ros/noetic/bin/roslaunch', 'agv1_master', 'agv1_intech.launch']
[roslaunch][INFO] 2023-02-18 15:57:20,681: roslaunch env is environ({'SHELL': '/bin/bash', 'ROS_VERSION': '1', 'PKG_CONFIG_PATH': '/home/intechAGV/catkin_ws/devel/lib/pkgconfig:/opt/ros/noetic/lib/pkgconfig', 'ROS_PYTHON_VERSION': '3', 'LC_ADDRESS': 'C.UTF-8', 'LC_NAME': 'C.UTF-8', 'LC_MONETARY': 'C.UTF-8', 'ROS_PACKAGE_PATH': '/home/intech/catkin_ws/src:/home/intechAGV/catkin_ws/src:/opt/ros/noetic/share', 'ROSLISP_PACKAGE_DIRECTORIES': '/home/intechAGV/catkin_ws/devel/share/common-lisp', 'PWD': '/home/intechAGV', 'LOGNAME': 'intechAGV', 'XDG_SESSION_TYPE': 'tty', 'MOTD_SHOWN': 'pam', 'HOME': '/home/intechAGV', 'LANG': 'C.UTF-8', 'LC_PAPER': 'C.UTF-8', 'ROS_ETC_DIR': '/opt/ros/noetic/etc/ros', 'LS_COLORS': 'rs=0:di=01;34:ln=01;36:mh=00:pi=40;33:so=01;35:do=01;35:bd=40;33;01:cd=40;33;01:or=40;31;01:mi=00:su=37;41:sg=30;43:ca=30;41:tw=30;42:ow=34;42:st=37;44:ex=01;32:*.tar=01;31:*.tgz=01;31:*.arc=01;31:*.arj=01;31:*.taz=01;31:*.lha=01;31:*.lz4=01;31:*.lzh=01;31:*.lzma=01;31:*.tlz=01;31:*.txz=01;31:*.tzo=01;31:*.t7z=01;31:*.zip=01;31:*.z=01;31:*.dz=01;31:*.gz=01;31:*.lrz=01;31:*.lz=01;31:*.lzo=01;31:*.xz=01;31:*.zst=01;31:*.tzst=01;31:*.bz2=01;31:*.bz=01;31:*.tbz=01;31:*.tbz2=01;31:*.tz=01;31:*.deb=01;31:*.rpm=01;31:*.jar=01;31:*.war=01;31:*.ear=01;31:*.sar=01;31:*.rar=01;31:*.alz=01;31:*.ace=01;31:*.zoo=01;31:*.cpio=01;31:*.7z=01;31:*.rz=01;31:*.cab=01;31:*.wim=01;31:*.swm=01;31:*.dwm=01;31:*.esd=01;31:*.jpg=01;35:*.jpeg=01;35:*.mjpg=01;35:*.mjpeg=01;35:*.gif=01;35:*.bmp=01;35:*.pbm=01;35:*.pgm=01;35:*.ppm=01;35:*.tga=01;35:*.xbm=01;35:*.xpm=01;35:*.tif=01;35:*.tiff=01;35:*.png=01;35:*.svg=01;35:*.svgz=01;35:*.mng=01;35:*.pcx=01;35:*.mov=01;35:*.mpg=01;35:*.mpeg=01;35:*.m2v=01;35:*.mkv=01;35:*.webm=01;35:*.ogm=01;35:*.mp4=01;35:*.m4v=01;35:*.mp4v=01;35:*.vob=01;35:*.qt=01;35:*.nuv=01;35:*.wmv=01;35:*.asf=01;35:*.rm=01;35:*.rmvb=01;35:*.flc=01;35:*.avi=01;35:*.fli=01;35:*.flv=01;35:*.gl=01;35:*.dl=01;35:*.xcf=01;35:*.xwd=01;35:*.yuv=01;35:*.cgm=01;35:*.emf=01;35:*.ogv=01;35:*.ogx=01;35:*.aac=00;36:*.au=00;36:*.flac=00;36:*.m4a=00;36:*.mid=00;36:*.midi=00;36:*.mka=00;36:*.mp3=00;36:*.mpc=00;36:*.ogg=00;36:*.ra=00;36:*.wav=00;36:*.oga=00;36:*.opus=00;36:*.spx=00;36:*.xspf=00;36:', 'CMAKE_PREFIX_PATH': '/home/intechAGV/catkin_ws/devel:/opt/ros/noetic', 'SSH_CONNECTION': '192.168.0.114 54298 192.168.0.130 22', 'LESSCLOSE': '/usr/bin/lesspipe %s %s', 'XDG_SESSION_CLASS': 'user', 'PYTHONPATH': '/home/intechAGV/catkin_ws/devel/lib/python3/dist-packages:/opt/ros/noetic/lib/python3/dist-packages', 'TERM': 'xterm-256color', 'LC_IDENTIFICATION': 'C.UTF-8', 'LESSOPEN': '| /usr/bin/lesspipe %s', 'USER': 'intechAGV', 'SHLVL': '1', 'LC_TELEPHONE': 'C.UTF-8', 'ROS_MASTER_URI': 'http://localhost:11311', 'LC_MEASUREMENT': 'C.UTF-8', 'XDG_SESSION_ID': '3', 'LD_LIBRARY_PATH': '/home/intechAGV/catkin_ws/devel/lib:/opt/ros/noetic/lib', 'XDG_RUNTIME_DIR': '/run/user/1000', 'SSH_CLIENT': '192.168.0.114 54298 22', 'LC_TIME': 'C.UTF-8', 'XDG_DATA_DIRS': '/usr/local/share:/usr/share:/var/lib/snapd/desktop', 'PATH': '/home/intechAGV/.local/bin:/opt/ros/noetic/bin:/usr/local/sbin:/usr/local/bin:/usr/sbin:/usr/bin:/sbin:/bin:/usr/games:/usr/local/games:/snap/bin', 'DBUS_SESSION_BUS_ADDRESS': 'unix:path=/run/user/1000/bus', 'SSH_TTY': '/dev/pts/1', 'ROS_ROOT': '/opt/ros/noetic/share/ros', 'ROS_DISTRO': 'noetic', 'LC_NUMERIC': 'C.UTF-8', '_': '/opt/ros/noetic/bin/roslaunch', 'ROS_LOG_FILENAME': '/home/intechAGV/.ros/log/9c0b4b9c-af68-11ed-9f36-879bd6047bd7/roslaunch-intechAGV-2278.log'})
[roslaunch][INFO] 2023-02-18 15:57:20,682: starting in server mode
[roslaunch.parent][INFO] 2023-02-18 15:57:20,682: starting roslaunch parent run
[roslaunch][INFO] 2023-02-18 15:57:20,683: loading roscore config file /opt/ros/noetic/etc/ros/roscore.xml
[roslaunch][INFO] 2023-02-18 15:57:21,159: Added core node of type [rosout/rosout] in namespace [/]
[roslaunch.config][INFO] 2023-02-18 15:57:21,159: loading config file /home/intechAGV/catkin_ws/src/agv1_master/launch/agv1_intech.launch
[roslaunch][INFO] 2023-02-18 15:57:21,161: Added node of type [agv1_base_controller/node_base_controller.py] in namespace [/]
[roslaunch][INFO] 2023-02-18 15:57:21,162: Added node of type [agv1_gpio/node_gpio.py] in namespace [/]
[roslaunch][INFO] 2023-02-18 15:57:21,163: Added node of type [agv1_followline/node_followline.py] in namespace [/]
[roslaunch][INFO] 2023-02-18 15:57:21,164: Added node of type [agv1_rfid/node_readRFID.py] in namespace [/]
[roslaunch][INFO] 2023-02-18 15:57:21,164: ... selected machine [] for node of type [agv1_base_controller/node_base_controller.py]
[roslaunch][INFO] 2023-02-18 15:57:21,164: ... selected machine [] for node of type [agv1_gpio/node_gpio.py]
[roslaunch][INFO] 2023-02-18 15:57:21,164: ... selected machine [] for node of type [agv1_followline/node_followline.py]
[roslaunch][INFO] 2023-02-18 15:57:21,164: ... selected machine [] for node of type [agv1_rfid/node_readRFID.py]
[roslaunch.pmon][INFO] 2023-02-18 15:57:21,167: start_process_monitor: creating ProcessMonitor
[roslaunch.pmon][INFO] 2023-02-18 15:57:21,168: created process monitor <ProcessMonitor(ProcessMonitor-1, initial daemon)>
[roslaunch.pmon][INFO] 2023-02-18 15:57:21,169: start_process_monitor: ProcessMonitor started
[roslaunch.parent][INFO] 2023-02-18 15:57:21,169: starting parent XML-RPC server
[roslaunch.server][INFO] 2023-02-18 15:57:21,170: starting roslaunch XML-RPC server
[roslaunch.server][INFO] 2023-02-18 15:57:21,170: waiting for roslaunch XML-RPC server to initialize
[xmlrpc][INFO] 2023-02-18 15:57:21,170: XML-RPC server binding to 0.0.0.0:0
[xmlrpc][INFO] 2023-02-18 15:57:21,171: Started XML-RPC server [http://intechAGV:39043/]
[xmlrpc][INFO] 2023-02-18 15:57:21,172: xml rpc node: starting XML-RPC server
[roslaunch][INFO] 2023-02-18 15:57:21,186: started roslaunch server http://intechAGV:39043/
[roslaunch.parent][INFO] 2023-02-18 15:57:21,187: ... parent XML-RPC server started
[roslaunch][INFO] 2023-02-18 15:57:21,190: master.is_running[http://localhost:11311]
[roslaunch][INFO] 2023-02-18 15:57:21,195: master.is_running[http://localhost:11311]
[roslaunch][INFO] 2023-02-18 15:57:21,200: ROS_MASTER_URI=http://localhost:11311
[roslaunch][INFO] 2023-02-18 15:57:21,206: setting /roslaunch/uris/host_intechagv__39043' to http://intechAGV:39043/
[roslaunch][INFO] 2023-02-18 15:57:21,209: load_parameters starting ...
[roslaunch][INFO] 2023-02-18 15:57:21,271: ... load_parameters complete
[roslaunch][INFO] 2023-02-18 15:57:21,272: launch_nodes: launching local nodes ...
[roslaunch][INFO] 2023-02-18 15:57:21,273: ... preparing to launch node of type [agv1_base_controller/node_base_controller.py]
[roslaunch][INFO] 2023-02-18 15:57:21,274: create_node_process: package[agv1_base_controller] type[node_base_controller.py] machine[Machine(name[] env_loader[None] address[localhost] ssh_port[22] user[None] assignable[True] timeout[10.0])] master_uri[http://localhost:11311]
[roslaunch][INFO] 2023-02-18 15:57:21,274: process[baseController-1]: env[{'SHELL': '/bin/bash', 'ROS_VERSION': '1', 'PKG_CONFIG_PATH': '/home/intechAGV/catkin_ws/devel/lib/pkgconfig:/opt/ros/noetic/lib/pkgconfig', 'ROS_PYTHON_VERSION': '3', 'LC_ADDRESS': 'C.UTF-8', 'LC_NAME': 'C.UTF-8', 'LC_MONETARY': 'C.UTF-8', 'ROS_PACKAGE_PATH': '/home/intech/catkin_ws/src:/home/intechAGV/catkin_ws/src:/opt/ros/noetic/share', 'ROSLISP_PACKAGE_DIRECTORIES': '/home/intechAGV/catkin_ws/devel/share/common-lisp', 'PWD': '/home/intechAGV', 'LOGNAME': 'intechAGV', 'XDG_SESSION_TYPE': 'tty', 'MOTD_SHOWN': 'pam', 'HOME': '/home/intechAGV', 'LANG': 'C.UTF-8', 'LC_PAPER': 'C.UTF-8', 'ROS_ETC_DIR': '/opt/ros/noetic/etc/ros', 'LS_COLORS': 'rs=0:di=01;34:ln=01;36:mh=00:pi=40;33:so=01;35:do=01;35:bd=40;33;01:cd=40;33;01:or=40;31;01:mi=00:su=37;41:sg=30;43:ca=30;41:tw=30;42:ow=34;42:st=37;44:ex=01;32:*.tar=01;31:*.tgz=01;31:*.arc=01;31:*.arj=01;31:*.taz=01;31:*.lha=01;31:*.lz4=01;31:*.lzh=01;31:*.lzma=01;31:*.tlz=01;31:*.txz=01;31:*.tzo=01;31:*.t7z=01;31:*.zip=01;31:*.z=01;31:*.dz=01;31:*.gz=01;31:*.lrz=01;31:*.lz=01;31:*.lzo=01;31:*.xz=01;31:*.zst=01;31:*.tzst=01;31:*.bz2=01;31:*.bz=01;31:*.tbz=01;31:*.tbz2=01;31:*.tz=01;31:*.deb=01;31:*.rpm=01;31:*.jar=01;31:*.war=01;31:*.ear=01;31:*.sar=01;31:*.rar=01;31:*.alz=01;31:*.ace=01;31:*.zoo=01;31:*.cpio=01;31:*.7z=01;31:*.rz=01;31:*.cab=01;31:*.wim=01;31:*.swm=01;31:*.dwm=01;31:*.esd=01;31:*.jpg=01;35:*.jpeg=01;35:*.mjpg=01;35:*.mjpeg=01;35:*.gif=01;35:*.bmp=01;35:*.pbm=01;35:*.pgm=01;35:*.ppm=01;35:*.tga=01;35:*.xbm=01;35:*.xpm=01;35:*.tif=01;35:*.tiff=01;35:*.png=01;35:*.svg=01;35:*.svgz=01;35:*.mng=01;35:*.pcx=01;35:*.mov=01;35:*.mpg=01;35:*.mpeg=01;35:*.m2v=01;35:*.mkv=01;35:*.webm=01;35:*.ogm=01;35:*.mp4=01;35:*.m4v=01;35:*.mp4v=01;35:*.vob=01;35:*.qt=01;35:*.nuv=01;35:*.wmv=01;35:*.asf=01;35:*.rm=01;35:*.rmvb=01;35:*.flc=01;35:*.avi=01;35:*.fli=01;35:*.flv=01;35:*.gl=01;35:*.dl=01;35:*.xcf=01;35:*.xwd=01;35:*.yuv=01;35:*.cgm=01;35:*.emf=01;35:*.ogv=01;35:*.ogx=01;35:*.aac=00;36:*.au=00;36:*.flac=00;36:*.m4a=00;36:*.mid=00;36:*.midi=00;36:*.mka=00;36:*.mp3=00;36:*.mpc=00;36:*.ogg=00;36:*.ra=00;36:*.wav=00;36:*.oga=00;36:*.opus=00;36:*.spx=00;36:*.xspf=00;36:', 'CMAKE_PREFIX_PATH': '/home/intechAGV/catkin_ws/devel:/opt/ros/noetic', 'SSH_CONNECTION': '192.168.0.114 54298 192.168.0.130 22', 'LESSCLOSE': '/usr/bin/lesspipe %s %s', 'XDG_SESSION_CLASS': 'user', 'PYTHONPATH': '/home/intechAGV/catkin_ws/devel/lib/python3/dist-packages:/opt/ros/noetic/lib/python3/dist-packages', 'TERM': 'xterm-256color', 'LC_IDENTIFICATION': 'C.UTF-8', 'LESSOPEN': '| /usr/bin/lesspipe %s', 'USER': 'intechAGV', 'SHLVL': '1', 'LC_TELEPHONE': 'C.UTF-8', 'ROS_MASTER_URI': 'http://localhost:11311', 'LC_MEASUREMENT': 'C.UTF-8', 'XDG_SESSION_ID': '3', 'LD_LIBRARY_PATH': '/home/intechAGV/catkin_ws/devel/lib:/opt/ros/noetic/lib', 'XDG_RUNTIME_DIR': '/run/user/1000', 'SSH_CLIENT': '192.168.0.114 54298 22', 'LC_TIME': 'C.UTF-8', 'XDG_DATA_DIRS': '/usr/local/share:/usr/share:/var/lib/snapd/desktop', 'PATH': '/home/intechAGV/.local/bin:/opt/ros/noetic/bin:/usr/local/sbin:/usr/local/bin:/usr/sbin:/usr/bin:/sbin:/bin:/usr/games:/usr/local/games:/snap/bin', 'DBUS_SESSION_BUS_ADDRESS': 'unix:path=/run/user/1000/bus', 'SSH_TTY': '/dev/pts/1', 'ROS_ROOT': '/opt/ros/noetic/share/ros', 'ROS_DISTRO': 'noetic', 'LC_NUMERIC': 'C.UTF-8', '_': '/opt/ros/noetic/bin/roslaunch', 'ROS_LOG_FILENAME': '/home/intechAGV/.ros/log/9c0b4b9c-af68-11ed-9f36-879bd6047bd7/roslaunch-intechAGV-2278.log'}]
[roslaunch][INFO] 2023-02-18 15:57:21,323: process[baseController-1]: args[['/home/intechAGV/catkin_ws/devel/lib/agv1_base_controller/node_base_controller.py', '__name:=baseController']]
[roslaunch][INFO] 2023-02-18 15:57:21,323: ... created process [baseController-1]
[roslaunch.pmon][INFO] 2023-02-18 15:57:21,324: ProcessMonitor.register[baseController-1]
[roslaunch.pmon][INFO] 2023-02-18 15:57:21,324: ProcessMonitor.register[baseController-1] complete
[roslaunch][INFO] 2023-02-18 15:57:21,324: ... registered process [baseController-1]
[roslaunch][INFO] 2023-02-18 15:57:21,324: process[baseController-1]: starting os process
[roslaunch][INFO] 2023-02-18 15:57:21,324: process[baseController-1]: start w/ args [['/home/intechAGV/catkin_ws/devel/lib/agv1_base_controller/node_base_controller.py', '__name:=baseController', '__log:=/home/intechAGV/.ros/log/9c0b4b9c-af68-11ed-9f36-879bd6047bd7/baseController-1.log']]
[roslaunch][INFO] 2023-02-18 15:57:21,325: process[baseController-1]: cwd will be [/home/intechAGV/.ros]
[roslaunch][INFO] 2023-02-18 15:57:21,334: process[baseController-1]: started with pid [2292]
[roslaunch][INFO] 2023-02-18 15:57:21,335: ... successfully launched [baseController-1]
[roslaunch][INFO] 2023-02-18 15:57:21,335: ... preparing to launch node of type [agv1_gpio/node_gpio.py]
[roslaunch][INFO] 2023-02-18 15:57:21,336: create_node_process: package[agv1_gpio] type[node_gpio.py] machine[Machine(name[] env_loader[None] address[localhost] ssh_port[22] user[None] assignable[True] timeout[10.0])] master_uri[http://localhost:11311]
[roslaunch][INFO] 2023-02-18 15:57:21,337: process[gpio-2]: env[{'SHELL': '/bin/bash', 'ROS_VERSION': '1', 'PKG_CONFIG_PATH': '/home/intechAGV/catkin_ws/devel/lib/pkgconfig:/opt/ros/noetic/lib/pkgconfig', 'ROS_PYTHON_VERSION': '3', 'LC_ADDRESS': 'C.UTF-8', 'LC_NAME': 'C.UTF-8', 'LC_MONETARY': 'C.UTF-8', 'ROS_PACKAGE_PATH': '/home/intech/catkin_ws/src:/home/intechAGV/catkin_ws/src:/opt/ros/noetic/share', 'ROSLISP_PACKAGE_DIRECTORIES': '/home/intechAGV/catkin_ws/devel/share/common-lisp', 'PWD': '/home/intechAGV', 'LOGNAME': 'intechAGV', 'XDG_SESSION_TYPE': 'tty', 'MOTD_SHOWN': 'pam', 'HOME': '/home/intechAGV', 'LANG': 'C.UTF-8', 'LC_PAPER': 'C.UTF-8', 'ROS_ETC_DIR': '/opt/ros/noetic/etc/ros', 'LS_COLORS': 'rs=0:di=01;34:ln=01;36:mh=00:pi=40;33:so=01;35:do=01;35:bd=40;33;01:cd=40;33;01:or=40;31;01:mi=00:su=37;41:sg=30;43:ca=30;41:tw=30;42:ow=34;42:st=37;44:ex=01;32:*.tar=01;31:*.tgz=01;31:*.arc=01;31:*.arj=01;31:*.taz=01;31:*.lha=01;31:*.lz4=01;31:*.lzh=01;31:*.lzma=01;31:*.tlz=01;31:*.txz=01;31:*.tzo=01;31:*.t7z=01;31:*.zip=01;31:*.z=01;31:*.dz=01;31:*.gz=01;31:*.lrz=01;31:*.lz=01;31:*.lzo=01;31:*.xz=01;31:*.zst=01;31:*.tzst=01;31:*.bz2=01;31:*.bz=01;31:*.tbz=01;31:*.tbz2=01;31:*.tz=01;31:*.deb=01;31:*.rpm=01;31:*.jar=01;31:*.war=01;31:*.ear=01;31:*.sar=01;31:*.rar=01;31:*.alz=01;31:*.ace=01;31:*.zoo=01;31:*.cpio=01;31:*.7z=01;31:*.rz=01;31:*.cab=01;31:*.wim=01;31:*.swm=01;31:*.dwm=01;31:*.esd=01;31:*.jpg=01;35:*.jpeg=01;35:*.mjpg=01;35:*.mjpeg=01;35:*.gif=01;35:*.bmp=01;35:*.pbm=01;35:*.pgm=01;35:*.ppm=01;35:*.tga=01;35:*.xbm=01;35:*.xpm=01;35:*.tif=01;35:*.tiff=01;35:*.png=01;35:*.svg=01;35:*.svgz=01;35:*.mng=01;35:*.pcx=01;35:*.mov=01;35:*.mpg=01;35:*.mpeg=01;35:*.m2v=01;35:*.mkv=01;35:*.webm=01;35:*.ogm=01;35:*.mp4=01;35:*.m4v=01;35:*.mp4v=01;35:*.vob=01;35:*.qt=01;35:*.nuv=01;35:*.wmv=01;35:*.asf=01;35:*.rm=01;35:*.rmvb=01;35:*.flc=01;35:*.avi=01;35:*.fli=01;35:*.flv=01;35:*.gl=01;35:*.dl=01;35:*.xcf=01;35:*.xwd=01;35:*.yuv=01;35:*.cgm=01;35:*.emf=01;35:*.ogv=01;35:*.ogx=01;35:*.aac=00;36:*.au=00;36:*.flac=00;36:*.m4a=00;36:*.mid=00;36:*.midi=00;36:*.mka=00;36:*.mp3=00;36:*.mpc=00;36:*.ogg=00;36:*.ra=00;36:*.wav=00;36:*.oga=00;36:*.opus=00;36:*.spx=00;36:*.xspf=00;36:', 'CMAKE_PREFIX_PATH': '/home/intechAGV/catkin_ws/devel:/opt/ros/noetic', 'SSH_CONNECTION': '192.168.0.114 54298 192.168.0.130 22', 'LESSCLOSE': '/usr/bin/lesspipe %s %s', 'XDG_SESSION_CLASS': 'user', 'PYTHONPATH': '/home/intechAGV/catkin_ws/devel/lib/python3/dist-packages:/opt/ros/noetic/lib/python3/dist-packages', 'TERM': 'xterm-256color', 'LC_IDENTIFICATION': 'C.UTF-8', 'LESSOPEN': '| /usr/bin/lesspipe %s', 'USER': 'intechAGV', 'SHLVL': '1', 'LC_TELEPHONE': 'C.UTF-8', 'ROS_MASTER_URI': 'http://localhost:11311', 'LC_MEASUREMENT': 'C.UTF-8', 'XDG_SESSION_ID': '3', 'LD_LIBRARY_PATH': '/home/intechAGV/catkin_ws/devel/lib:/opt/ros/noetic/lib', 'XDG_RUNTIME_DIR': '/run/user/1000', 'SSH_CLIENT': '192.168.0.114 54298 22', 'LC_TIME': 'C.UTF-8', 'XDG_DATA_DIRS': '/usr/local/share:/usr/share:/var/lib/snapd/desktop', 'PATH': '/home/intechAGV/.local/bin:/opt/ros/noetic/bin:/usr/local/sbin:/usr/local/bin:/usr/sbin:/usr/bin:/sbin:/bin:/usr/games:/usr/local/games:/snap/bin', 'DBUS_SESSION_BUS_ADDRESS': 'unix:path=/run/user/1000/bus', 'SSH_TTY': '/dev/pts/1', 'ROS_ROOT': '/opt/ros/noetic/share/ros', 'ROS_DISTRO': 'noetic', 'LC_NUMERIC': 'C.UTF-8', '_': '/opt/ros/noetic/bin/roslaunch', 'ROS_LOG_FILENAME': '/home/intechAGV/.ros/log/9c0b4b9c-af68-11ed-9f36-879bd6047bd7/roslaunch-intechAGV-2278.log'}]
[roslaunch][INFO] 2023-02-18 15:57:21,340: process[gpio-2]: args[['/home/intechAGV/catkin_ws/devel/lib/agv1_gpio/node_gpio.py', '__name:=gpio']]
[roslaunch][INFO] 2023-02-18 15:57:21,340: ... created process [gpio-2]
[roslaunch.pmon][INFO] 2023-02-18 15:57:21,341: ProcessMonitor.register[gpio-2]
[roslaunch.pmon][INFO] 2023-02-18 15:57:21,341: ProcessMonitor.register[gpio-2] complete
[roslaunch][INFO] 2023-02-18 15:57:21,341: ... registered process [gpio-2]
[roslaunch][INFO] 2023-02-18 15:57:21,342: process[gpio-2]: starting os process
[roslaunch][INFO] 2023-02-18 15:57:21,342: process[gpio-2]: start w/ args [['/home/intechAGV/catkin_ws/devel/lib/agv1_gpio/node_gpio.py', '__name:=gpio', '__log:=/home/intechAGV/.ros/log/9c0b4b9c-af68-11ed-9f36-879bd6047bd7/gpio-2.log']]
[roslaunch][INFO] 2023-02-18 15:57:21,343: process[gpio-2]: cwd will be [/home/intechAGV/.ros]
[roslaunch][INFO] 2023-02-18 15:57:21,354: process[gpio-2]: started with pid [2293]
[roslaunch][INFO] 2023-02-18 15:57:21,355: ... successfully launched [gpio-2]
[roslaunch][INFO] 2023-02-18 15:57:21,355: ... preparing to launch node of type [agv1_followline/node_followline.py]
[roslaunch][INFO] 2023-02-18 15:57:21,356: create_node_process: package[agv1_followline] type[node_followline.py] machine[Machine(name[] env_loader[None] address[localhost] ssh_port[22] user[None] assignable[True] timeout[10.0])] master_uri[http://localhost:11311]
[roslaunch][INFO] 2023-02-18 15:57:21,357: process[followline-3]: env[{'SHELL': '/bin/bash', 'ROS_VERSION': '1', 'PKG_CONFIG_PATH': '/home/intechAGV/catkin_ws/devel/lib/pkgconfig:/opt/ros/noetic/lib/pkgconfig', 'ROS_PYTHON_VERSION': '3', 'LC_ADDRESS': 'C.UTF-8', 'LC_NAME': 'C.UTF-8', 'LC_MONETARY': 'C.UTF-8', 'ROS_PACKAGE_PATH': '/home/intech/catkin_ws/src:/home/intechAGV/catkin_ws/src:/opt/ros/noetic/share', 'ROSLISP_PACKAGE_DIRECTORIES': '/home/intechAGV/catkin_ws/devel/share/common-lisp', 'PWD': '/home/intechAGV', 'LOGNAME': 'intechAGV', 'XDG_SESSION_TYPE': 'tty', 'MOTD_SHOWN': 'pam', 'HOME': '/home/intechAGV', 'LANG': 'C.UTF-8', 'LC_PAPER': 'C.UTF-8', 'ROS_ETC_DIR': '/opt/ros/noetic/etc/ros', 'LS_COLORS': 'rs=0:di=01;34:ln=01;36:mh=00:pi=40;33:so=01;35:do=01;35:bd=40;33;01:cd=40;33;01:or=40;31;01:mi=00:su=37;41:sg=30;43:ca=30;41:tw=30;42:ow=34;42:st=37;44:ex=01;32:*.tar=01;31:*.tgz=01;31:*.arc=01;31:*.arj=01;31:*.taz=01;31:*.lha=01;31:*.lz4=01;31:*.lzh=01;31:*.lzma=01;31:*.tlz=01;31:*.txz=01;31:*.tzo=01;31:*.t7z=01;31:*.zip=01;31:*.z=01;31:*.dz=01;31:*.gz=01;31:*.lrz=01;31:*.lz=01;31:*.lzo=01;31:*.xz=01;31:*.zst=01;31:*.tzst=01;31:*.bz2=01;31:*.bz=01;31:*.tbz=01;31:*.tbz2=01;31:*.tz=01;31:*.deb=01;31:*.rpm=01;31:*.jar=01;31:*.war=01;31:*.ear=01;31:*.sar=01;31:*.rar=01;31:*.alz=01;31:*.ace=01;31:*.zoo=01;31:*.cpio=01;31:*.7z=01;31:*.rz=01;31:*.cab=01;31:*.wim=01;31:*.swm=01;31:*.dwm=01;31:*.esd=01;31:*.jpg=01;35:*.jpeg=01;35:*.mjpg=01;35:*.mjpeg=01;35:*.gif=01;35:*.bmp=01;35:*.pbm=01;35:*.pgm=01;35:*.ppm=01;35:*.tga=01;35:*.xbm=01;35:*.xpm=01;35:*.tif=01;35:*.tiff=01;35:*.png=01;35:*.svg=01;35:*.svgz=01;35:*.mng=01;35:*.pcx=01;35:*.mov=01;35:*.mpg=01;35:*.mpeg=01;35:*.m2v=01;35:*.mkv=01;35:*.webm=01;35:*.ogm=01;35:*.mp4=01;35:*.m4v=01;35:*.mp4v=01;35:*.vob=01;35:*.qt=01;35:*.nuv=01;35:*.wmv=01;35:*.asf=01;35:*.rm=01;35:*.rmvb=01;35:*.flc=01;35:*.avi=01;35:*.fli=01;35:*.flv=01;35:*.gl=01;35:*.dl=01;35:*.xcf=01;35:*.xwd=01;35:*.yuv=01;35:*.cgm=01;35:*.emf=01;35:*.ogv=01;35:*.ogx=01;35:*.aac=00;36:*.au=00;36:*.flac=00;36:*.m4a=00;36:*.mid=00;36:*.midi=00;36:*.mka=00;36:*.mp3=00;36:*.mpc=00;36:*.ogg=00;36:*.ra=00;36:*.wav=00;36:*.oga=00;36:*.opus=00;36:*.spx=00;36:*.xspf=00;36:', 'CMAKE_PREFIX_PATH': '/home/intechAGV/catkin_ws/devel:/opt/ros/noetic', 'SSH_CONNECTION': '192.168.0.114 54298 192.168.0.130 22', 'LESSCLOSE': '/usr/bin/lesspipe %s %s', 'XDG_SESSION_CLASS': 'user', 'PYTHONPATH': '/home/intechAGV/catkin_ws/devel/lib/python3/dist-packages:/opt/ros/noetic/lib/python3/dist-packages', 'TERM': 'xterm-256color', 'LC_IDENTIFICATION': 'C.UTF-8', 'LESSOPEN': '| /usr/bin/lesspipe %s', 'USER': 'intechAGV', 'SHLVL': '1', 'LC_TELEPHONE': 'C.UTF-8', 'ROS_MASTER_URI': 'http://localhost:11311', 'LC_MEASUREMENT': 'C.UTF-8', 'XDG_SESSION_ID': '3', 'LD_LIBRARY_PATH': '/home/intechAGV/catkin_ws/devel/lib:/opt/ros/noetic/lib', 'XDG_RUNTIME_DIR': '/run/user/1000', 'SSH_CLIENT': '192.168.0.114 54298 22', 'LC_TIME': 'C.UTF-8', 'XDG_DATA_DIRS': '/usr/local/share:/usr/share:/var/lib/snapd/desktop', 'PATH': '/home/intechAGV/.local/bin:/opt/ros/noetic/bin:/usr/local/sbin:/usr/local/bin:/usr/sbin:/usr/bin:/sbin:/bin:/usr/games:/usr/local/games:/snap/bin', 'DBUS_SESSION_BUS_ADDRESS': 'unix:path=/run/user/1000/bus', 'SSH_TTY': '/dev/pts/1', 'ROS_ROOT': '/opt/ros/noetic/share/ros', 'ROS_DISTRO': 'noetic', 'LC_NUMERIC': 'C.UTF-8', '_': '/opt/ros/noetic/bin/roslaunch', 'ROS_LOG_FILENAME': '/home/intechAGV/.ros/log/9c0b4b9c-af68-11ed-9f36-879bd6047bd7/roslaunch-intechAGV-2278.log'}]
[roslaunch][INFO] 2023-02-18 15:57:21,360: process[followline-3]: args[['/home/intechAGV/catkin_ws/devel/lib/agv1_followline/node_followline.py', '__name:=followline']]
[roslaunch][INFO] 2023-02-18 15:57:21,361: ... created process [followline-3]
[roslaunch.pmon][INFO] 2023-02-18 15:57:21,361: ProcessMonitor.register[followline-3]
[roslaunch.pmon][INFO] 2023-02-18 15:57:21,361: ProcessMonitor.register[followline-3] complete
[roslaunch][INFO] 2023-02-18 15:57:21,362: ... registered process [followline-3]
[roslaunch][INFO] 2023-02-18 15:57:21,362: process[followline-3]: starting os process
[roslaunch][INFO] 2023-02-18 15:57:21,363: process[followline-3]: start w/ args [['/home/intechAGV/catkin_ws/devel/lib/agv1_followline/node_followline.py', '__name:=followline', '__log:=/home/intechAGV/.ros/log/9c0b4b9c-af68-11ed-9f36-879bd6047bd7/followline-3.log']]
[roslaunch][INFO] 2023-02-18 15:57:21,363: process[followline-3]: cwd will be [/home/intechAGV/.ros]
[roslaunch][INFO] 2023-02-18 15:57:21,375: process[followline-3]: started with pid [2294]
[roslaunch][INFO] 2023-02-18 15:57:21,376: ... successfully launched [followline-3]
[roslaunch][INFO] 2023-02-18 15:57:21,377: ... preparing to launch node of type [agv1_rfid/node_readRFID.py]
[roslaunch][INFO] 2023-02-18 15:57:21,378: create_node_process: package[agv1_rfid] type[node_readRFID.py] machine[Machine(name[] env_loader[None] address[localhost] ssh_port[22] user[None] assignable[True] timeout[10.0])] master_uri[http://localhost:11311]
[roslaunch][INFO] 2023-02-18 15:57:21,380: process[RFID-4]: env[{'SHELL': '/bin/bash', 'ROS_VERSION': '1', 'PKG_CONFIG_PATH': '/home/intechAGV/catkin_ws/devel/lib/pkgconfig:/opt/ros/noetic/lib/pkgconfig', 'ROS_PYTHON_VERSION': '3', 'LC_ADDRESS': 'C.UTF-8', 'LC_NAME': 'C.UTF-8', 'LC_MONETARY': 'C.UTF-8', 'ROS_PACKAGE_PATH': '/home/intech/catkin_ws/src:/home/intechAGV/catkin_ws/src:/opt/ros/noetic/share', 'ROSLISP_PACKAGE_DIRECTORIES': '/home/intechAGV/catkin_ws/devel/share/common-lisp', 'PWD': '/home/intechAGV', 'LOGNAME': 'intechAGV', 'XDG_SESSION_TYPE': 'tty', 'MOTD_SHOWN': 'pam', 'HOME': '/home/intechAGV', 'LANG': 'C.UTF-8', 'LC_PAPER': 'C.UTF-8', 'ROS_ETC_DIR': '/opt/ros/noetic/etc/ros', 'LS_COLORS': 'rs=0:di=01;34:ln=01;36:mh=00:pi=40;33:so=01;35:do=01;35:bd=40;33;01:cd=40;33;01:or=40;31;01:mi=00:su=37;41:sg=30;43:ca=30;41:tw=30;42:ow=34;42:st=37;44:ex=01;32:*.tar=01;31:*.tgz=01;31:*.arc=01;31:*.arj=01;31:*.taz=01;31:*.lha=01;31:*.lz4=01;31:*.lzh=01;31:*.lzma=01;31:*.tlz=01;31:*.txz=01;31:*.tzo=01;31:*.t7z=01;31:*.zip=01;31:*.z=01;31:*.dz=01;31:*.gz=01;31:*.lrz=01;31:*.lz=01;31:*.lzo=01;31:*.xz=01;31:*.zst=01;31:*.tzst=01;31:*.bz2=01;31:*.bz=01;31:*.tbz=01;31:*.tbz2=01;31:*.tz=01;31:*.deb=01;31:*.rpm=01;31:*.jar=01;31:*.war=01;31:*.ear=01;31:*.sar=01;31:*.rar=01;31:*.alz=01;31:*.ace=01;31:*.zoo=01;31:*.cpio=01;31:*.7z=01;31:*.rz=01;31:*.cab=01;31:*.wim=01;31:*.swm=01;31:*.dwm=01;31:*.esd=01;31:*.jpg=01;35:*.jpeg=01;35:*.mjpg=01;35:*.mjpeg=01;35:*.gif=01;35:*.bmp=01;35:*.pbm=01;35:*.pgm=01;35:*.ppm=01;35:*.tga=01;35:*.xbm=01;35:*.xpm=01;35:*.tif=01;35:*.tiff=01;35:*.png=01;35:*.svg=01;35:*.svgz=01;35:*.mng=01;35:*.pcx=01;35:*.mov=01;35:*.mpg=01;35:*.mpeg=01;35:*.m2v=01;35:*.mkv=01;35:*.webm=01;35:*.ogm=01;35:*.mp4=01;35:*.m4v=01;35:*.mp4v=01;35:*.vob=01;35:*.qt=01;35:*.nuv=01;35:*.wmv=01;35:*.asf=01;35:*.rm=01;35:*.rmvb=01;35:*.flc=01;35:*.avi=01;35:*.fli=01;35:*.flv=01;35:*.gl=01;35:*.dl=01;35:*.xcf=01;35:*.xwd=01;35:*.yuv=01;35:*.cgm=01;35:*.emf=01;35:*.ogv=01;35:*.ogx=01;35:*.aac=00;36:*.au=00;36:*.flac=00;36:*.m4a=00;36:*.mid=00;36:*.midi=00;36:*.mka=00;36:*.mp3=00;36:*.mpc=00;36:*.ogg=00;36:*.ra=00;36:*.wav=00;36:*.oga=00;36:*.opus=00;36:*.spx=00;36:*.xspf=00;36:', 'CMAKE_PREFIX_PATH': '/home/intechAGV/catkin_ws/devel:/opt/ros/noetic', 'SSH_CONNECTION': '192.168.0.114 54298 192.168.0.130 22', 'LESSCLOSE': '/usr/bin/lesspipe %s %s', 'XDG_SESSION_CLASS': 'user', 'PYTHONPATH': '/home/intechAGV/catkin_ws/devel/lib/python3/dist-packages:/opt/ros/noetic/lib/python3/dist-packages', 'TERM': 'xterm-256color', 'LC_IDENTIFICATION': 'C.UTF-8', 'LESSOPEN': '| /usr/bin/lesspipe %s', 'USER': 'intechAGV', 'SHLVL': '1', 'LC_TELEPHONE': 'C.UTF-8', 'ROS_MASTER_URI': 'http://localhost:11311', 'LC_MEASUREMENT': 'C.UTF-8', 'XDG_SESSION_ID': '3', 'LD_LIBRARY_PATH': '/home/intechAGV/catkin_ws/devel/lib:/opt/ros/noetic/lib', 'XDG_RUNTIME_DIR': '/run/user/1000', 'SSH_CLIENT': '192.168.0.114 54298 22', 'LC_TIME': 'C.UTF-8', 'XDG_DATA_DIRS': '/usr/local/share:/usr/share:/var/lib/snapd/desktop', 'PATH': '/home/intechAGV/.local/bin:/opt/ros/noetic/bin:/usr/local/sbin:/usr/local/bin:/usr/sbin:/usr/bin:/sbin:/bin:/usr/games:/usr/local/games:/snap/bin', 'DBUS_SESSION_BUS_ADDRESS': 'unix:path=/run/user/1000/bus', 'SSH_TTY': '/dev/pts/1', 'ROS_ROOT': '/opt/ros/noetic/share/ros', 'ROS_DISTRO': 'noetic', 'LC_NUMERIC': 'C.UTF-8', '_': '/opt/ros/noetic/bin/roslaunch', 'ROS_LOG_FILENAME': '/home/intechAGV/.ros/log/9c0b4b9c-af68-11ed-9f36-879bd6047bd7/roslaunch-intechAGV-2278.log'}]
[roslaunch][INFO] 2023-02-18 15:57:21,384: process[RFID-4]: args[['/home/intechAGV/catkin_ws/devel/lib/agv1_rfid/node_readRFID.py', '__name:=RFID']]
[roslaunch][INFO] 2023-02-18 15:57:21,385: ... created process [RFID-4]
[roslaunch.pmon][INFO] 2023-02-18 15:57:21,386: ProcessMonitor.register[RFID-4]
[roslaunch.pmon][INFO] 2023-02-18 15:57:21,387: ProcessMonitor.register[RFID-4] complete
[roslaunch][INFO] 2023-02-18 15:57:21,389: ... registered process [RFID-4]
[roslaunch][INFO] 2023-02-18 15:57:21,390: process[RFID-4]: starting os process
[roslaunch][INFO] 2023-02-18 15:57:21,391: process[RFID-4]: start w/ args [['/home/intechAGV/catkin_ws/devel/lib/agv1_rfid/node_readRFID.py', '__name:=RFID', '__log:=/home/intechAGV/.ros/log/9c0b4b9c-af68-11ed-9f36-879bd6047bd7/RFID-4.log']]
[roslaunch][INFO] 2023-02-18 15:57:21,392: process[RFID-4]: cwd will be [/home/intechAGV/.ros]
[roslaunch][INFO] 2023-02-18 15:57:21,408: process[RFID-4]: started with pid [2295]
[roslaunch][INFO] 2023-02-18 15:57:21,409: ... successfully launched [RFID-4]
[roslaunch][INFO] 2023-02-18 15:57:21,409: ... launch_nodes complete
[roslaunch.pmon][INFO] 2023-02-18 15:57:21,410: registrations completed <ProcessMonitor(ProcessMonitor-1, started daemon 281473761120736)>
[roslaunch.parent][INFO] 2023-02-18 15:57:21,410: ... roslaunch parent running, waiting for process exit
[roslaunch][INFO] 2023-02-18 15:57:21,411: spin
[roslaunch.pmon][INFO] 2023-02-18 16:03:57,888: ProcessMonitor.shutdown <ProcessMonitor(ProcessMonitor-1, started daemon 281473761120736)>
[roslaunch.pmon][INFO] 2023-02-18 16:03:57,988: ProcessMonitor._post_run <ProcessMonitor(ProcessMonitor-1, started daemon 281473761120736)>
[roslaunch.pmon][INFO] 2023-02-18 16:03:57,989: ProcessMonitor._post_run <ProcessMonitor(ProcessMonitor-1, started daemon 281473761120736)>: remaining procs are [<roslaunch.nodeprocess.LocalProcess object at 0xffffb794d760>, <roslaunch.nodeprocess.LocalProcess object at 0xffffb794da30>, <roslaunch.nodeprocess.LocalProcess object at 0xffffb794db80>, <roslaunch.nodeprocess.LocalProcess object at 0xffffb794d820>]
[roslaunch.pmon][INFO] 2023-02-18 16:03:57,990: ProcessMonitor exit: killing RFID-4
[roslaunch.pmon][INFO] 2023-02-18 16:03:57,991: ProcessMonitor exit: killing followline-3
[roslaunch][INFO] 2023-02-18 16:03:57,993: [followline-3] killing on exit
[roslaunch.pmon][INFO] 2023-02-18 16:03:57,992: ProcessMonitor exit: killing gpio-2
[roslaunch][INFO] 2023-02-18 16:03:57,991: [RFID-4] killing on exit
[roslaunch.pmon][INFO] 2023-02-18 16:03:57,994: ProcessMonitor exit: killing baseController-1
[roslaunch][INFO] 2023-02-18 16:03:57,996: process[followline-3]: killing os process with pid[2294] pgid[2294]
[roslaunch][INFO] 2023-02-18 16:03:57,997: [gpio-2] killing on exit
[roslaunch][INFO] 2023-02-18 16:03:57,999: process[RFID-4]: killing os process with pid[2295] pgid[2295]
[roslaunch][INFO] 2023-02-18 16:03:57,999: [baseController-1] killing on exit
[roslaunch][INFO] 2023-02-18 16:03:58,000: [followline-3] sending SIGINT to pgid [2294]
[roslaunch][INFO] 2023-02-18 16:03:58,001: [RFID-4] sending SIGINT to pgid [2295]
[roslaunch][INFO] 2023-02-18 16:03:58,001: process[gpio-2]: killing os process with pid[2293] pgid[2293]
[roslaunch][INFO] 2023-02-18 16:03:58,002: process[baseController-1]: killing os process with pid[2292] pgid[2292]
[roslaunch][INFO] 2023-02-18 16:03:58,002: [followline-3] sent SIGINT to pgid [2294]
[roslaunch][INFO] 2023-02-18 16:03:58,002: [RFID-4] sent SIGINT to pgid [2295]
[roslaunch][INFO] 2023-02-18 16:03:58,004: [gpio-2] sending SIGINT to pgid [2293]
[roslaunch][INFO] 2023-02-18 16:03:58,005: [baseController-1] sending SIGINT to pgid [2292]
[roslaunch][INFO] 2023-02-18 16:03:58,006: [gpio-2] sent SIGINT to pgid [2293]
[roslaunch][INFO] 2023-02-18 16:03:58,008: [baseController-1] sent SIGINT to pgid [2292]
[roslaunch][INFO] 2023-02-18 16:03:58,811: process[gpio-2]: SIGINT killed with return value 0
[roslaunch][INFO] 2023-02-18 16:03:59,014: process[baseController-1]: SIGINT killed with return value 0
[roslaunch][INFO] 2023-02-18 16:03:59,910: process[RFID-4]: SIGINT killed with return value 0
[roslaunch][INFO] 2023-02-18 16:04:00,911: process[followline-3]: SIGINT killed with return value 0
[roslaunch.pmon][INFO] 2023-02-18 16:04:00,913: ProcessMonitor exit: cleaning up data structures and signals
[roslaunch.pmon][INFO] 2023-02-18 16:04:00,914: ProcessMonitor exit: pmon has shutdown
[roslaunch][INFO] 2023-02-18 16:04:00,914: process monitor is done spinning, initiating full shutdown
[roslaunch][INFO] 2023-02-18 16:04:00,915: runner.stop()
[roslaunch][INFO] 2023-02-18 16:04:00,915: shutting down processing monitor...
[roslaunch][INFO] 2023-02-18 16:04:00,915: shutting down processing monitor <ProcessMonitor(ProcessMonitor-1, stopped daemon 281473761120736)>
[roslaunch.pmon][INFO] 2023-02-18 16:04:00,916: ProcessMonitor.shutdown <ProcessMonitor(ProcessMonitor-1, stopped daemon 281473761120736)>
[roslaunch][INFO] 2023-02-18 16:04:00,916: ... shutting down processing monitor complete
[roslaunch][INFO] 2023-02-18 16:04:00,916: done
[roslaunch.pmon][INFO] 2023-02-18 16:04:00,917: ProcessMonitor.shutdown <ProcessMonitor(ProcessMonitor-1, stopped daemon 281473761120736)>
[rospy.core][INFO] 2023-02-18 16:04:00,917: signal_shutdown [atexit]
