[rospy.client][INFO] 2023-02-18 15:44:51,241: init_node, name[/followline], pid[3767]
[xmlrpc][INFO] 2023-02-18 15:44:51,243: XML-RPC server binding to 0.0.0.0:0
[xmlrpc][INFO] 2023-02-18 15:44:51,246: Started XML-RPC server [http://intechAGV:42519/]
[rospy.init][INFO] 2023-02-18 15:44:51,246: ROS Slave URI: [http://intechAGV:42519/]
[rospy.impl.masterslave][INFO] 2023-02-18 15:44:51,247: _ready: http://intechAGV:42519/
[rospy.registration][INFO] 2023-02-18 15:44:51,251: Registering with master node http://localhost:11311
[xmlrpc][INFO] 2023-02-18 15:44:51,252: xml rpc node: starting XML-RPC server
[rospy.init][INFO] 2023-02-18 15:44:51,348: registered with master
[rospy.rosout][INFO] 2023-02-18 15:44:51,349: initializing /rosout core topic
[rospy.rosout][INFO] 2023-02-18 15:44:51,361: connected to core topic /rosout
[rospy.simtime][INFO] 2023-02-18 15:44:51,365: /use_sim_time is not set, will not subscribe to simulated time [/clock] topic
[rosout][INFO] 2023-02-18 15:44:51,379: /followline started
[rospy.internal][INFO] 2023-02-18 15:44:51,632: topic[/rosout] adding connection to [/rosout], count 0
[rospy.core][INFO] 2023-02-18 15:44:56,951: signal_shutdown [atexit]
[rospy.internal][INFO] 2023-02-18 15:44:56,956: topic[/rosout] removing connection to /rosout
[rospy.impl.masterslave][INFO] 2023-02-18 15:44:56,957: atexit
