[rospy.client][INFO] 2023-02-17 15:04:32,685: init_node, name[/gpio], pid[1864]
[xmlrpc][INFO] 2023-02-17 15:04:32,687: XML-RPC server binding to 0.0.0.0:0
[xmlrpc][INFO] 2023-02-17 15:04:32,689: Started XML-RPC server [http://intechAGV:35737/]
[rospy.init][INFO] 2023-02-17 15:04:32,689: ROS Slave URI: [http://intechAGV:35737/]
[rospy.impl.masterslave][INFO] 2023-02-17 15:04:32,690: _ready: http://intechAGV:35737/
[rospy.registration][INFO] 2023-02-17 15:04:32,693: Registering with master node http://localhost:11311
[xmlrpc][INFO] 2023-02-17 15:04:32,694: xml rpc node: starting XML-RPC server
[rospy.init][INFO] 2023-02-17 15:04:32,791: registered with master
[rospy.rosout][INFO] 2023-02-17 15:04:32,791: initializing /rosout core topic
[rospy.rosout][INFO] 2023-02-17 15:04:32,801: connected to core topic /rosout
[rospy.simtime][INFO] 2023-02-17 15:04:32,804: /use_sim_time is not set, will not subscribe to simulated time [/clock] topic
[rosout][INFO] 2023-02-17 15:04:32,811: /gpio started
[rospy.internal][INFO] 2023-02-17 15:04:32,830: topic[/conveyor_topic] adding connection to [http://intechAGV:44119/], count 0
[rospy.internal][INFO] 2023-02-17 15:04:32,946: topic[/rosout] adding connection to [/rosout], count 0
[rospy.core][INFO] 2023-02-17 15:05:42,017: signal_shutdown [signal-2]
[rospy.internal][INFO] 2023-02-17 15:05:42,037: topic[/rosout] removing connection to /rosout
[rospy.internal][INFO] 2023-02-17 15:05:42,038: topic[/conveyor_topic] removing connection to http://intechAGV:44119/
[rospy.impl.masterslave][INFO] 2023-02-17 15:05:42,039: signal-2
[rospy.core][INFO] 2023-02-17 15:05:42,619: signal_shutdown [atexit]
