[rospy.client][INFO] 2023-02-03 14:54:42,088: init_node, name[/followline], pid[1423]
[xmlrpc][INFO] 2023-02-03 14:54:42,089: XML-RPC server binding to 0.0.0.0:0
[xmlrpc][INFO] 2023-02-03 14:54:42,091: Started XML-RPC server [http://intechAGV:43249/]
[rospy.init][INFO] 2023-02-03 14:54:42,091: ROS Slave URI: [http://intechAGV:43249/]
[rospy.impl.masterslave][INFO] 2023-02-03 14:54:42,092: _ready: http://intechAGV:43249/
[rospy.registration][INFO] 2023-02-03 14:54:42,094: Registering with master node http://localhost:11311
[xmlrpc][INFO] 2023-02-03 14:54:42,095: xml rpc node: starting XML-RPC server
[rospy.init][INFO] 2023-02-03 14:54:42,192: registered with master
[rospy.rosout][INFO] 2023-02-03 14:54:42,193: initializing /rosout core topic
[rospy.rosout][INFO] 2023-02-03 14:54:42,206: connected to core topic /rosout
[rospy.simtime][INFO] 2023-02-03 14:54:42,209: /use_sim_time is not set, will not subscribe to simulated time [/clock] topic
[rosout][INFO] 2023-02-03 14:54:42,218: /followline started
[rospy.internal][INFO] 2023-02-03 14:54:42,511: topic[/rosout] adding connection to [/rosout], count 0
[rospy.internal][INFO] 2023-02-03 14:54:57,926: topic[/followline_topic] adding connection to [/rostopic_1587_1675410897736], count 0
[rospy.core][INFO] 2023-02-03 14:56:33,192: signal_shutdown [atexit]
[rospy.internal][INFO] 2023-02-03 14:56:33,198: topic[/rosout] removing connection to /rosout
[rospy.internal][INFO] 2023-02-03 14:56:33,199: topic[/followline_topic] removing connection to /rostopic_1587_1675410897736
[rospy.impl.masterslave][INFO] 2023-02-03 14:56:33,199: atexit
[rospy.client][INFO] 2023-02-03 14:56:49,357: init_node, name[/followline], pid[1647]
[xmlrpc][INFO] 2023-02-03 14:56:49,358: XML-RPC server binding to 0.0.0.0:0
[xmlrpc][INFO] 2023-02-03 14:56:49,359: Started XML-RPC server [http://intechAGV:34105/]
[rospy.init][INFO] 2023-02-03 14:56:49,360: ROS Slave URI: [http://intechAGV:34105/]
[rospy.impl.masterslave][INFO] 2023-02-03 14:56:49,360: _ready: http://intechAGV:34105/
[rospy.registration][INFO] 2023-02-03 14:56:49,364: Registering with master node http://localhost:11311
[xmlrpc][INFO] 2023-02-03 14:56:49,365: xml rpc node: starting XML-RPC server
[rospy.init][INFO] 2023-02-03 14:56:49,461: registered with master
[rospy.rosout][INFO] 2023-02-03 14:56:49,462: initializing /rosout core topic
[rospy.rosout][INFO] 2023-02-03 14:56:49,474: connected to core topic /rosout
[rospy.simtime][INFO] 2023-02-03 14:56:49,477: /use_sim_time is not set, will not subscribe to simulated time [/clock] topic
[rosout][INFO] 2023-02-03 14:56:49,487: /followline started
[rospy.internal][INFO] 2023-02-03 14:56:49,671: topic[/rosout] adding connection to [/rosout], count 0
[rospy.core][INFO] 2023-02-03 14:56:49,958: signal_shutdown [atexit]
[rospy.internal][INFO] 2023-02-03 14:56:49,962: topic[/rosout] removing connection to /rosout
[rospy.impl.masterslave][INFO] 2023-02-03 14:56:49,962: atexit
[rospy.client][INFO] 2023-02-03 14:57:13,287: init_node, name[/followline], pid[1700]
[xmlrpc][INFO] 2023-02-03 14:57:13,289: XML-RPC server binding to 0.0.0.0:0
[xmlrpc][INFO] 2023-02-03 14:57:13,291: Started XML-RPC server [http://intechAGV:39353/]
[rospy.init][INFO] 2023-02-03 14:57:13,292: ROS Slave URI: [http://intechAGV:39353/]
[rospy.impl.masterslave][INFO] 2023-02-03 14:57:13,293: _ready: http://intechAGV:39353/
[rospy.registration][INFO] 2023-02-03 14:57:13,296: Registering with master node http://localhost:11311
[xmlrpc][INFO] 2023-02-03 14:57:13,297: xml rpc node: starting XML-RPC server
[rospy.init][INFO] 2023-02-03 14:57:13,394: registered with master
[rospy.rosout][INFO] 2023-02-03 14:57:13,395: initializing /rosout core topic
[rospy.rosout][INFO] 2023-02-03 14:57:13,406: connected to core topic /rosout
[rospy.simtime][INFO] 2023-02-03 14:57:13,410: /use_sim_time is not set, will not subscribe to simulated time [/clock] topic
[rosout][INFO] 2023-02-03 14:57:13,419: /followline started
[rospy.internal][INFO] 2023-02-03 14:57:13,545: topic[/rosout] adding connection to [/rosout], count 0
[rospy.core][INFO] 2023-02-03 14:57:13,891: signal_shutdown [atexit]
[rospy.internal][INFO] 2023-02-03 14:57:13,895: topic[/rosout] removing connection to /rosout
[rospy.impl.masterslave][INFO] 2023-02-03 14:57:13,896: atexit
[rospy.client][INFO] 2023-02-03 14:57:29,775: init_node, name[/followline], pid[1757]
[xmlrpc][INFO] 2023-02-03 14:57:29,777: XML-RPC server binding to 0.0.0.0:0
[xmlrpc][INFO] 2023-02-03 14:57:29,778: Started XML-RPC server [http://intechAGV:41385/]
[rospy.init][INFO] 2023-02-03 14:57:29,779: ROS Slave URI: [http://intechAGV:41385/]
[rospy.impl.masterslave][INFO] 2023-02-03 14:57:29,779: _ready: http://intechAGV:41385/
[rospy.registration][INFO] 2023-02-03 14:57:29,782: Registering with master node http://localhost:11311
[xmlrpc][INFO] 2023-02-03 14:57:29,782: xml rpc node: starting XML-RPC server
[rospy.init][INFO] 2023-02-03 14:57:29,880: registered with master
[rospy.rosout][INFO] 2023-02-03 14:57:29,881: initializing /rosout core topic
[rospy.rosout][INFO] 2023-02-03 14:57:29,892: connected to core topic /rosout
[rospy.simtime][INFO] 2023-02-03 14:57:29,895: /use_sim_time is not set, will not subscribe to simulated time [/clock] topic
[rosout][INFO] 2023-02-03 14:57:29,904: /followline started
[rospy.internal][INFO] 2023-02-03 14:57:30,174: topic[/rosout] adding connection to [/rosout], count 0
[rospy.core][INFO] 2023-02-03 14:57:30,376: signal_shutdown [atexit]
[rospy.internal][INFO] 2023-02-03 14:57:30,380: topic[/rosout] removing connection to /rosout
[rospy.impl.masterslave][INFO] 2023-02-03 14:57:30,381: atexit
[rospy.client][INFO] 2023-02-03 14:57:44,084: init_node, name[/followline], pid[1815]
[xmlrpc][INFO] 2023-02-03 14:57:44,085: XML-RPC server binding to 0.0.0.0:0
[xmlrpc][INFO] 2023-02-03 14:57:44,088: Started XML-RPC server [http://intechAGV:37197/]
[rospy.init][INFO] 2023-02-03 14:57:44,089: ROS Slave URI: [http://intechAGV:37197/]
[rospy.impl.masterslave][INFO] 2023-02-03 14:57:44,089: _ready: http://intechAGV:37197/
[rospy.registration][INFO] 2023-02-03 14:57:44,092: Registering with master node http://localhost:11311
[xmlrpc][INFO] 2023-02-03 14:57:44,093: xml rpc node: starting XML-RPC server
[rospy.init][INFO] 2023-02-03 14:57:44,190: registered with master
[rospy.rosout][INFO] 2023-02-03 14:57:44,191: initializing /rosout core topic
[rospy.rosout][INFO] 2023-02-03 14:57:44,203: connected to core topic /rosout
[rospy.simtime][INFO] 2023-02-03 14:57:44,206: /use_sim_time is not set, will not subscribe to simulated time [/clock] topic
[rosout][INFO] 2023-02-03 14:57:44,216: /followline started
[rospy.internal][INFO] 2023-02-03 14:57:44,313: topic[/followline_topic] adding connection to [/rostopic_1587_1675410897736], count 0
[rospy.internal][INFO] 2023-02-03 14:57:44,501: topic[/rosout] adding connection to [/rosout], count 0
[rospy.internal][INFO] 2023-02-03 14:59:32,845: topic[/followline_topic] adding connection to [/AGV1_MASTER], count 1
[rospy.internal][INFO] 2023-02-03 14:59:47,875: topic[/followline_topic] removing connection to /AGV1_MASTER
[rospy.internal][INFO] 2023-02-03 14:59:59,957: topic[/followline_topic] adding connection to [/AGV1_MASTER], count 1
[rospy.internal][INFO] 2023-02-03 15:00:13,661: topic[/followline_topic] removing connection to /AGV1_MASTER
[rospy.core][INFO] 2023-02-03 15:00:21,454: signal_shutdown [signal-2]
[rospy.internal][INFO] 2023-02-03 15:00:21,465: topic[/rosout] removing connection to /rosout
[rospy.internal][INFO] 2023-02-03 15:00:21,466: topic[/followline_topic] removing connection to /rostopic_1587_1675410897736
[rospy.impl.masterslave][INFO] 2023-02-03 15:00:21,467: signal-2
[rospy.core][INFO] 2023-02-03 15:00:24,173: signal_shutdown [atexit]
[rospy.client][INFO] 2023-02-03 15:00:40,849: init_node, name[/followline], pid[2123]
[xmlrpc][INFO] 2023-02-03 15:00:40,850: XML-RPC server binding to 0.0.0.0:0
[xmlrpc][INFO] 2023-02-03 15:00:40,852: Started XML-RPC server [http://intechAGV:42773/]
[rospy.init][INFO] 2023-02-03 15:00:40,853: ROS Slave URI: [http://intechAGV:42773/]
[rospy.impl.masterslave][INFO] 2023-02-03 15:00:40,853: _ready: http://intechAGV:42773/
[rospy.registration][INFO] 2023-02-03 15:00:40,856: Registering with master node http://localhost:11311
[xmlrpc][INFO] 2023-02-03 15:00:40,856: xml rpc node: starting XML-RPC server
[rospy.init][INFO] 2023-02-03 15:00:40,954: registered with master
[rospy.rosout][INFO] 2023-02-03 15:00:40,954: initializing /rosout core topic
[rospy.rosout][INFO] 2023-02-03 15:00:40,966: connected to core topic /rosout
[rospy.simtime][INFO] 2023-02-03 15:00:40,969: /use_sim_time is not set, will not subscribe to simulated time [/clock] topic
[rosout][INFO] 2023-02-03 15:00:40,981: /followline started
[rospy.internal][INFO] 2023-02-03 15:00:41,093: topic[/followline_topic] adding connection to [/rostopic_1587_1675410897736], count 0
[rospy.internal][INFO] 2023-02-03 15:00:41,186: topic[/rosout] adding connection to [/rosout], count 0
[rospy.internal][INFO] 2023-02-03 15:00:51,581: topic[/followline_topic] adding connection to [/AGV1_MASTER], count 1
[rospy.internal][INFO] 2023-02-03 15:01:00,867: topic[/followline_topic] removing connection to /AGV1_MASTER
[rospy.internal][INFO] 2023-02-03 15:01:32,393: topic[/followline_topic] adding connection to [/AGV1_MASTER], count 1
[rospy.internal][INFO] 2023-02-03 15:03:04,626: topic[/followline_topic] removing connection to /AGV1_MASTER
[rospy.core][INFO] 2023-02-03 15:09:59,667: signal_shutdown [signal-2]
[rospy.internal][INFO] 2023-02-03 15:09:59,688: topic[/rosout] removing connection to /rosout
[rospy.internal][INFO] 2023-02-03 15:09:59,689: topic[/followline_topic] removing connection to /rostopic_1587_1675410897736
[rospy.impl.masterslave][INFO] 2023-02-03 15:09:59,690: signal-2
[rospy.core][INFO] 2023-02-03 15:10:02,383: signal_shutdown [atexit]
[rospy.client][INFO] 2023-02-03 15:10:17,912: init_node, name[/followline], pid[2717]
[xmlrpc][INFO] 2023-02-03 15:10:17,913: XML-RPC server binding to 0.0.0.0:0
[xmlrpc][INFO] 2023-02-03 15:10:17,915: Started XML-RPC server [http://intechAGV:45895/]
[rospy.init][INFO] 2023-02-03 15:10:17,916: ROS Slave URI: [http://intechAGV:45895/]
[rospy.impl.masterslave][INFO] 2023-02-03 15:10:17,917: _ready: http://intechAGV:45895/
[rospy.registration][INFO] 2023-02-03 15:10:17,921: Registering with master node http://localhost:11311
[xmlrpc][INFO] 2023-02-03 15:10:17,922: xml rpc node: starting XML-RPC server
[rospy.init][INFO] 2023-02-03 15:10:18,018: registered with master
[rospy.rosout][INFO] 2023-02-03 15:10:18,019: initializing /rosout core topic
[rospy.rosout][INFO] 2023-02-03 15:10:18,031: connected to core topic /rosout
[rospy.simtime][INFO] 2023-02-03 15:10:18,035: /use_sim_time is not set, will not subscribe to simulated time [/clock] topic
[rosout][INFO] 2023-02-03 15:10:18,043: /followline started
[rospy.internal][INFO] 2023-02-03 15:10:18,129: topic[/followline_topic] adding connection to [/rostopic_1587_1675410897736], count 0
[rospy.internal][INFO] 2023-02-03 15:10:18,317: topic[/rosout] adding connection to [/rosout], count 0
[rospy.internal][INFO] 2023-02-03 15:10:25,156: topic[/followline_topic] adding connection to [/AGV1_MASTER], count 1
[rospy.internal][INFO] 2023-02-03 15:10:31,759: topic[/followline_topic] removing connection to /AGV1_MASTER
[rospy.internal][INFO] 2023-02-03 15:11:23,608: topic[/followline_topic] removing connection to /rostopic_1587_1675410897736
[rospy.core][INFO] 2023-02-03 15:11:28,704: signal_shutdown [signal-2]
[rospy.internal][INFO] 2023-02-03 15:11:28,716: topic[/rosout] removing connection to /rosout
[rospy.impl.masterslave][INFO] 2023-02-03 15:11:28,717: signal-2
[rospy.core][INFO] 2023-02-03 15:11:31,420: signal_shutdown [atexit]
[rospy.client][INFO] 2023-02-03 15:11:38,080: init_node, name[/followline], pid[2835]
[xmlrpc][INFO] 2023-02-03 15:11:38,081: XML-RPC server binding to 0.0.0.0:0
[xmlrpc][INFO] 2023-02-03 15:11:38,083: Started XML-RPC server [http://intechAGV:40081/]
[rospy.init][INFO] 2023-02-03 15:11:38,084: ROS Slave URI: [http://intechAGV:40081/]
[rospy.impl.masterslave][INFO] 2023-02-03 15:11:38,084: _ready: http://intechAGV:40081/
[rospy.registration][INFO] 2023-02-03 15:11:38,087: Registering with master node http://localhost:11311
[xmlrpc][INFO] 2023-02-03 15:11:38,088: xml rpc node: starting XML-RPC server
[rospy.init][INFO] 2023-02-03 15:11:38,185: registered with master
[rospy.rosout][INFO] 2023-02-03 15:11:38,186: initializing /rosout core topic
[rospy.rosout][INFO] 2023-02-03 15:11:38,199: connected to core topic /rosout
[rospy.simtime][INFO] 2023-02-03 15:11:38,204: /use_sim_time is not set, will not subscribe to simulated time [/clock] topic
[rosout][INFO] 2023-02-03 15:11:38,216: /followline started
[rospy.internal][INFO] 2023-02-03 15:11:38,414: topic[/rosout] adding connection to [/rosout], count 0
[rospy.internal][INFO] 2023-02-03 15:12:27,101: topic[/followline_topic] adding connection to [/AGV1_MASTER], count 0
[rospy.internal][INFO] 2023-02-03 15:12:33,047: topic[/followline_topic] removing connection to /AGV1_MASTER
[rospy.internal][INFO] 2023-02-03 15:12:42,003: topic[/followline_topic] adding connection to [/rostopic_2922_1675411961815], count 0
[rospy.internal][INFO] 2023-02-03 15:12:51,273: topic[/followline_topic] removing connection to /rostopic_2922_1675411961815
[rospy.core][INFO] 2023-02-03 15:16:32,104: signal_shutdown [signal-2]
[rospy.internal][INFO] 2023-02-03 15:16:32,119: topic[/rosout] removing connection to /rosout
[rospy.impl.masterslave][INFO] 2023-02-03 15:16:32,120: signal-2
[rospy.core][INFO] 2023-02-03 15:16:34,821: signal_shutdown [atexit]
[rospy.client][INFO] 2023-02-03 15:16:39,690: init_node, name[/followline], pid[3033]
[xmlrpc][INFO] 2023-02-03 15:16:39,691: XML-RPC server binding to 0.0.0.0:0
[xmlrpc][INFO] 2023-02-03 15:16:39,693: Started XML-RPC server [http://intechAGV:39879/]
[rospy.init][INFO] 2023-02-03 15:16:39,694: ROS Slave URI: [http://intechAGV:39879/]
[rospy.impl.masterslave][INFO] 2023-02-03 15:16:39,694: _ready: http://intechAGV:39879/
[rospy.registration][INFO] 2023-02-03 15:16:39,697: Registering with master node http://localhost:11311
[xmlrpc][INFO] 2023-02-03 15:16:39,698: xml rpc node: starting XML-RPC server
[rospy.init][INFO] 2023-02-03 15:16:39,795: registered with master
[rospy.rosout][INFO] 2023-02-03 15:16:39,796: initializing /rosout core topic
[rospy.rosout][INFO] 2023-02-03 15:16:39,808: connected to core topic /rosout
[rospy.simtime][INFO] 2023-02-03 15:16:39,811: /use_sim_time is not set, will not subscribe to simulated time [/clock] topic
[rosout][INFO] 2023-02-03 15:16:39,822: /followline started
[rospy.internal][INFO] 2023-02-03 15:16:40,035: topic[/rosout] adding connection to [/rosout], count 0
[rospy.internal][INFO] 2023-02-03 15:16:47,795: topic[/followline_topic] adding connection to [/rostopic_3055_1675412207611], count 0
[rospy.internal][INFO] 2023-02-03 15:17:29,030: topic[/followline_topic] adding connection to [/AGV1_MASTER], count 1
[rospy.internal][INFO] 2023-02-03 15:17:34,543: topic[/followline_topic] removing connection to /AGV1_MASTER
[rospy.internal][INFO] 2023-02-03 15:19:46,235: topic[/followline_topic] adding connection to [/AGV1_MASTER], count 1
[rospy.internal][INFO] 2023-02-03 15:25:49,719: topic[/followline_topic] removing connection to /AGV1_MASTER
[rospy.core][INFO] 2023-02-03 15:26:30,497: signal_shutdown [signal-2]
[rospy.internal][INFO] 2023-02-03 15:26:30,510: topic[/rosout] removing connection to /rosout
[rospy.internal][INFO] 2023-02-03 15:26:30,514: topic[/followline_topic] removing connection to /rostopic_3055_1675412207611
[rospy.impl.masterslave][INFO] 2023-02-03 15:26:30,515: signal-2
[rospy.core][INFO] 2023-02-03 15:26:33,213: signal_shutdown [atexit]
[rospy.client][INFO] 2023-02-03 15:26:38,349: init_node, name[/followline], pid[3280]
[xmlrpc][INFO] 2023-02-03 15:26:38,351: XML-RPC server binding to 0.0.0.0:0
[xmlrpc][INFO] 2023-02-03 15:26:38,353: Started XML-RPC server [http://intechAGV:35547/]
[rospy.init][INFO] 2023-02-03 15:26:38,353: ROS Slave URI: [http://intechAGV:35547/]
[rospy.impl.masterslave][INFO] 2023-02-03 15:26:38,354: _ready: http://intechAGV:35547/
[rospy.registration][INFO] 2023-02-03 15:26:38,357: Registering with master node http://localhost:11311
[xmlrpc][INFO] 2023-02-03 15:26:38,357: xml rpc node: starting XML-RPC server
[rospy.init][INFO] 2023-02-03 15:26:38,454: registered with master
[rospy.rosout][INFO] 2023-02-03 15:26:38,455: initializing /rosout core topic
[rospy.rosout][INFO] 2023-02-03 15:26:38,467: connected to core topic /rosout
[rospy.simtime][INFO] 2023-02-03 15:26:38,471: /use_sim_time is not set, will not subscribe to simulated time [/clock] topic
[rosout][INFO] 2023-02-03 15:26:38,481: /followline started
[rospy.internal][INFO] 2023-02-03 15:26:38,569: topic[/followline_topic] adding connection to [/rostopic_3055_1675412207611], count 0
[rospy.internal][INFO] 2023-02-03 15:26:38,756: topic[/rosout] adding connection to [/rosout], count 0
[rospy.core][INFO] 2023-02-03 15:29:04,444: signal_shutdown [signal-2]
[rospy.internal][INFO] 2023-02-03 15:29:04,460: topic[/rosout] removing connection to /rosout
[rospy.internal][INFO] 2023-02-03 15:29:04,460: topic[/followline_topic] removing connection to /rostopic_3055_1675412207611
[rospy.impl.masterslave][INFO] 2023-02-03 15:29:04,461: signal-2
[rospy.core][INFO] 2023-02-03 15:29:07,160: signal_shutdown [atexit]
