[rospy.client][INFO] 2023-02-03 14:31:14,630: init_node, name[/baseController], pid[2438]
[xmlrpc][INFO] 2023-02-03 14:31:14,631: XML-RPC server binding to 0.0.0.0:0
[xmlrpc][INFO] 2023-02-03 14:31:14,631: Started XML-RPC server [http://intechAGV:38933/]
[rospy.init][INFO] 2023-02-03 14:31:14,632: ROS Slave URI: [http://intechAGV:38933/]
[rospy.impl.masterslave][INFO] 2023-02-03 14:31:14,632: _ready: http://intechAGV:38933/
[rospy.registration][INFO] 2023-02-03 14:31:14,634: Registering with master node http://localhost:11311
[xmlrpc][INFO] 2023-02-03 14:31:14,634: xml rpc node: starting XML-RPC server
[rospy.init][INFO] 2023-02-03 14:31:14,732: registered with master
[rospy.rosout][INFO] 2023-02-03 14:31:14,733: initializing /rosout core topic
[rospy.rosout][INFO] 2023-02-03 14:31:14,744: connected to core topic /rosout
[rospy.simtime][INFO] 2023-02-03 14:31:14,747: /use_sim_time is not set, will not subscribe to simulated time [/clock] topic
[rosout][INFO] 2023-02-03 14:31:14,755: /baseController started
[rospy.internal][INFO] 2023-02-03 14:31:15,039: topic[/rosout] adding connection to [/rosout], count 0
[rospy.internal][INFO] 2023-02-03 14:31:28,966: topic[/cmd_vel] adding connection to [http://intechAGV:42863/], count 0
[rospy.core][INFO] 2023-02-03 14:36:38,167: signal_shutdown [signal-2]
[rospy.internal][INFO] 2023-02-03 14:36:38,176: topic[/rosout] removing connection to /rosout
[rospy.internal][INFO] 2023-02-03 14:36:38,178: topic[/cmd_vel] removing connection to http://intechAGV:42863/
[rospy.impl.masterslave][INFO] 2023-02-03 14:36:38,179: signal-2
[rospy.core][INFO] 2023-02-03 14:36:38,969: signal_shutdown [atexit]
[rospy.client][INFO] 2023-02-03 14:36:46,643: init_node, name[/baseController], pid[2897]
[xmlrpc][INFO] 2023-02-03 14:36:46,644: XML-RPC server binding to 0.0.0.0:0
[xmlrpc][INFO] 2023-02-03 14:36:46,645: Started XML-RPC server [http://intechAGV:44797/]
[rospy.init][INFO] 2023-02-03 14:36:46,646: ROS Slave URI: [http://intechAGV:44797/]
[rospy.impl.masterslave][INFO] 2023-02-03 14:36:46,646: _ready: http://intechAGV:44797/
[rospy.registration][INFO] 2023-02-03 14:36:46,648: Registering with master node http://localhost:11311
[xmlrpc][INFO] 2023-02-03 14:36:46,649: xml rpc node: starting XML-RPC server
[rospy.init][INFO] 2023-02-03 14:36:46,747: registered with master
[rospy.rosout][INFO] 2023-02-03 14:36:46,748: initializing /rosout core topic
[rospy.rosout][INFO] 2023-02-03 14:36:46,763: connected to core topic /rosout
[rospy.simtime][INFO] 2023-02-03 14:36:46,766: /use_sim_time is not set, will not subscribe to simulated time [/clock] topic
[rosout][INFO] 2023-02-03 14:36:46,774: /baseController started
[rospy.internal][INFO] 2023-02-03 14:36:46,807: topic[/cmd_vel] adding connection to [http://intechAGV:42863/], count 0
[rospy.internal][INFO] 2023-02-03 14:36:46,904: topic[/rosout] adding connection to [/rosout], count 0
[rospy.core][INFO] 2023-02-03 14:39:11,106: signal_shutdown [signal-2]
[rospy.internal][INFO] 2023-02-03 14:39:11,116: topic[/rosout] removing connection to /rosout
[rospy.internal][INFO] 2023-02-03 14:39:11,117: topic[/cmd_vel] removing connection to http://intechAGV:42863/
[rospy.impl.masterslave][INFO] 2023-02-03 14:39:11,118: signal-2
[rospy.core][INFO] 2023-02-03 14:39:11,909: signal_shutdown [atexit]
[rospy.client][INFO] 2023-02-03 14:39:16,721: init_node, name[/baseController], pid[2990]
[xmlrpc][INFO] 2023-02-03 14:39:16,722: XML-RPC server binding to 0.0.0.0:0
[xmlrpc][INFO] 2023-02-03 14:39:16,723: Started XML-RPC server [http://intechAGV:32915/]
[rospy.init][INFO] 2023-02-03 14:39:16,724: ROS Slave URI: [http://intechAGV:32915/]
[rospy.impl.masterslave][INFO] 2023-02-03 14:39:16,724: _ready: http://intechAGV:32915/
[rospy.registration][INFO] 2023-02-03 14:39:16,726: Registering with master node http://localhost:11311
[xmlrpc][INFO] 2023-02-03 14:39:16,726: xml rpc node: starting XML-RPC server
[rospy.init][INFO] 2023-02-03 14:39:16,824: registered with master
[rospy.rosout][INFO] 2023-02-03 14:39:16,825: initializing /rosout core topic
[rospy.rosout][INFO] 2023-02-03 14:39:16,838: connected to core topic /rosout
[rospy.simtime][INFO] 2023-02-03 14:39:16,840: /use_sim_time is not set, will not subscribe to simulated time [/clock] topic
[rosout][INFO] 2023-02-03 14:39:16,849: /baseController started
[rospy.internal][INFO] 2023-02-03 14:39:16,873: topic[/cmd_vel] adding connection to [http://intechAGV:42863/], count 0
[rospy.internal][INFO] 2023-02-03 14:39:17,016: topic[/rosout] adding connection to [/rosout], count 0
[rospy.internal][INFO] 2023-02-03 14:43:37,881: topic[/cmd_vel] removing connection to http://intechAGV:42863/
[rospy.core][INFO] 2023-02-03 14:43:40,116: signal_shutdown [signal-2]
[rospy.internal][INFO] 2023-02-03 14:43:40,128: topic[/rosout] removing connection to /rosout
[rospy.impl.masterslave][INFO] 2023-02-03 14:43:40,129: signal-2
[rospy.core][INFO] 2023-02-03 14:43:40,918: signal_shutdown [atexit]
