[rospy.client][INFO] 2023-02-08 16:39:14,204: init_node, name[/rostopic_2564_1675849154165], pid[2564]
[xmlrpc][INFO] 2023-02-08 16:39:14,206: XML-RPC server binding to 0.0.0.0:0
[xmlrpc][INFO] 2023-02-08 16:39:14,207: Started XML-RPC server [http://intechAGV:34161/]
[rospy.init][INFO] 2023-02-08 16:39:14,207: ROS Slave URI: [http://intechAGV:34161/]
[rospy.impl.masterslave][INFO] 2023-02-08 16:39:14,207: _ready: http://intechAGV:34161/
[rospy.registration][INFO] 2023-02-08 16:39:14,208: Registering with master node http://localhost:11311
[xmlrpc][INFO] 2023-02-08 16:39:14,209: xml rpc node: starting XML-RPC server
[rospy.init][INFO] 2023-02-08 16:39:14,308: registered with master
[rospy.rosout][INFO] 2023-02-08 16:39:14,309: initializing /rosout core topic
[rospy.rosout][INFO] 2023-02-08 16:39:14,315: connected to core topic /rosout
[rospy.simtime][INFO] 2023-02-08 16:39:14,318: /use_sim_time is not set, will not subscribe to simulated time [/clock] topic
[rospy.internal][INFO] 2023-02-08 16:39:14,349: topic[/rfid_topic] adding connection to [http://intechAGV:36203/], count 0
[rospy.internal][INFO] 2023-02-08 16:39:14,591: topic[/rosout] adding connection to [/rosout], count 0
[rospy.core][INFO] 2023-02-08 16:39:20,501: signal_shutdown [signal-2]
[rospy.internal][INFO] 2023-02-08 16:39:20,510: topic[/rosout] removing connection to /rosout
[rospy.internal][INFO] 2023-02-08 16:39:20,512: topic[/rfid_topic] removing connection to http://intechAGV:36203/
[rospy.impl.masterslave][INFO] 2023-02-08 16:39:20,513: signal-2
[rospy.core][INFO] 2023-02-08 16:39:21,103: signal_shutdown [atexit]
