[rospy.client][INFO] 2023-02-09 13:35:19,625: init_node, name[/rostopic_3369_1675924519587], pid[3369]
[xmlrpc][INFO] 2023-02-09 13:35:19,626: XML-RPC server binding to 0.0.0.0:0
[xmlrpc][INFO] 2023-02-09 13:35:19,627: Started XML-RPC server [http://intechAGV:44315/]
[rospy.init][INFO] 2023-02-09 13:35:19,627: ROS Slave URI: [http://intechAGV:44315/]
[rospy.impl.masterslave][INFO] 2023-02-09 13:35:19,627: _ready: http://intechAGV:44315/
[rospy.registration][INFO] 2023-02-09 13:35:19,628: Registering with master node http://localhost:11311
[xmlrpc][INFO] 2023-02-09 13:35:19,629: xml rpc node: starting XML-RPC server
[rospy.init][INFO] 2023-02-09 13:35:19,728: registered with master
[rospy.internal][INFO] 2023-02-09 13:35:19,841: topic[/xbeeConveyor_topic] adding connection to [/xbee], count 0
[rospy.core][INFO] 2023-02-09 13:35:33,450: signal_shutdown [signal-2]
[rospy.internal][INFO] 2023-02-09 13:35:33,461: topic[/xbeeConveyor_topic] removing connection to /xbee
[rospy.impl.masterslave][INFO] 2023-02-09 13:35:33,461: signal-2
[rospy.core][INFO] 2023-02-09 13:35:34,053: signal_shutdown [atexit]
