[rospy.client][INFO] 2023-02-09 14:09:41,027: init_node, name[/rostopic_3683_1675926580987], pid[3683]
[xmlrpc][INFO] 2023-02-09 14:09:41,028: XML-RPC server binding to 0.0.0.0:0
[xmlrpc][INFO] 2023-02-09 14:09:41,029: Started XML-RPC server [http://intechAGV:46551/]
[rospy.init][INFO] 2023-02-09 14:09:41,029: ROS Slave URI: [http://intechAGV:46551/]
[rospy.impl.masterslave][INFO] 2023-02-09 14:09:41,029: _ready: http://intechAGV:46551/
[rospy.registration][INFO] 2023-02-09 14:09:41,030: Registering with master node http://localhost:11311
[xmlrpc][INFO] 2023-02-09 14:09:41,030: xml rpc node: starting XML-RPC server
[rospy.init][INFO] 2023-02-09 14:09:41,130: registered with master
[rospy.internal][INFO] 2023-02-09 14:09:41,191: topic[/xbeeConveyor_topic] adding connection to [/xbee], count 0
[rospy.core][INFO] 2023-02-09 14:09:48,495: signal_shutdown [signal-2]
[rospy.internal][INFO] 2023-02-09 14:09:48,501: topic[/xbeeConveyor_topic] removing connection to /xbee
[rospy.impl.masterslave][INFO] 2023-02-09 14:09:48,502: signal-2
[rospy.core][INFO] 2023-02-09 14:09:49,097: signal_shutdown [atexit]
