[rospy.client][INFO] 2023-02-08 15:58:30,810: init_node, name[/rostopic_1836_1675846710773], pid[1836]
[xmlrpc][INFO] 2023-02-08 15:58:30,812: XML-RPC server binding to 0.0.0.0:0
[xmlrpc][INFO] 2023-02-08 15:58:30,813: Started XML-RPC server [http://intechAGV:35019/]
[rospy.init][INFO] 2023-02-08 15:58:30,813: ROS Slave URI: [http://intechAGV:35019/]
[rospy.impl.masterslave][INFO] 2023-02-08 15:58:30,813: _ready: http://intechAGV:35019/
[rospy.registration][INFO] 2023-02-08 15:58:30,814: Registering with master node http://localhost:11311
[xmlrpc][INFO] 2023-02-08 15:58:30,814: xml rpc node: starting XML-RPC server
[rospy.init][INFO] 2023-02-08 15:58:30,914: registered with master
[rospy.rosout][INFO] 2023-02-08 15:58:30,914: initializing /rosout core topic
[rospy.rosout][INFO] 2023-02-08 15:58:30,922: connected to core topic /rosout
[rospy.simtime][INFO] 2023-02-08 15:58:30,927: /use_sim_time is not set, will not subscribe to simulated time [/clock] topic
[rospy.internal][INFO] 2023-02-08 15:58:30,955: topic[/rfid_topic] adding connection to [http://intechAGV:45755/], count 0
[rospy.internal][INFO] 2023-02-08 15:58:31,130: topic[/rosout] adding connection to [/rosout], count 0
[rospy.core][INFO] 2023-02-08 15:58:42,173: signal_shutdown [signal-2]
[rospy.internal][INFO] 2023-02-08 15:58:42,182: topic[/rosout] removing connection to /rosout
[rospy.internal][INFO] 2023-02-08 15:58:42,183: topic[/rfid_topic] removing connection to http://intechAGV:45755/
[rospy.impl.masterslave][INFO] 2023-02-08 15:58:42,185: signal-2
[rospy.core][INFO] 2023-02-08 15:58:42,775: signal_shutdown [atexit]
