[rospy.client][INFO] 2023-02-14 17:03:05,893: init_node, name[/rostopic_3616_1676368985855], pid[3616]
[xmlrpc][INFO] 2023-02-14 17:03:05,894: XML-RPC server binding to 0.0.0.0:0
[xmlrpc][INFO] 2023-02-14 17:03:05,895: Started XML-RPC server [http://intechAGV:38497/]
[rospy.init][INFO] 2023-02-14 17:03:05,896: ROS Slave URI: [http://intechAGV:38497/]
[rospy.impl.masterslave][INFO] 2023-02-14 17:03:05,896: _ready: http://intechAGV:38497/
[rospy.registration][INFO] 2023-02-14 17:03:05,897: Registering with master node http://localhost:11311
[xmlrpc][INFO] 2023-02-14 17:03:05,897: xml rpc node: starting XML-RPC server
[rospy.init][INFO] 2023-02-14 17:03:05,997: registered with master
[rospy.internal][INFO] 2023-02-14 17:03:06,079: topic[/xbeeConveyor_topic] adding connection to [/xbee], count 0
[rospy.core][INFO] 2023-02-14 17:03:14,185: signal_shutdown [signal-2]
[rospy.internal][INFO] 2023-02-14 17:03:14,193: topic[/xbeeConveyor_topic] removing connection to /xbee
[rospy.impl.masterslave][INFO] 2023-02-14 17:03:14,194: signal-2
[rospy.core][INFO] 2023-02-14 17:03:14,787: signal_shutdown [atexit]
