[rospy.client][INFO] 2023-02-11 13:32:03,020: init_node, name[/rostopic_1520_1676097122982], pid[1520]
[xmlrpc][INFO] 2023-02-11 13:32:03,021: XML-RPC server binding to 0.0.0.0:0
[xmlrpc][INFO] 2023-02-11 13:32:03,022: Started XML-RPC server [http://intechAGV:45195/]
[rospy.init][INFO] 2023-02-11 13:32:03,022: ROS Slave URI: [http://intechAGV:45195/]
[rospy.impl.masterslave][INFO] 2023-02-11 13:32:03,022: _ready: http://intechAGV:45195/
[rospy.registration][INFO] 2023-02-11 13:32:03,023: Registering with master node http://localhost:11311
[xmlrpc][INFO] 2023-02-11 13:32:03,023: xml rpc node: starting XML-RPC server
[rospy.init][INFO] 2023-02-11 13:32:03,123: registered with master
[rospy.internal][INFO] 2023-02-11 13:32:03,201: topic[/xbeeConveyor_topic] adding connection to [/xbee], count 0
[rospy.core][INFO] 2023-02-11 13:32:09,545: signal_shutdown [signal-2]
[rospy.internal][INFO] 2023-02-11 13:32:09,554: topic[/xbeeConveyor_topic] removing connection to /xbee
[rospy.impl.masterslave][INFO] 2023-02-11 13:32:09,555: signal-2
[rospy.core][INFO] 2023-02-11 13:32:10,148: signal_shutdown [atexit]
