[rospy.client][INFO] 2023-02-08 15:50:42,723: init_node, name[/rostopic_1796_1675846242685], pid[1796]
[xmlrpc][INFO] 2023-02-08 15:50:42,725: XML-RPC server binding to 0.0.0.0:0
[xmlrpc][INFO] 2023-02-08 15:50:42,726: Started XML-RPC server [http://intechAGV:35195/]
[rospy.init][INFO] 2023-02-08 15:50:42,726: ROS Slave URI: [http://intechAGV:35195/]
[rospy.impl.masterslave][INFO] 2023-02-08 15:50:42,726: _ready: http://intechAGV:35195/
[rospy.registration][INFO] 2023-02-08 15:50:42,727: Registering with master node http://localhost:11311
[xmlrpc][INFO] 2023-02-08 15:50:42,727: xml rpc node: starting XML-RPC server
[rospy.init][INFO] 2023-02-08 15:50:42,827: registered with master
[rospy.rosout][INFO] 2023-02-08 15:50:42,828: initializing /rosout core topic
[rospy.rosout][INFO] 2023-02-08 15:50:42,836: connected to core topic /rosout
[rospy.simtime][INFO] 2023-02-08 15:50:42,840: /use_sim_time is not set, will not subscribe to simulated time [/clock] topic
[rospy.internal][INFO] 2023-02-08 15:50:42,869: topic[/rfid_topic] adding connection to [http://intechAGV:45755/], count 0
[rospy.internal][INFO] 2023-02-08 15:50:43,130: topic[/rosout] adding connection to [/rosout], count 0
[rospy.core][INFO] 2023-02-08 15:58:27,437: signal_shutdown [signal-2]
[rospy.internal][INFO] 2023-02-08 15:58:27,445: topic[/rosout] removing connection to /rosout
[rospy.internal][INFO] 2023-02-08 15:58:27,446: topic[/rfid_topic] removing connection to http://intechAGV:45755/
[rospy.impl.masterslave][INFO] 2023-02-08 15:58:27,447: signal-2
[rospy.core][INFO] 2023-02-08 15:58:28,039: signal_shutdown [atexit]
