[rospy.client][INFO] 2023-02-08 08:31:00,468: init_node, name[/rostopic_3508_1675819860431], pid[3508]
[xmlrpc][INFO] 2023-02-08 08:31:00,469: XML-RPC server binding to 0.0.0.0:0
[xmlrpc][INFO] 2023-02-08 08:31:00,470: Started XML-RPC server [http://intechAGV:41357/]
[rospy.init][INFO] 2023-02-08 08:31:00,471: ROS Slave URI: [http://intechAGV:41357/]
[rospy.impl.masterslave][INFO] 2023-02-08 08:31:00,471: _ready: http://intechAGV:41357/
[rospy.registration][INFO] 2023-02-08 08:31:00,472: Registering with master node http://localhost:11311
[xmlrpc][INFO] 2023-02-08 08:31:00,472: xml rpc node: starting XML-RPC server
[rospy.init][INFO] 2023-02-08 08:31:00,571: registered with master
[rospy.internal][INFO] 2023-02-08 08:31:00,600: topic[/xbeeConveyor_topic] adding connection to [/xbee], count 0
[rospy.core][INFO] 2023-02-08 08:31:24,534: signal_shutdown [signal-2]
[rospy.internal][INFO] 2023-02-08 08:31:24,541: topic[/xbeeConveyor_topic] removing connection to /xbee
[rospy.impl.masterslave][INFO] 2023-02-08 08:31:24,542: signal-2
[rospy.core][INFO] 2023-02-08 08:31:25,136: signal_shutdown [atexit]
