[rospy.client][INFO] 2023-02-11 13:35:45,248: init_node, name[/rostopic_2094_1676097345210], pid[2094]
[xmlrpc][INFO] 2023-02-11 13:35:45,249: XML-RPC server binding to 0.0.0.0:0
[xmlrpc][INFO] 2023-02-11 13:35:45,250: Started XML-RPC server [http://intechAGV:42159/]
[rospy.init][INFO] 2023-02-11 13:35:45,250: ROS Slave URI: [http://intechAGV:42159/]
[rospy.impl.masterslave][INFO] 2023-02-11 13:35:45,251: _ready: http://intechAGV:42159/
[rospy.registration][INFO] 2023-02-11 13:35:45,251: Registering with master node http://localhost:11311
[xmlrpc][INFO] 2023-02-11 13:35:45,252: xml rpc node: starting XML-RPC server
[rospy.init][INFO] 2023-02-11 13:35:45,351: registered with master
[rospy.internal][INFO] 2023-02-11 13:35:45,457: topic[/xbeeConveyor_topic] adding connection to [/xbee], count 0
[rospy.core][INFO] 2023-02-11 13:35:59,281: signal_shutdown [signal-2]
[rospy.internal][INFO] 2023-02-11 13:35:59,290: topic[/xbeeConveyor_topic] removing connection to /xbee
[rospy.impl.masterslave][INFO] 2023-02-11 13:35:59,292: signal-2
[rospy.core][INFO] 2023-02-11 13:35:59,884: signal_shutdown [atexit]
