[rospy.client][INFO] 2023-02-14 16:52:53,111: init_node, name[/rostopic_2523_1676368373073], pid[2523]
[xmlrpc][INFO] 2023-02-14 16:52:53,112: XML-RPC server binding to 0.0.0.0:0
[xmlrpc][INFO] 2023-02-14 16:52:53,112: Started XML-RPC server [http://intechAGV:43659/]
[rospy.init][INFO] 2023-02-14 16:52:53,113: ROS Slave URI: [http://intechAGV:43659/]
[rospy.impl.masterslave][INFO] 2023-02-14 16:52:53,113: _ready: http://intechAGV:43659/
[rospy.registration][INFO] 2023-02-14 16:52:53,114: Registering with master node http://localhost:11311
[xmlrpc][INFO] 2023-02-14 16:52:53,114: xml rpc node: starting XML-RPC server
[rospy.init][INFO] 2023-02-14 16:52:53,214: registered with master
[rospy.internal][INFO] 2023-02-14 16:52:53,267: topic[/xbeeConveyor_topic] adding connection to [/xbee], count 0
[rospy.core][INFO] 2023-02-14 16:53:19,984: signal_shutdown [signal-2]
[rospy.internal][INFO] 2023-02-14 16:53:19,994: topic[/xbeeConveyor_topic] removing connection to /xbee
[rospy.impl.masterslave][INFO] 2023-02-14 16:53:19,995: signal-2
[rospy.core][INFO] 2023-02-14 16:53:20,587: signal_shutdown [atexit]
