[rospy.client][INFO] 2023-02-11 13:30:53,347: init_node, name[/baseController], pid[1395]
[xmlrpc][INFO] 2023-02-11 13:30:53,348: XML-RPC server binding to 0.0.0.0:0
[xmlrpc][INFO] 2023-02-11 13:30:53,349: Started XML-RPC server [http://intechAGV:46049/]
[rospy.init][INFO] 2023-02-11 13:30:53,350: ROS Slave URI: [http://intechAGV:46049/]
[rospy.impl.masterslave][INFO] 2023-02-11 13:30:53,350: _ready: http://intechAGV:46049/
[rospy.registration][INFO] 2023-02-11 13:30:53,352: Registering with master node http://localhost:11311
[xmlrpc][INFO] 2023-02-11 13:30:53,352: xml rpc node: starting XML-RPC server
[rospy.init][INFO] 2023-02-11 13:30:53,450: registered with master
[rospy.rosout][INFO] 2023-02-11 13:30:53,451: initializing /rosout core topic
[rospy.rosout][INFO] 2023-02-11 13:30:53,466: connected to core topic /rosout
[rospy.simtime][INFO] 2023-02-11 13:30:53,468: /use_sim_time is not set, will not subscribe to simulated time [/clock] topic
[rosout][INFO] 2023-02-11 13:30:53,475: /baseController started
[rospy.internal][INFO] 2023-02-11 13:30:53,665: topic[/rosout] adding connection to [/rosout], count 0
[rospy.core][INFO] 2023-02-11 13:34:13,599: signal_shutdown [signal-2]
[rospy.internal][INFO] 2023-02-11 13:34:13,613: topic[/rosout] removing connection to /rosout
[rospy.impl.masterslave][INFO] 2023-02-11 13:34:13,614: signal-2
[rospy.core][INFO] 2023-02-11 13:34:14,402: signal_shutdown [atexit]
[rospy.client][INFO] 2023-02-11 13:34:21,903: init_node, name[/baseController], pid[1974]
[xmlrpc][INFO] 2023-02-11 13:34:21,904: XML-RPC server binding to 0.0.0.0:0
[xmlrpc][INFO] 2023-02-11 13:34:21,905: Started XML-RPC server [http://intechAGV:40569/]
[rospy.init][INFO] 2023-02-11 13:34:21,905: ROS Slave URI: [http://intechAGV:40569/]
[rospy.impl.masterslave][INFO] 2023-02-11 13:34:21,905: _ready: http://intechAGV:40569/
[rospy.registration][INFO] 2023-02-11 13:34:21,907: Registering with master node http://localhost:11311
[xmlrpc][INFO] 2023-02-11 13:34:21,907: xml rpc node: starting XML-RPC server
[rospy.init][INFO] 2023-02-11 13:34:22,006: registered with master
[rospy.rosout][INFO] 2023-02-11 13:34:22,007: initializing /rosout core topic
[rospy.rosout][INFO] 2023-02-11 13:34:22,019: connected to core topic /rosout
[rospy.simtime][INFO] 2023-02-11 13:34:22,024: /use_sim_time is not set, will not subscribe to simulated time [/clock] topic
[rosout][INFO] 2023-02-11 13:34:22,032: /baseController started
[rospy.internal][INFO] 2023-02-11 13:34:22,294: topic[/rosout] adding connection to [/rosout], count 0
[rospy.core][INFO] 2023-02-11 13:38:35,289: signal_shutdown [signal-2]
[rospy.internal][INFO] 2023-02-11 13:38:35,306: topic[/rosout] removing connection to /rosout
[rospy.impl.masterslave][INFO] 2023-02-11 13:38:35,307: signal-2
[rospy.core][INFO] 2023-02-11 13:38:36,091: signal_shutdown [atexit]
[rospy.client][INFO] 2023-02-11 13:38:44,197: init_node, name[/baseController], pid[2189]
[xmlrpc][INFO] 2023-02-11 13:38:44,198: XML-RPC server binding to 0.0.0.0:0
[xmlrpc][INFO] 2023-02-11 13:38:44,199: Started XML-RPC server [http://intechAGV:38691/]
[rospy.init][INFO] 2023-02-11 13:38:44,199: ROS Slave URI: [http://intechAGV:38691/]
[rospy.impl.masterslave][INFO] 2023-02-11 13:38:44,200: _ready: http://intechAGV:38691/
[rospy.registration][INFO] 2023-02-11 13:38:44,201: Registering with master node http://localhost:11311
[xmlrpc][INFO] 2023-02-11 13:38:44,202: xml rpc node: starting XML-RPC server
[rospy.init][INFO] 2023-02-11 13:38:44,300: registered with master
[rospy.rosout][INFO] 2023-02-11 13:38:44,301: initializing /rosout core topic
[rospy.rosout][INFO] 2023-02-11 13:38:44,312: connected to core topic /rosout
[rospy.simtime][INFO] 2023-02-11 13:38:44,315: /use_sim_time is not set, will not subscribe to simulated time [/clock] topic
[rosout][INFO] 2023-02-11 13:38:44,323: /baseController started
[rospy.internal][INFO] 2023-02-11 13:38:44,619: topic[/rosout] adding connection to [/rosout], count 0
[rospy.core][INFO] 2023-02-11 13:41:27,626: signal_shutdown [signal-2]
[rospy.internal][INFO] 2023-02-11 13:41:27,661: topic[/rosout] removing connection to /rosout
[rospy.impl.masterslave][INFO] 2023-02-11 13:41:27,662: signal-2
[rospy.core][INFO] 2023-02-11 13:41:28,429: signal_shutdown [atexit]
[rospy.client][INFO] 2023-02-11 13:41:39,020: init_node, name[/baseController], pid[2444]
[xmlrpc][INFO] 2023-02-11 13:41:39,021: XML-RPC server binding to 0.0.0.0:0
[xmlrpc][INFO] 2023-02-11 13:41:39,022: Started XML-RPC server [http://intechAGV:45021/]
[rospy.init][INFO] 2023-02-11 13:41:39,022: ROS Slave URI: [http://intechAGV:45021/]
[rospy.impl.masterslave][INFO] 2023-02-11 13:41:39,023: _ready: http://intechAGV:45021/
[rospy.registration][INFO] 2023-02-11 13:41:39,025: Registering with master node http://localhost:11311
[xmlrpc][INFO] 2023-02-11 13:41:39,025: xml rpc node: starting XML-RPC server
[rospy.init][INFO] 2023-02-11 13:41:39,124: registered with master
[rospy.rosout][INFO] 2023-02-11 13:41:39,124: initializing /rosout core topic
[rospy.rosout][INFO] 2023-02-11 13:41:39,134: connected to core topic /rosout
[rospy.simtime][INFO] 2023-02-11 13:41:39,137: /use_sim_time is not set, will not subscribe to simulated time [/clock] topic
[rosout][INFO] 2023-02-11 13:41:39,144: /baseController started
[rospy.internal][INFO] 2023-02-11 13:41:39,386: topic[/rosout] adding connection to [/rosout], count 0
[rospy.core][INFO] 2023-02-11 13:42:59,752: signal_shutdown [signal-2]
[rospy.internal][INFO] 2023-02-11 13:42:59,769: topic[/rosout] removing connection to /rosout
[rospy.impl.masterslave][INFO] 2023-02-11 13:42:59,770: signal-2
[rospy.core][INFO] 2023-02-11 13:43:00,554: signal_shutdown [atexit]
[rospy.client][INFO] 2023-02-11 13:43:39,960: init_node, name[/baseController], pid[2551]
[xmlrpc][INFO] 2023-02-11 13:43:39,961: XML-RPC server binding to 0.0.0.0:0
[xmlrpc][INFO] 2023-02-11 13:43:39,962: Started XML-RPC server [http://intechAGV:41695/]
[rospy.init][INFO] 2023-02-11 13:43:39,963: ROS Slave URI: [http://intechAGV:41695/]
[rospy.impl.masterslave][INFO] 2023-02-11 13:43:39,963: _ready: http://intechAGV:41695/
[rospy.registration][INFO] 2023-02-11 13:43:39,965: Registering with master node http://localhost:11311
[xmlrpc][INFO] 2023-02-11 13:43:39,965: xml rpc node: starting XML-RPC server
[rospy.init][INFO] 2023-02-11 13:43:40,063: registered with master
[rospy.rosout][INFO] 2023-02-11 13:43:40,065: initializing /rosout core topic
[rospy.rosout][INFO] 2023-02-11 13:43:40,079: connected to core topic /rosout
[rospy.simtime][INFO] 2023-02-11 13:43:40,082: /use_sim_time is not set, will not subscribe to simulated time [/clock] topic
[rosout][INFO] 2023-02-11 13:43:40,089: /baseController started
[rospy.internal][INFO] 2023-02-11 13:43:40,348: topic[/rosout] adding connection to [/rosout], count 0
[rospy.core][INFO] 2023-02-11 13:43:49,180: signal_shutdown [signal-2]
[rospy.internal][INFO] 2023-02-11 13:43:49,190: topic[/rosout] removing connection to /rosout
[rospy.impl.masterslave][INFO] 2023-02-11 13:43:49,190: signal-2
[rospy.core][INFO] 2023-02-11 13:43:49,983: signal_shutdown [atexit]
