[roslaunch][INFO] 2023-02-08 09:44:07,390: Checking log directory for disk usage. This may take a while.
Press Ctrl-C to interrupt
[roslaunch][INFO] 2023-02-08 09:44:07,408: Done checking log file disk usage. Usage is <1GB.
[roslaunch][INFO] 2023-02-08 09:44:07,409: roslaunch starting with args ['/opt/ros/noetic/bin/roslaunch', 'agv1_master', 'agv1_intech.launch']
[roslaunch][INFO] 2023-02-08 09:44:07,410: roslaunch env is environ({'SHELL': '/bin/bash', 'ROS_VERSION': '1', 'PKG_CONFIG_PATH': '/home/intechAGV/catkin_ws/devel/lib/pkgconfig:/opt/ros/noetic/lib/pkgconfig', 'ROS_PYTHON_VERSION': '3', 'LC_ADDRESS': 'C.UTF-8', 'LC_NAME': 'C.UTF-8', 'LC_MONETARY': 'C.UTF-8', 'ROS_PACKAGE_PATH': '/home/intech/catkin_ws/src:/home/intechAGV/catkin_ws/src:/opt/ros/noetic/share', 'ROSLISP_PACKAGE_DIRECTORIES': '/home/intechAGV/catkin_ws/devel/share/common-lisp', 'PWD': '/home/intechAGV', 'LOGNAME': 'intechAGV', 'XDG_SESSION_TYPE': 'tty', 'MOTD_SHOWN': 'pam', 'HOME': '/home/intechAGV', 'LANG': 'C.UTF-8', 'LC_PAPER': 'C.UTF-8', 'ROS_ETC_DIR': '/opt/ros/noetic/etc/ros', 'LS_COLORS': 'rs=0:di=01;34:ln=01;36:mh=00:pi=40;33:so=01;35:do=01;35:bd=40;33;01:cd=40;33;01:or=40;31;01:mi=00:su=37;41:sg=30;43:ca=30;41:tw=30;42:ow=34;42:st=37;44:ex=01;32:*.tar=01;31:*.tgz=01;31:*.arc=01;31:*.arj=01;31:*.taz=01;31:*.lha=01;31:*.lz4=01;31:*.lzh=01;31:*.lzma=01;31:*.tlz=01;31:*.txz=01;31:*.tzo=01;31:*.t7z=01;31:*.zip=01;31:*.z=01;31:*.dz=01;31:*.gz=01;31:*.lrz=01;31:*.lz=01;31:*.lzo=01;31:*.xz=01;31:*.zst=01;31:*.tzst=01;31:*.bz2=01;31:*.bz=01;31:*.tbz=01;31:*.tbz2=01;31:*.tz=01;31:*.deb=01;31:*.rpm=01;31:*.jar=01;31:*.war=01;31:*.ear=01;31:*.sar=01;31:*.rar=01;31:*.alz=01;31:*.ace=01;31:*.zoo=01;31:*.cpio=01;31:*.7z=01;31:*.rz=01;31:*.cab=01;31:*.wim=01;31:*.swm=01;31:*.dwm=01;31:*.esd=01;31:*.jpg=01;35:*.jpeg=01;35:*.mjpg=01;35:*.mjpeg=01;35:*.gif=01;35:*.bmp=01;35:*.pbm=01;35:*.pgm=01;35:*.ppm=01;35:*.tga=01;35:*.xbm=01;35:*.xpm=01;35:*.tif=01;35:*.tiff=01;35:*.png=01;35:*.svg=01;35:*.svgz=01;35:*.mng=01;35:*.pcx=01;35:*.mov=01;35:*.mpg=01;35:*.mpeg=01;35:*.m2v=01;35:*.mkv=01;35:*.webm=01;35:*.ogm=01;35:*.mp4=01;35:*.m4v=01;35:*.mp4v=01;35:*.vob=01;35:*.qt=01;35:*.nuv=01;35:*.wmv=01;35:*.asf=01;35:*.rm=01;35:*.rmvb=01;35:*.flc=01;35:*.avi=01;35:*.fli=01;35:*.flv=01;35:*.gl=01;35:*.dl=01;35:*.xcf=01;35:*.xwd=01;35:*.yuv=01;35:*.cgm=01;35:*.emf=01;35:*.ogv=01;35:*.ogx=01;35:*.aac=00;36:*.au=00;36:*.flac=00;36:*.m4a=00;36:*.mid=00;36:*.midi=00;36:*.mka=00;36:*.mp3=00;36:*.mpc=00;36:*.ogg=00;36:*.ra=00;36:*.wav=00;36:*.oga=00;36:*.opus=00;36:*.spx=00;36:*.xspf=00;36:', 'CMAKE_PREFIX_PATH': '/home/intechAGV/catkin_ws/devel:/opt/ros/noetic', 'SSH_CONNECTION': '192.168.0.117 53332 192.168.0.120 22', 'LESSCLOSE': '/usr/bin/lesspipe %s %s', 'XDG_SESSION_CLASS': 'user', 'PYTHONPATH': '/home/intechAGV/catkin_ws/devel/lib/python3/dist-packages:/opt/ros/noetic/lib/python3/dist-packages', 'TERM': 'xterm-256color', 'LC_IDENTIFICATION': 'C.UTF-8', 'LESSOPEN': '| /usr/bin/lesspipe %s', 'USER': 'intechAGV', 'SHLVL': '1', 'LC_TELEPHONE': 'C.UTF-8', 'ROS_MASTER_URI': 'http://localhost:11311', 'LC_MEASUREMENT': 'C.UTF-8', 'XDG_SESSION_ID': '4', 'LD_LIBRARY_PATH': '/home/intechAGV/catkin_ws/devel/lib:/opt/ros/noetic/lib', 'XDG_RUNTIME_DIR': '/run/user/1000', 'SSH_CLIENT': '192.168.0.117 53332 22', 'LC_TIME': 'C.UTF-8', 'XDG_DATA_DIRS': '/usr/local/share:/usr/share:/var/lib/snapd/desktop', 'PATH': '/home/intechAGV/.local/bin:/opt/ros/noetic/bin:/usr/local/sbin:/usr/local/bin:/usr/sbin:/usr/bin:/sbin:/bin:/usr/games:/usr/local/games:/snap/bin', 'DBUS_SESSION_BUS_ADDRESS': 'unix:path=/run/user/1000/bus', 'SSH_TTY': '/dev/pts/0', 'ROS_ROOT': '/opt/ros/noetic/share/ros', 'ROS_DISTRO': 'noetic', 'LC_NUMERIC': 'C.UTF-8', '_': '/opt/ros/noetic/bin/roslaunch', 'ROS_LOG_FILENAME': '/home/intechAGV/.ros/log/73302cc2-a74f-11ed-8a64-07309bb668ad/roslaunch-intechAGV-6860.log'})
[roslaunch][INFO] 2023-02-08 09:44:07,410: starting in server mode
[roslaunch.parent][INFO] 2023-02-08 09:44:07,410: starting roslaunch parent run
[roslaunch][INFO] 2023-02-08 09:44:07,411: loading roscore config file /opt/ros/noetic/etc/ros/roscore.xml
[roslaunch][INFO] 2023-02-08 09:44:07,887: Added core node of type [rosout/rosout] in namespace [/]
[roslaunch.config][INFO] 2023-02-08 09:44:07,888: loading config file /home/intechAGV/catkin_ws/src/agv1_master/launch/agv1_intech.launch
[roslaunch][INFO] 2023-02-08 09:44:07,890: Added node of type [agv1_base_controller/node_base_controller.py] in namespace [/]
[roslaunch][INFO] 2023-02-08 09:44:07,891: Added node of type [agv1_gpio/node_gpio.py] in namespace [/]
[roslaunch][INFO] 2023-02-08 09:44:07,892: Added node of type [agv1_followline/node_followline.py] in namespace [/]
[roslaunch][INFO] 2023-02-08 09:44:07,892: Added node of type [agv1_rfid/node_readRFID.py] in namespace [/]
[roslaunch][INFO] 2023-02-08 09:44:07,893: Added node of type [agv1_xbee/node_xbee.py] in namespace [/]
[roslaunch][INFO] 2023-02-08 09:44:07,893: ... selected machine [] for node of type [agv1_base_controller/node_base_controller.py]
[roslaunch][INFO] 2023-02-08 09:44:07,894: ... selected machine [] for node of type [agv1_gpio/node_gpio.py]
[roslaunch][INFO] 2023-02-08 09:44:07,894: ... selected machine [] for node of type [agv1_followline/node_followline.py]
[roslaunch][INFO] 2023-02-08 09:44:07,894: ... selected machine [] for node of type [agv1_rfid/node_readRFID.py]
[roslaunch][INFO] 2023-02-08 09:44:07,894: ... selected machine [] for node of type [agv1_xbee/node_xbee.py]
[roslaunch.pmon][INFO] 2023-02-08 09:44:07,897: start_process_monitor: creating ProcessMonitor
[roslaunch.pmon][INFO] 2023-02-08 09:44:07,898: created process monitor <ProcessMonitor(ProcessMonitor-1, initial daemon)>
[roslaunch.pmon][INFO] 2023-02-08 09:44:07,898: start_process_monitor: ProcessMonitor started
[roslaunch.parent][INFO] 2023-02-08 09:44:07,899: starting parent XML-RPC server
[roslaunch.server][INFO] 2023-02-08 09:44:07,899: starting roslaunch XML-RPC server
[roslaunch.server][INFO] 2023-02-08 09:44:07,899: waiting for roslaunch XML-RPC server to initialize
[xmlrpc][INFO] 2023-02-08 09:44:07,900: XML-RPC server binding to 0.0.0.0:0
[xmlrpc][INFO] 2023-02-08 09:44:07,901: Started XML-RPC server [http://intechAGV:46763/]
[xmlrpc][INFO] 2023-02-08 09:44:07,901: xml rpc node: starting XML-RPC server
[roslaunch][INFO] 2023-02-08 09:44:07,916: started roslaunch server http://intechAGV:46763/
[roslaunch.parent][INFO] 2023-02-08 09:44:07,917: ... parent XML-RPC server started
[roslaunch][INFO] 2023-02-08 09:44:07,921: master.is_running[http://localhost:11311]
[roslaunch][INFO] 2023-02-08 09:44:07,926: master.is_running[http://localhost:11311]
[roslaunch][INFO] 2023-02-08 09:44:07,930: ROS_MASTER_URI=http://localhost:11311
[roslaunch][INFO] 2023-02-08 09:44:07,936: setting /roslaunch/uris/host_intechagv__46763' to http://intechAGV:46763/
[roslaunch][INFO] 2023-02-08 09:44:07,939: load_parameters starting ...
[roslaunch][INFO] 2023-02-08 09:44:08,003: ... load_parameters complete
[roslaunch][INFO] 2023-02-08 09:44:08,004: launch_nodes: launching local nodes ...
[roslaunch][INFO] 2023-02-08 09:44:08,006: ... preparing to launch node of type [agv1_base_controller/node_base_controller.py]
[roslaunch][INFO] 2023-02-08 09:44:08,006: create_node_process: package[agv1_base_controller] type[node_base_controller.py] machine[Machine(name[] env_loader[None] address[localhost] ssh_port[22] user[None] assignable[True] timeout[10.0])] master_uri[http://localhost:11311]
[roslaunch][INFO] 2023-02-08 09:44:08,007: process[baseController-1]: env[{'SHELL': '/bin/bash', 'ROS_VERSION': '1', 'PKG_CONFIG_PATH': '/home/intechAGV/catkin_ws/devel/lib/pkgconfig:/opt/ros/noetic/lib/pkgconfig', 'ROS_PYTHON_VERSION': '3', 'LC_ADDRESS': 'C.UTF-8', 'LC_NAME': 'C.UTF-8', 'LC_MONETARY': 'C.UTF-8', 'ROS_PACKAGE_PATH': '/home/intech/catkin_ws/src:/home/intechAGV/catkin_ws/src:/opt/ros/noetic/share', 'ROSLISP_PACKAGE_DIRECTORIES': '/home/intechAGV/catkin_ws/devel/share/common-lisp', 'PWD': '/home/intechAGV', 'LOGNAME': 'intechAGV', 'XDG_SESSION_TYPE': 'tty', 'MOTD_SHOWN': 'pam', 'HOME': '/home/intechAGV', 'LANG': 'C.UTF-8', 'LC_PAPER': 'C.UTF-8', 'ROS_ETC_DIR': '/opt/ros/noetic/etc/ros', 'LS_COLORS': 'rs=0:di=01;34:ln=01;36:mh=00:pi=40;33:so=01;35:do=01;35:bd=40;33;01:cd=40;33;01:or=40;31;01:mi=00:su=37;41:sg=30;43:ca=30;41:tw=30;42:ow=34;42:st=37;44:ex=01;32:*.tar=01;31:*.tgz=01;31:*.arc=01;31:*.arj=01;31:*.taz=01;31:*.lha=01;31:*.lz4=01;31:*.lzh=01;31:*.lzma=01;31:*.tlz=01;31:*.txz=01;31:*.tzo=01;31:*.t7z=01;31:*.zip=01;31:*.z=01;31:*.dz=01;31:*.gz=01;31:*.lrz=01;31:*.lz=01;31:*.lzo=01;31:*.xz=01;31:*.zst=01;31:*.tzst=01;31:*.bz2=01;31:*.bz=01;31:*.tbz=01;31:*.tbz2=01;31:*.tz=01;31:*.deb=01;31:*.rpm=01;31:*.jar=01;31:*.war=01;31:*.ear=01;31:*.sar=01;31:*.rar=01;31:*.alz=01;31:*.ace=01;31:*.zoo=01;31:*.cpio=01;31:*.7z=01;31:*.rz=01;31:*.cab=01;31:*.wim=01;31:*.swm=01;31:*.dwm=01;31:*.esd=01;31:*.jpg=01;35:*.jpeg=01;35:*.mjpg=01;35:*.mjpeg=01;35:*.gif=01;35:*.bmp=01;35:*.pbm=01;35:*.pgm=01;35:*.ppm=01;35:*.tga=01;35:*.xbm=01;35:*.xpm=01;35:*.tif=01;35:*.tiff=01;35:*.png=01;35:*.svg=01;35:*.svgz=01;35:*.mng=01;35:*.pcx=01;35:*.mov=01;35:*.mpg=01;35:*.mpeg=01;35:*.m2v=01;35:*.mkv=01;35:*.webm=01;35:*.ogm=01;35:*.mp4=01;35:*.m4v=01;35:*.mp4v=01;35:*.vob=01;35:*.qt=01;35:*.nuv=01;35:*.wmv=01;35:*.asf=01;35:*.rm=01;35:*.rmvb=01;35:*.flc=01;35:*.avi=01;35:*.fli=01;35:*.flv=01;35:*.gl=01;35:*.dl=01;35:*.xcf=01;35:*.xwd=01;35:*.yuv=01;35:*.cgm=01;35:*.emf=01;35:*.ogv=01;35:*.ogx=01;35:*.aac=00;36:*.au=00;36:*.flac=00;36:*.m4a=00;36:*.mid=00;36:*.midi=00;36:*.mka=00;36:*.mp3=00;36:*.mpc=00;36:*.ogg=00;36:*.ra=00;36:*.wav=00;36:*.oga=00;36:*.opus=00;36:*.spx=00;36:*.xspf=00;36:', 'CMAKE_PREFIX_PATH': '/home/intechAGV/catkin_ws/devel:/opt/ros/noetic', 'SSH_CONNECTION': '192.168.0.117 53332 192.168.0.120 22', 'LESSCLOSE': '/usr/bin/lesspipe %s %s', 'XDG_SESSION_CLASS': 'user', 'PYTHONPATH': '/home/intechAGV/catkin_ws/devel/lib/python3/dist-packages:/opt/ros/noetic/lib/python3/dist-packages', 'TERM': 'xterm-256color', 'LC_IDENTIFICATION': 'C.UTF-8', 'LESSOPEN': '| /usr/bin/lesspipe %s', 'USER': 'intechAGV', 'SHLVL': '1', 'LC_TELEPHONE': 'C.UTF-8', 'ROS_MASTER_URI': 'http://localhost:11311', 'LC_MEASUREMENT': 'C.UTF-8', 'XDG_SESSION_ID': '4', 'LD_LIBRARY_PATH': '/home/intechAGV/catkin_ws/devel/lib:/opt/ros/noetic/lib', 'XDG_RUNTIME_DIR': '/run/user/1000', 'SSH_CLIENT': '192.168.0.117 53332 22', 'LC_TIME': 'C.UTF-8', 'XDG_DATA_DIRS': '/usr/local/share:/usr/share:/var/lib/snapd/desktop', 'PATH': '/home/intechAGV/.local/bin:/opt/ros/noetic/bin:/usr/local/sbin:/usr/local/bin:/usr/sbin:/usr/bin:/sbin:/bin:/usr/games:/usr/local/games:/snap/bin', 'DBUS_SESSION_BUS_ADDRESS': 'unix:path=/run/user/1000/bus', 'SSH_TTY': '/dev/pts/0', 'ROS_ROOT': '/opt/ros/noetic/share/ros', 'ROS_DISTRO': 'noetic', 'LC_NUMERIC': 'C.UTF-8', '_': '/opt/ros/noetic/bin/roslaunch', 'ROS_LOG_FILENAME': '/home/intechAGV/.ros/log/73302cc2-a74f-11ed-8a64-07309bb668ad/roslaunch-intechAGV-6860.log'}]
[roslaunch][INFO] 2023-02-08 09:44:08,055: process[baseController-1]: args[['/home/intechAGV/catkin_ws/devel/lib/agv1_base_controller/node_base_controller.py', '__name:=baseController']]
[roslaunch][INFO] 2023-02-08 09:44:08,055: ... created process [baseController-1]
[roslaunch.pmon][INFO] 2023-02-08 09:44:08,055: ProcessMonitor.register[baseController-1]
[roslaunch.pmon][INFO] 2023-02-08 09:44:08,056: ProcessMonitor.register[baseController-1] complete
[roslaunch][INFO] 2023-02-08 09:44:08,056: ... registered process [baseController-1]
[roslaunch][INFO] 2023-02-08 09:44:08,056: process[baseController-1]: starting os process
[roslaunch][INFO] 2023-02-08 09:44:08,056: process[baseController-1]: start w/ args [['/home/intechAGV/catkin_ws/devel/lib/agv1_base_controller/node_base_controller.py', '__name:=baseController', '__log:=/home/intechAGV/.ros/log/73302cc2-a74f-11ed-8a64-07309bb668ad/baseController-1.log']]
[roslaunch][INFO] 2023-02-08 09:44:08,057: process[baseController-1]: cwd will be [/home/intechAGV/.ros]
[roslaunch][INFO] 2023-02-08 09:44:08,066: process[baseController-1]: started with pid [6874]
[roslaunch][INFO] 2023-02-08 09:44:08,067: ... successfully launched [baseController-1]
[roslaunch][INFO] 2023-02-08 09:44:08,067: ... preparing to launch node of type [agv1_gpio/node_gpio.py]
[roslaunch][INFO] 2023-02-08 09:44:08,068: create_node_process: package[agv1_gpio] type[node_gpio.py] machine[Machine(name[] env_loader[None] address[localhost] ssh_port[22] user[None] assignable[True] timeout[10.0])] master_uri[http://localhost:11311]
[roslaunch][INFO] 2023-02-08 09:44:08,069: process[gpio-2]: env[{'SHELL': '/bin/bash', 'ROS_VERSION': '1', 'PKG_CONFIG_PATH': '/home/intechAGV/catkin_ws/devel/lib/pkgconfig:/opt/ros/noetic/lib/pkgconfig', 'ROS_PYTHON_VERSION': '3', 'LC_ADDRESS': 'C.UTF-8', 'LC_NAME': 'C.UTF-8', 'LC_MONETARY': 'C.UTF-8', 'ROS_PACKAGE_PATH': '/home/intech/catkin_ws/src:/home/intechAGV/catkin_ws/src:/opt/ros/noetic/share', 'ROSLISP_PACKAGE_DIRECTORIES': '/home/intechAGV/catkin_ws/devel/share/common-lisp', 'PWD': '/home/intechAGV', 'LOGNAME': 'intechAGV', 'XDG_SESSION_TYPE': 'tty', 'MOTD_SHOWN': 'pam', 'HOME': '/home/intechAGV', 'LANG': 'C.UTF-8', 'LC_PAPER': 'C.UTF-8', 'ROS_ETC_DIR': '/opt/ros/noetic/etc/ros', 'LS_COLORS': 'rs=0:di=01;34:ln=01;36:mh=00:pi=40;33:so=01;35:do=01;35:bd=40;33;01:cd=40;33;01:or=40;31;01:mi=00:su=37;41:sg=30;43:ca=30;41:tw=30;42:ow=34;42:st=37;44:ex=01;32:*.tar=01;31:*.tgz=01;31:*.arc=01;31:*.arj=01;31:*.taz=01;31:*.lha=01;31:*.lz4=01;31:*.lzh=01;31:*.lzma=01;31:*.tlz=01;31:*.txz=01;31:*.tzo=01;31:*.t7z=01;31:*.zip=01;31:*.z=01;31:*.dz=01;31:*.gz=01;31:*.lrz=01;31:*.lz=01;31:*.lzo=01;31:*.xz=01;31:*.zst=01;31:*.tzst=01;31:*.bz2=01;31:*.bz=01;31:*.tbz=01;31:*.tbz2=01;31:*.tz=01;31:*.deb=01;31:*.rpm=01;31:*.jar=01;31:*.war=01;31:*.ear=01;31:*.sar=01;31:*.rar=01;31:*.alz=01;31:*.ace=01;31:*.zoo=01;31:*.cpio=01;31:*.7z=01;31:*.rz=01;31:*.cab=01;31:*.wim=01;31:*.swm=01;31:*.dwm=01;31:*.esd=01;31:*.jpg=01;35:*.jpeg=01;35:*.mjpg=01;35:*.mjpeg=01;35:*.gif=01;35:*.bmp=01;35:*.pbm=01;35:*.pgm=01;35:*.ppm=01;35:*.tga=01;35:*.xbm=01;35:*.xpm=01;35:*.tif=01;35:*.tiff=01;35:*.png=01;35:*.svg=01;35:*.svgz=01;35:*.mng=01;35:*.pcx=01;35:*.mov=01;35:*.mpg=01;35:*.mpeg=01;35:*.m2v=01;35:*.mkv=01;35:*.webm=01;35:*.ogm=01;35:*.mp4=01;35:*.m4v=01;35:*.mp4v=01;35:*.vob=01;35:*.qt=01;35:*.nuv=01;35:*.wmv=01;35:*.asf=01;35:*.rm=01;35:*.rmvb=01;35:*.flc=01;35:*.avi=01;35:*.fli=01;35:*.flv=01;35:*.gl=01;35:*.dl=01;35:*.xcf=01;35:*.xwd=01;35:*.yuv=01;35:*.cgm=01;35:*.emf=01;35:*.ogv=01;35:*.ogx=01;35:*.aac=00;36:*.au=00;36:*.flac=00;36:*.m4a=00;36:*.mid=00;36:*.midi=00;36:*.mka=00;36:*.mp3=00;36:*.mpc=00;36:*.ogg=00;36:*.ra=00;36:*.wav=00;36:*.oga=00;36:*.opus=00;36:*.spx=00;36:*.xspf=00;36:', 'CMAKE_PREFIX_PATH': '/home/intechAGV/catkin_ws/devel:/opt/ros/noetic', 'SSH_CONNECTION': '192.168.0.117 53332 192.168.0.120 22', 'LESSCLOSE': '/usr/bin/lesspipe %s %s', 'XDG_SESSION_CLASS': 'user', 'PYTHONPATH': '/home/intechAGV/catkin_ws/devel/lib/python3/dist-packages:/opt/ros/noetic/lib/python3/dist-packages', 'TERM': 'xterm-256color', 'LC_IDENTIFICATION': 'C.UTF-8', 'LESSOPEN': '| /usr/bin/lesspipe %s', 'USER': 'intechAGV', 'SHLVL': '1', 'LC_TELEPHONE': 'C.UTF-8', 'ROS_MASTER_URI': 'http://localhost:11311', 'LC_MEASUREMENT': 'C.UTF-8', 'XDG_SESSION_ID': '4', 'LD_LIBRARY_PATH': '/home/intechAGV/catkin_ws/devel/lib:/opt/ros/noetic/lib', 'XDG_RUNTIME_DIR': '/run/user/1000', 'SSH_CLIENT': '192.168.0.117 53332 22', 'LC_TIME': 'C.UTF-8', 'XDG_DATA_DIRS': '/usr/local/share:/usr/share:/var/lib/snapd/desktop', 'PATH': '/home/intechAGV/.local/bin:/opt/ros/noetic/bin:/usr/local/sbin:/usr/local/bin:/usr/sbin:/usr/bin:/sbin:/bin:/usr/games:/usr/local/games:/snap/bin', 'DBUS_SESSION_BUS_ADDRESS': 'unix:path=/run/user/1000/bus', 'SSH_TTY': '/dev/pts/0', 'ROS_ROOT': '/opt/ros/noetic/share/ros', 'ROS_DISTRO': 'noetic', 'LC_NUMERIC': 'C.UTF-8', '_': '/opt/ros/noetic/bin/roslaunch', 'ROS_LOG_FILENAME': '/home/intechAGV/.ros/log/73302cc2-a74f-11ed-8a64-07309bb668ad/roslaunch-intechAGV-6860.log'}]
[roslaunch][INFO] 2023-02-08 09:44:08,072: process[gpio-2]: args[['/home/intechAGV/catkin_ws/devel/lib/agv1_gpio/node_gpio.py', '__name:=gpio']]
[roslaunch][INFO] 2023-02-08 09:44:08,073: ... created process [gpio-2]
[roslaunch.pmon][INFO] 2023-02-08 09:44:08,073: ProcessMonitor.register[gpio-2]
[roslaunch.pmon][INFO] 2023-02-08 09:44:08,074: ProcessMonitor.register[gpio-2] complete
[roslaunch][INFO] 2023-02-08 09:44:08,074: ... registered process [gpio-2]
[roslaunch][INFO] 2023-02-08 09:44:08,074: process[gpio-2]: starting os process
[roslaunch][INFO] 2023-02-08 09:44:08,075: process[gpio-2]: start w/ args [['/home/intechAGV/catkin_ws/devel/lib/agv1_gpio/node_gpio.py', '__name:=gpio', '__log:=/home/intechAGV/.ros/log/73302cc2-a74f-11ed-8a64-07309bb668ad/gpio-2.log']]
[roslaunch][INFO] 2023-02-08 09:44:08,075: process[gpio-2]: cwd will be [/home/intechAGV/.ros]
[roslaunch][INFO] 2023-02-08 09:44:08,086: process[gpio-2]: started with pid [6875]
[roslaunch][INFO] 2023-02-08 09:44:08,086: ... successfully launched [gpio-2]
[roslaunch][INFO] 2023-02-08 09:44:08,087: ... preparing to launch node of type [agv1_followline/node_followline.py]
[roslaunch][INFO] 2023-02-08 09:44:08,087: create_node_process: package[agv1_followline] type[node_followline.py] machine[Machine(name[] env_loader[None] address[localhost] ssh_port[22] user[None] assignable[True] timeout[10.0])] master_uri[http://localhost:11311]
[roslaunch][INFO] 2023-02-08 09:44:08,088: process[followline-3]: env[{'SHELL': '/bin/bash', 'ROS_VERSION': '1', 'PKG_CONFIG_PATH': '/home/intechAGV/catkin_ws/devel/lib/pkgconfig:/opt/ros/noetic/lib/pkgconfig', 'ROS_PYTHON_VERSION': '3', 'LC_ADDRESS': 'C.UTF-8', 'LC_NAME': 'C.UTF-8', 'LC_MONETARY': 'C.UTF-8', 'ROS_PACKAGE_PATH': '/home/intech/catkin_ws/src:/home/intechAGV/catkin_ws/src:/opt/ros/noetic/share', 'ROSLISP_PACKAGE_DIRECTORIES': '/home/intechAGV/catkin_ws/devel/share/common-lisp', 'PWD': '/home/intechAGV', 'LOGNAME': 'intechAGV', 'XDG_SESSION_TYPE': 'tty', 'MOTD_SHOWN': 'pam', 'HOME': '/home/intechAGV', 'LANG': 'C.UTF-8', 'LC_PAPER': 'C.UTF-8', 'ROS_ETC_DIR': '/opt/ros/noetic/etc/ros', 'LS_COLORS': 'rs=0:di=01;34:ln=01;36:mh=00:pi=40;33:so=01;35:do=01;35:bd=40;33;01:cd=40;33;01:or=40;31;01:mi=00:su=37;41:sg=30;43:ca=30;41:tw=30;42:ow=34;42:st=37;44:ex=01;32:*.tar=01;31:*.tgz=01;31:*.arc=01;31:*.arj=01;31:*.taz=01;31:*.lha=01;31:*.lz4=01;31:*.lzh=01;31:*.lzma=01;31:*.tlz=01;31:*.txz=01;31:*.tzo=01;31:*.t7z=01;31:*.zip=01;31:*.z=01;31:*.dz=01;31:*.gz=01;31:*.lrz=01;31:*.lz=01;31:*.lzo=01;31:*.xz=01;31:*.zst=01;31:*.tzst=01;31:*.bz2=01;31:*.bz=01;31:*.tbz=01;31:*.tbz2=01;31:*.tz=01;31:*.deb=01;31:*.rpm=01;31:*.jar=01;31:*.war=01;31:*.ear=01;31:*.sar=01;31:*.rar=01;31:*.alz=01;31:*.ace=01;31:*.zoo=01;31:*.cpio=01;31:*.7z=01;31:*.rz=01;31:*.cab=01;31:*.wim=01;31:*.swm=01;31:*.dwm=01;31:*.esd=01;31:*.jpg=01;35:*.jpeg=01;35:*.mjpg=01;35:*.mjpeg=01;35:*.gif=01;35:*.bmp=01;35:*.pbm=01;35:*.pgm=01;35:*.ppm=01;35:*.tga=01;35:*.xbm=01;35:*.xpm=01;35:*.tif=01;35:*.tiff=01;35:*.png=01;35:*.svg=01;35:*.svgz=01;35:*.mng=01;35:*.pcx=01;35:*.mov=01;35:*.mpg=01;35:*.mpeg=01;35:*.m2v=01;35:*.mkv=01;35:*.webm=01;35:*.ogm=01;35:*.mp4=01;35:*.m4v=01;35:*.mp4v=01;35:*.vob=01;35:*.qt=01;35:*.nuv=01;35:*.wmv=01;35:*.asf=01;35:*.rm=01;35:*.rmvb=01;35:*.flc=01;35:*.avi=01;35:*.fli=01;35:*.flv=01;35:*.gl=01;35:*.dl=01;35:*.xcf=01;35:*.xwd=01;35:*.yuv=01;35:*.cgm=01;35:*.emf=01;35:*.ogv=01;35:*.ogx=01;35:*.aac=00;36:*.au=00;36:*.flac=00;36:*.m4a=00;36:*.mid=00;36:*.midi=00;36:*.mka=00;36:*.mp3=00;36:*.mpc=00;36:*.ogg=00;36:*.ra=00;36:*.wav=00;36:*.oga=00;36:*.opus=00;36:*.spx=00;36:*.xspf=00;36:', 'CMAKE_PREFIX_PATH': '/home/intechAGV/catkin_ws/devel:/opt/ros/noetic', 'SSH_CONNECTION': '192.168.0.117 53332 192.168.0.120 22', 'LESSCLOSE': '/usr/bin/lesspipe %s %s', 'XDG_SESSION_CLASS': 'user', 'PYTHONPATH': '/home/intechAGV/catkin_ws/devel/lib/python3/dist-packages:/opt/ros/noetic/lib/python3/dist-packages', 'TERM': 'xterm-256color', 'LC_IDENTIFICATION': 'C.UTF-8', 'LESSOPEN': '| /usr/bin/lesspipe %s', 'USER': 'intechAGV', 'SHLVL': '1', 'LC_TELEPHONE': 'C.UTF-8', 'ROS_MASTER_URI': 'http://localhost:11311', 'LC_MEASUREMENT': 'C.UTF-8', 'XDG_SESSION_ID': '4', 'LD_LIBRARY_PATH': '/home/intechAGV/catkin_ws/devel/lib:/opt/ros/noetic/lib', 'XDG_RUNTIME_DIR': '/run/user/1000', 'SSH_CLIENT': '192.168.0.117 53332 22', 'LC_TIME': 'C.UTF-8', 'XDG_DATA_DIRS': '/usr/local/share:/usr/share:/var/lib/snapd/desktop', 'PATH': '/home/intechAGV/.local/bin:/opt/ros/noetic/bin:/usr/local/sbin:/usr/local/bin:/usr/sbin:/usr/bin:/sbin:/bin:/usr/games:/usr/local/games:/snap/bin', 'DBUS_SESSION_BUS_ADDRESS': 'unix:path=/run/user/1000/bus', 'SSH_TTY': '/dev/pts/0', 'ROS_ROOT': '/opt/ros/noetic/share/ros', 'ROS_DISTRO': 'noetic', 'LC_NUMERIC': 'C.UTF-8', '_': '/opt/ros/noetic/bin/roslaunch', 'ROS_LOG_FILENAME': '/home/intechAGV/.ros/log/73302cc2-a74f-11ed-8a64-07309bb668ad/roslaunch-intechAGV-6860.log'}]
[roslaunch][INFO] 2023-02-08 09:44:08,092: process[followline-3]: args[['/home/intechAGV/catkin_ws/devel/lib/agv1_followline/node_followline.py', '__name:=followline']]
[roslaunch][INFO] 2023-02-08 09:44:08,092: ... created process [followline-3]
[roslaunch.pmon][INFO] 2023-02-08 09:44:08,093: ProcessMonitor.register[followline-3]
[roslaunch.pmon][INFO] 2023-02-08 09:44:08,093: ProcessMonitor.register[followline-3] complete
[roslaunch][INFO] 2023-02-08 09:44:08,093: ... registered process [followline-3]
[roslaunch][INFO] 2023-02-08 09:44:08,094: process[followline-3]: starting os process
[roslaunch][INFO] 2023-02-08 09:44:08,095: process[followline-3]: start w/ args [['/home/intechAGV/catkin_ws/devel/lib/agv1_followline/node_followline.py', '__name:=followline', '__log:=/home/intechAGV/.ros/log/73302cc2-a74f-11ed-8a64-07309bb668ad/followline-3.log']]
[roslaunch][INFO] 2023-02-08 09:44:08,095: process[followline-3]: cwd will be [/home/intechAGV/.ros]
[roslaunch][INFO] 2023-02-08 09:44:08,107: process[followline-3]: started with pid [6876]
[roslaunch][INFO] 2023-02-08 09:44:08,108: ... successfully launched [followline-3]
[roslaunch][INFO] 2023-02-08 09:44:08,108: ... preparing to launch node of type [agv1_rfid/node_readRFID.py]
[roslaunch][INFO] 2023-02-08 09:44:08,109: create_node_process: package[agv1_rfid] type[node_readRFID.py] machine[Machine(name[] env_loader[None] address[localhost] ssh_port[22] user[None] assignable[True] timeout[10.0])] master_uri[http://localhost:11311]
[roslaunch][INFO] 2023-02-08 09:44:08,110: process[RFID-4]: env[{'SHELL': '/bin/bash', 'ROS_VERSION': '1', 'PKG_CONFIG_PATH': '/home/intechAGV/catkin_ws/devel/lib/pkgconfig:/opt/ros/noetic/lib/pkgconfig', 'ROS_PYTHON_VERSION': '3', 'LC_ADDRESS': 'C.UTF-8', 'LC_NAME': 'C.UTF-8', 'LC_MONETARY': 'C.UTF-8', 'ROS_PACKAGE_PATH': '/home/intech/catkin_ws/src:/home/intechAGV/catkin_ws/src:/opt/ros/noetic/share', 'ROSLISP_PACKAGE_DIRECTORIES': '/home/intechAGV/catkin_ws/devel/share/common-lisp', 'PWD': '/home/intechAGV', 'LOGNAME': 'intechAGV', 'XDG_SESSION_TYPE': 'tty', 'MOTD_SHOWN': 'pam', 'HOME': '/home/intechAGV', 'LANG': 'C.UTF-8', 'LC_PAPER': 'C.UTF-8', 'ROS_ETC_DIR': '/opt/ros/noetic/etc/ros', 'LS_COLORS': 'rs=0:di=01;34:ln=01;36:mh=00:pi=40;33:so=01;35:do=01;35:bd=40;33;01:cd=40;33;01:or=40;31;01:mi=00:su=37;41:sg=30;43:ca=30;41:tw=30;42:ow=34;42:st=37;44:ex=01;32:*.tar=01;31:*.tgz=01;31:*.arc=01;31:*.arj=01;31:*.taz=01;31:*.lha=01;31:*.lz4=01;31:*.lzh=01;31:*.lzma=01;31:*.tlz=01;31:*.txz=01;31:*.tzo=01;31:*.t7z=01;31:*.zip=01;31:*.z=01;31:*.dz=01;31:*.gz=01;31:*.lrz=01;31:*.lz=01;31:*.lzo=01;31:*.xz=01;31:*.zst=01;31:*.tzst=01;31:*.bz2=01;31:*.bz=01;31:*.tbz=01;31:*.tbz2=01;31:*.tz=01;31:*.deb=01;31:*.rpm=01;31:*.jar=01;31:*.war=01;31:*.ear=01;31:*.sar=01;31:*.rar=01;31:*.alz=01;31:*.ace=01;31:*.zoo=01;31:*.cpio=01;31:*.7z=01;31:*.rz=01;31:*.cab=01;31:*.wim=01;31:*.swm=01;31:*.dwm=01;31:*.esd=01;31:*.jpg=01;35:*.jpeg=01;35:*.mjpg=01;35:*.mjpeg=01;35:*.gif=01;35:*.bmp=01;35:*.pbm=01;35:*.pgm=01;35:*.ppm=01;35:*.tga=01;35:*.xbm=01;35:*.xpm=01;35:*.tif=01;35:*.tiff=01;35:*.png=01;35:*.svg=01;35:*.svgz=01;35:*.mng=01;35:*.pcx=01;35:*.mov=01;35:*.mpg=01;35:*.mpeg=01;35:*.m2v=01;35:*.mkv=01;35:*.webm=01;35:*.ogm=01;35:*.mp4=01;35:*.m4v=01;35:*.mp4v=01;35:*.vob=01;35:*.qt=01;35:*.nuv=01;35:*.wmv=01;35:*.asf=01;35:*.rm=01;35:*.rmvb=01;35:*.flc=01;35:*.avi=01;35:*.fli=01;35:*.flv=01;35:*.gl=01;35:*.dl=01;35:*.xcf=01;35:*.xwd=01;35:*.yuv=01;35:*.cgm=01;35:*.emf=01;35:*.ogv=01;35:*.ogx=01;35:*.aac=00;36:*.au=00;36:*.flac=00;36:*.m4a=00;36:*.mid=00;36:*.midi=00;36:*.mka=00;36:*.mp3=00;36:*.mpc=00;36:*.ogg=00;36:*.ra=00;36:*.wav=00;36:*.oga=00;36:*.opus=00;36:*.spx=00;36:*.xspf=00;36:', 'CMAKE_PREFIX_PATH': '/home/intechAGV/catkin_ws/devel:/opt/ros/noetic', 'SSH_CONNECTION': '192.168.0.117 53332 192.168.0.120 22', 'LESSCLOSE': '/usr/bin/lesspipe %s %s', 'XDG_SESSION_CLASS': 'user', 'PYTHONPATH': '/home/intechAGV/catkin_ws/devel/lib/python3/dist-packages:/opt/ros/noetic/lib/python3/dist-packages', 'TERM': 'xterm-256color', 'LC_IDENTIFICATION': 'C.UTF-8', 'LESSOPEN': '| /usr/bin/lesspipe %s', 'USER': 'intechAGV', 'SHLVL': '1', 'LC_TELEPHONE': 'C.UTF-8', 'ROS_MASTER_URI': 'http://localhost:11311', 'LC_MEASUREMENT': 'C.UTF-8', 'XDG_SESSION_ID': '4', 'LD_LIBRARY_PATH': '/home/intechAGV/catkin_ws/devel/lib:/opt/ros/noetic/lib', 'XDG_RUNTIME_DIR': '/run/user/1000', 'SSH_CLIENT': '192.168.0.117 53332 22', 'LC_TIME': 'C.UTF-8', 'XDG_DATA_DIRS': '/usr/local/share:/usr/share:/var/lib/snapd/desktop', 'PATH': '/home/intechAGV/.local/bin:/opt/ros/noetic/bin:/usr/local/sbin:/usr/local/bin:/usr/sbin:/usr/bin:/sbin:/bin:/usr/games:/usr/local/games:/snap/bin', 'DBUS_SESSION_BUS_ADDRESS': 'unix:path=/run/user/1000/bus', 'SSH_TTY': '/dev/pts/0', 'ROS_ROOT': '/opt/ros/noetic/share/ros', 'ROS_DISTRO': 'noetic', 'LC_NUMERIC': 'C.UTF-8', '_': '/opt/ros/noetic/bin/roslaunch', 'ROS_LOG_FILENAME': '/home/intechAGV/.ros/log/73302cc2-a74f-11ed-8a64-07309bb668ad/roslaunch-intechAGV-6860.log'}]
[roslaunch][INFO] 2023-02-08 09:44:08,113: process[RFID-4]: args[['/home/intechAGV/catkin_ws/devel/lib/agv1_rfid/node_readRFID.py', '__name:=RFID']]
[roslaunch][INFO] 2023-02-08 09:44:08,114: ... created process [RFID-4]
[roslaunch.pmon][INFO] 2023-02-08 09:44:08,114: ProcessMonitor.register[RFID-4]
[roslaunch.pmon][INFO] 2023-02-08 09:44:08,114: ProcessMonitor.register[RFID-4] complete
[roslaunch][INFO] 2023-02-08 09:44:08,115: ... registered process [RFID-4]
[roslaunch][INFO] 2023-02-08 09:44:08,115: process[RFID-4]: starting os process
[roslaunch][INFO] 2023-02-08 09:44:08,116: process[RFID-4]: start w/ args [['/home/intechAGV/catkin_ws/devel/lib/agv1_rfid/node_readRFID.py', '__name:=RFID', '__log:=/home/intechAGV/.ros/log/73302cc2-a74f-11ed-8a64-07309bb668ad/RFID-4.log']]
[roslaunch][INFO] 2023-02-08 09:44:08,117: process[RFID-4]: cwd will be [/home/intechAGV/.ros]
[roslaunch][INFO] 2023-02-08 09:44:08,131: process[RFID-4]: started with pid [6877]
[roslaunch][INFO] 2023-02-08 09:44:08,132: ... successfully launched [RFID-4]
[roslaunch][INFO] 2023-02-08 09:44:08,132: ... preparing to launch node of type [agv1_xbee/node_xbee.py]
[roslaunch][INFO] 2023-02-08 09:44:08,133: create_node_process: package[agv1_xbee] type[node_xbee.py] machine[Machine(name[] env_loader[None] address[localhost] ssh_port[22] user[None] assignable[True] timeout[10.0])] master_uri[http://localhost:11311]
[roslaunch][INFO] 2023-02-08 09:44:08,134: process[xbee-5]: env[{'SHELL': '/bin/bash', 'ROS_VERSION': '1', 'PKG_CONFIG_PATH': '/home/intechAGV/catkin_ws/devel/lib/pkgconfig:/opt/ros/noetic/lib/pkgconfig', 'ROS_PYTHON_VERSION': '3', 'LC_ADDRESS': 'C.UTF-8', 'LC_NAME': 'C.UTF-8', 'LC_MONETARY': 'C.UTF-8', 'ROS_PACKAGE_PATH': '/home/intech/catkin_ws/src:/home/intechAGV/catkin_ws/src:/opt/ros/noetic/share', 'ROSLISP_PACKAGE_DIRECTORIES': '/home/intechAGV/catkin_ws/devel/share/common-lisp', 'PWD': '/home/intechAGV', 'LOGNAME': 'intechAGV', 'XDG_SESSION_TYPE': 'tty', 'MOTD_SHOWN': 'pam', 'HOME': '/home/intechAGV', 'LANG': 'C.UTF-8', 'LC_PAPER': 'C.UTF-8', 'ROS_ETC_DIR': '/opt/ros/noetic/etc/ros', 'LS_COLORS': 'rs=0:di=01;34:ln=01;36:mh=00:pi=40;33:so=01;35:do=01;35:bd=40;33;01:cd=40;33;01:or=40;31;01:mi=00:su=37;41:sg=30;43:ca=30;41:tw=30;42:ow=34;42:st=37;44:ex=01;32:*.tar=01;31:*.tgz=01;31:*.arc=01;31:*.arj=01;31:*.taz=01;31:*.lha=01;31:*.lz4=01;31:*.lzh=01;31:*.lzma=01;31:*.tlz=01;31:*.txz=01;31:*.tzo=01;31:*.t7z=01;31:*.zip=01;31:*.z=01;31:*.dz=01;31:*.gz=01;31:*.lrz=01;31:*.lz=01;31:*.lzo=01;31:*.xz=01;31:*.zst=01;31:*.tzst=01;31:*.bz2=01;31:*.bz=01;31:*.tbz=01;31:*.tbz2=01;31:*.tz=01;31:*.deb=01;31:*.rpm=01;31:*.jar=01;31:*.war=01;31:*.ear=01;31:*.sar=01;31:*.rar=01;31:*.alz=01;31:*.ace=01;31:*.zoo=01;31:*.cpio=01;31:*.7z=01;31:*.rz=01;31:*.cab=01;31:*.wim=01;31:*.swm=01;31:*.dwm=01;31:*.esd=01;31:*.jpg=01;35:*.jpeg=01;35:*.mjpg=01;35:*.mjpeg=01;35:*.gif=01;35:*.bmp=01;35:*.pbm=01;35:*.pgm=01;35:*.ppm=01;35:*.tga=01;35:*.xbm=01;35:*.xpm=01;35:*.tif=01;35:*.tiff=01;35:*.png=01;35:*.svg=01;35:*.svgz=01;35:*.mng=01;35:*.pcx=01;35:*.mov=01;35:*.mpg=01;35:*.mpeg=01;35:*.m2v=01;35:*.mkv=01;35:*.webm=01;35:*.ogm=01;35:*.mp4=01;35:*.m4v=01;35:*.mp4v=01;35:*.vob=01;35:*.qt=01;35:*.nuv=01;35:*.wmv=01;35:*.asf=01;35:*.rm=01;35:*.rmvb=01;35:*.flc=01;35:*.avi=01;35:*.fli=01;35:*.flv=01;35:*.gl=01;35:*.dl=01;35:*.xcf=01;35:*.xwd=01;35:*.yuv=01;35:*.cgm=01;35:*.emf=01;35:*.ogv=01;35:*.ogx=01;35:*.aac=00;36:*.au=00;36:*.flac=00;36:*.m4a=00;36:*.mid=00;36:*.midi=00;36:*.mka=00;36:*.mp3=00;36:*.mpc=00;36:*.ogg=00;36:*.ra=00;36:*.wav=00;36:*.oga=00;36:*.opus=00;36:*.spx=00;36:*.xspf=00;36:', 'CMAKE_PREFIX_PATH': '/home/intechAGV/catkin_ws/devel:/opt/ros/noetic', 'SSH_CONNECTION': '192.168.0.117 53332 192.168.0.120 22', 'LESSCLOSE': '/usr/bin/lesspipe %s %s', 'XDG_SESSION_CLASS': 'user', 'PYTHONPATH': '/home/intechAGV/catkin_ws/devel/lib/python3/dist-packages:/opt/ros/noetic/lib/python3/dist-packages', 'TERM': 'xterm-256color', 'LC_IDENTIFICATION': 'C.UTF-8', 'LESSOPEN': '| /usr/bin/lesspipe %s', 'USER': 'intechAGV', 'SHLVL': '1', 'LC_TELEPHONE': 'C.UTF-8', 'ROS_MASTER_URI': 'http://localhost:11311', 'LC_MEASUREMENT': 'C.UTF-8', 'XDG_SESSION_ID': '4', 'LD_LIBRARY_PATH': '/home/intechAGV/catkin_ws/devel/lib:/opt/ros/noetic/lib', 'XDG_RUNTIME_DIR': '/run/user/1000', 'SSH_CLIENT': '192.168.0.117 53332 22', 'LC_TIME': 'C.UTF-8', 'XDG_DATA_DIRS': '/usr/local/share:/usr/share:/var/lib/snapd/desktop', 'PATH': '/home/intechAGV/.local/bin:/opt/ros/noetic/bin:/usr/local/sbin:/usr/local/bin:/usr/sbin:/usr/bin:/sbin:/bin:/usr/games:/usr/local/games:/snap/bin', 'DBUS_SESSION_BUS_ADDRESS': 'unix:path=/run/user/1000/bus', 'SSH_TTY': '/dev/pts/0', 'ROS_ROOT': '/opt/ros/noetic/share/ros', 'ROS_DISTRO': 'noetic', 'LC_NUMERIC': 'C.UTF-8', '_': '/opt/ros/noetic/bin/roslaunch', 'ROS_LOG_FILENAME': '/home/intechAGV/.ros/log/73302cc2-a74f-11ed-8a64-07309bb668ad/roslaunch-intechAGV-6860.log'}]
[roslaunch][INFO] 2023-02-08 09:44:08,138: process[xbee-5]: args[['/home/intechAGV/catkin_ws/devel/lib/agv1_xbee/node_xbee.py', '__name:=xbee']]
[roslaunch][INFO] 2023-02-08 09:44:08,140: ... created process [xbee-5]
[roslaunch.pmon][INFO] 2023-02-08 09:44:08,140: ProcessMonitor.register[xbee-5]
[roslaunch.pmon][INFO] 2023-02-08 09:44:08,141: ProcessMonitor.register[xbee-5] complete
[roslaunch][INFO] 2023-02-08 09:44:08,141: ... registered process [xbee-5]
[roslaunch][INFO] 2023-02-08 09:44:08,141: process[xbee-5]: starting os process
[roslaunch][INFO] 2023-02-08 09:44:08,142: process[xbee-5]: start w/ args [['/home/intechAGV/catkin_ws/devel/lib/agv1_xbee/node_xbee.py', '__name:=xbee', '__log:=/home/intechAGV/.ros/log/73302cc2-a74f-11ed-8a64-07309bb668ad/xbee-5.log']]
[roslaunch][INFO] 2023-02-08 09:44:08,143: process[xbee-5]: cwd will be [/home/intechAGV/.ros]
[roslaunch][INFO] 2023-02-08 09:44:08,174: process[xbee-5]: started with pid [6878]
[roslaunch][INFO] 2023-02-08 09:44:08,175: ... successfully launched [xbee-5]
[roslaunch][INFO] 2023-02-08 09:44:08,175: ... launch_nodes complete
[roslaunch.pmon][INFO] 2023-02-08 09:44:08,176: registrations completed <ProcessMonitor(ProcessMonitor-1, started daemon 281473369989600)>
[roslaunch.parent][INFO] 2023-02-08 09:44:08,177: ... roslaunch parent running, waiting for process exit
[roslaunch][INFO] 2023-02-08 09:44:08,177: spin
[roslaunch][ERROR] 2023-02-08 09:45:08,290: [xbee-5] process has died [pid 6878, exit code 1, cmd /home/intechAGV/catkin_ws/devel/lib/agv1_xbee/node_xbee.py __name:=xbee __log:=/home/intechAGV/.ros/log/73302cc2-a74f-11ed-8a64-07309bb668ad/xbee-5.log].
log file: /home/intechAGV/.ros/log/73302cc2-a74f-11ed-8a64-07309bb668ad/xbee-5*.log
[roslaunch.pmon][INFO] 2023-02-08 09:45:08,291: ProcessMonitor.unregister[xbee-5] starting
[roslaunch.pmon][INFO] 2023-02-08 09:45:08,292: ProcessMonitor.unregister[xbee-5] complete
[roslaunch.pmon][INFO] 2023-02-08 09:45:34,656: ProcessMonitor.shutdown <ProcessMonitor(ProcessMonitor-1, started daemon 281473369989600)>
[roslaunch.pmon][INFO] 2023-02-08 09:45:34,711: ProcessMonitor._post_run <ProcessMonitor(ProcessMonitor-1, started daemon 281473369989600)>
[roslaunch.pmon][INFO] 2023-02-08 09:45:34,712: ProcessMonitor._post_run <ProcessMonitor(ProcessMonitor-1, started daemon 281473369989600)>: remaining procs are [<roslaunch.nodeprocess.LocalProcess object at 0xffffa044b850>, <roslaunch.nodeprocess.LocalProcess object at 0xffffa044b880>, <roslaunch.nodeprocess.LocalProcess object at 0xffffa044bf70>, <roslaunch.nodeprocess.LocalProcess object at 0xffffa044b910>]
[roslaunch.pmon][INFO] 2023-02-08 09:45:34,713: ProcessMonitor exit: killing RFID-4
[roslaunch.pmon][INFO] 2023-02-08 09:45:34,713: ProcessMonitor exit: killing followline-3
[roslaunch][INFO] 2023-02-08 09:45:34,713: [RFID-4] killing on exit
[roslaunch.pmon][INFO] 2023-02-08 09:45:34,714: ProcessMonitor exit: killing gpio-2
[roslaunch][INFO] 2023-02-08 09:45:34,715: [followline-3] killing on exit
[roslaunch.pmon][INFO] 2023-02-08 09:45:34,715: ProcessMonitor exit: killing baseController-1
[roslaunch][INFO] 2023-02-08 09:45:34,716: [gpio-2] killing on exit
[roslaunch][INFO] 2023-02-08 09:45:34,717: process[RFID-4]: killing os process with pid[6877] pgid[6877]
[roslaunch][INFO] 2023-02-08 09:45:34,718: process[followline-3]: killing os process with pid[6876] pgid[6876]
[roslaunch][INFO] 2023-02-08 09:45:34,718: [baseController-1] killing on exit
[roslaunch][INFO] 2023-02-08 09:45:34,719: process[gpio-2]: killing os process with pid[6875] pgid[6875]
[roslaunch][INFO] 2023-02-08 09:45:34,719: [RFID-4] sending SIGINT to pgid [6877]
[roslaunch][INFO] 2023-02-08 09:45:34,720: [followline-3] sending SIGINT to pgid [6876]
[roslaunch][INFO] 2023-02-08 09:45:34,721: process[baseController-1]: killing os process with pid[6874] pgid[6874]
[roslaunch][INFO] 2023-02-08 09:45:34,722: [baseController-1] sending SIGINT to pgid [6874]
[roslaunch][INFO] 2023-02-08 09:45:34,722: [baseController-1] sent SIGINT to pgid [6874]
[roslaunch][INFO] 2023-02-08 09:45:34,721: [followline-3] sent SIGINT to pgid [6876]
[roslaunch][INFO] 2023-02-08 09:45:34,721: [gpio-2] sending SIGINT to pgid [6875]
[roslaunch][INFO] 2023-02-08 09:45:34,721: [RFID-4] sent SIGINT to pgid [6877]
[roslaunch][INFO] 2023-02-08 09:45:34,726: [gpio-2] sent SIGINT to pgid [6875]
[roslaunch][INFO] 2023-02-08 09:45:35,628: process[gpio-2]: SIGINT killed with return value 0
[roslaunch][INFO] 2023-02-08 09:45:35,727: process[baseController-1]: SIGINT killed with return value 0
[roslaunch][INFO] 2023-02-08 09:45:36,529: process[RFID-4]: SIGINT killed with return value 0
[roslaunch][INFO] 2023-02-08 09:45:37,631: process[followline-3]: SIGINT killed with return value 0
[roslaunch.pmon][INFO] 2023-02-08 09:45:37,632: ProcessMonitor exit: cleaning up data structures and signals
[roslaunch.pmon][INFO] 2023-02-08 09:45:37,633: ProcessMonitor exit: pmon has shutdown
[roslaunch][INFO] 2023-02-08 09:45:37,633: process monitor is done spinning, initiating full shutdown
[roslaunch][INFO] 2023-02-08 09:45:37,634: runner.stop()
[roslaunch][INFO] 2023-02-08 09:45:37,634: shutting down processing monitor...
[roslaunch][INFO] 2023-02-08 09:45:37,635: shutting down processing monitor <ProcessMonitor(ProcessMonitor-1, stopped daemon 281473369989600)>
[roslaunch.pmon][INFO] 2023-02-08 09:45:37,636: ProcessMonitor.shutdown <ProcessMonitor(ProcessMonitor-1, stopped daemon 281473369989600)>
[roslaunch][INFO] 2023-02-08 09:45:37,636: ... shutting down processing monitor complete
[roslaunch][INFO] 2023-02-08 09:45:37,636: done
[roslaunch.pmon][INFO] 2023-02-08 09:45:37,637: ProcessMonitor.shutdown <ProcessMonitor(ProcessMonitor-1, stopped daemon 281473369989600)>
[rospy.core][INFO] 2023-02-08 09:45:37,638: signal_shutdown [atexit]
