[roslaunch][INFO] 2023-02-08 09:20:08,017: Checking log directory for disk usage. This may take a while.
Press Ctrl-C to interrupt
[roslaunch][INFO] 2023-02-08 09:20:08,036: Done checking log file disk usage. Usage is <1GB.
[roslaunch][INFO] 2023-02-08 09:20:08,036: roslaunch starting with args ['/opt/ros/noetic/bin/roslaunch', 'agv1_master', 'agv1_intech.launch']
[roslaunch][INFO] 2023-02-08 09:20:08,037: roslaunch env is environ({'SHELL': '/bin/bash', 'ROS_VERSION': '1', 'PKG_CONFIG_PATH': '/home/intechAGV/catkin_ws/devel/lib/pkgconfig:/opt/ros/noetic/lib/pkgconfig', 'ROS_PYTHON_VERSION': '3', 'LC_ADDRESS': 'C.UTF-8', 'LC_NAME': 'C.UTF-8', 'LC_MONETARY': 'C.UTF-8', 'ROS_PACKAGE_PATH': '/home/intech/catkin_ws/src:/home/intechAGV/catkin_ws/src:/opt/ros/noetic/share', 'ROSLISP_PACKAGE_DIRECTORIES': '/home/intechAGV/catkin_ws/devel/share/common-lisp', 'PWD': '/home/intechAGV', 'LOGNAME': 'intechAGV', 'XDG_SESSION_TYPE': 'tty', 'MOTD_SHOWN': 'pam', 'HOME': '/home/intechAGV', 'LANG': 'C.UTF-8', 'LC_PAPER': 'C.UTF-8', 'ROS_ETC_DIR': '/opt/ros/noetic/etc/ros', 'LS_COLORS': 'rs=0:di=01;34:ln=01;36:mh=00:pi=40;33:so=01;35:do=01;35:bd=40;33;01:cd=40;33;01:or=40;31;01:mi=00:su=37;41:sg=30;43:ca=30;41:tw=30;42:ow=34;42:st=37;44:ex=01;32:*.tar=01;31:*.tgz=01;31:*.arc=01;31:*.arj=01;31:*.taz=01;31:*.lha=01;31:*.lz4=01;31:*.lzh=01;31:*.lzma=01;31:*.tlz=01;31:*.txz=01;31:*.tzo=01;31:*.t7z=01;31:*.zip=01;31:*.z=01;31:*.dz=01;31:*.gz=01;31:*.lrz=01;31:*.lz=01;31:*.lzo=01;31:*.xz=01;31:*.zst=01;31:*.tzst=01;31:*.bz2=01;31:*.bz=01;31:*.tbz=01;31:*.tbz2=01;31:*.tz=01;31:*.deb=01;31:*.rpm=01;31:*.jar=01;31:*.war=01;31:*.ear=01;31:*.sar=01;31:*.rar=01;31:*.alz=01;31:*.ace=01;31:*.zoo=01;31:*.cpio=01;31:*.7z=01;31:*.rz=01;31:*.cab=01;31:*.wim=01;31:*.swm=01;31:*.dwm=01;31:*.esd=01;31:*.jpg=01;35:*.jpeg=01;35:*.mjpg=01;35:*.mjpeg=01;35:*.gif=01;35:*.bmp=01;35:*.pbm=01;35:*.pgm=01;35:*.ppm=01;35:*.tga=01;35:*.xbm=01;35:*.xpm=01;35:*.tif=01;35:*.tiff=01;35:*.png=01;35:*.svg=01;35:*.svgz=01;35:*.mng=01;35:*.pcx=01;35:*.mov=01;35:*.mpg=01;35:*.mpeg=01;35:*.m2v=01;35:*.mkv=01;35:*.webm=01;35:*.ogm=01;35:*.mp4=01;35:*.m4v=01;35:*.mp4v=01;35:*.vob=01;35:*.qt=01;35:*.nuv=01;35:*.wmv=01;35:*.asf=01;35:*.rm=01;35:*.rmvb=01;35:*.flc=01;35:*.avi=01;35:*.fli=01;35:*.flv=01;35:*.gl=01;35:*.dl=01;35:*.xcf=01;35:*.xwd=01;35:*.yuv=01;35:*.cgm=01;35:*.emf=01;35:*.ogv=01;35:*.ogx=01;35:*.aac=00;36:*.au=00;36:*.flac=00;36:*.m4a=00;36:*.mid=00;36:*.midi=00;36:*.mka=00;36:*.mp3=00;36:*.mpc=00;36:*.ogg=00;36:*.ra=00;36:*.wav=00;36:*.oga=00;36:*.opus=00;36:*.spx=00;36:*.xspf=00;36:', 'CMAKE_PREFIX_PATH': '/home/intechAGV/catkin_ws/devel:/opt/ros/noetic', 'SSH_CONNECTION': '192.168.0.117 53332 192.168.0.120 22', 'LESSCLOSE': '/usr/bin/lesspipe %s %s', 'XDG_SESSION_CLASS': 'user', 'PYTHONPATH': '/home/intechAGV/catkin_ws/devel/lib/python3/dist-packages:/opt/ros/noetic/lib/python3/dist-packages', 'TERM': 'xterm-256color', 'LC_IDENTIFICATION': 'C.UTF-8', 'LESSOPEN': '| /usr/bin/lesspipe %s', 'USER': 'intechAGV', 'SHLVL': '1', 'LC_TELEPHONE': 'C.UTF-8', 'ROS_MASTER_URI': 'http://localhost:11311', 'LC_MEASUREMENT': 'C.UTF-8', 'XDG_SESSION_ID': '4', 'LD_LIBRARY_PATH': '/home/intechAGV/catkin_ws/devel/lib:/opt/ros/noetic/lib', 'XDG_RUNTIME_DIR': '/run/user/1000', 'SSH_CLIENT': '192.168.0.117 53332 22', 'LC_TIME': 'C.UTF-8', 'XDG_DATA_DIRS': '/usr/local/share:/usr/share:/var/lib/snapd/desktop', 'PATH': '/home/intechAGV/.local/bin:/opt/ros/noetic/bin:/usr/local/sbin:/usr/local/bin:/usr/sbin:/usr/bin:/sbin:/bin:/usr/games:/usr/local/games:/snap/bin', 'DBUS_SESSION_BUS_ADDRESS': 'unix:path=/run/user/1000/bus', 'SSH_TTY': '/dev/pts/0', 'ROS_ROOT': '/opt/ros/noetic/share/ros', 'ROS_DISTRO': 'noetic', 'LC_NUMERIC': 'C.UTF-8', '_': '/opt/ros/noetic/bin/roslaunch', 'ROS_LOG_FILENAME': '/home/intechAGV/.ros/log/73302cc2-a74f-11ed-8a64-07309bb668ad/roslaunch-intechAGV-5850.log'})
[roslaunch][INFO] 2023-02-08 09:20:08,037: starting in server mode
[roslaunch.parent][INFO] 2023-02-08 09:20:08,038: starting roslaunch parent run
[roslaunch][INFO] 2023-02-08 09:20:08,038: loading roscore config file /opt/ros/noetic/etc/ros/roscore.xml
[roslaunch][INFO] 2023-02-08 09:20:08,510: Added core node of type [rosout/rosout] in namespace [/]
[roslaunch.config][INFO] 2023-02-08 09:20:08,511: loading config file /home/intechAGV/catkin_ws/src/agv1_master/launch/agv1_intech.launch
[roslaunch][INFO] 2023-02-08 09:20:08,513: Added node of type [agv1_base_controller/node_base_controller.py] in namespace [/]
[roslaunch][INFO] 2023-02-08 09:20:08,514: Added node of type [agv1_gpio/node_gpio.py] in namespace [/]
[roslaunch][INFO] 2023-02-08 09:20:08,514: Added node of type [agv1_followline/node_followline.py] in namespace [/]
[roslaunch][INFO] 2023-02-08 09:20:08,515: Added node of type [agv1_rfid/node_readRFID.py] in namespace [/]
[roslaunch][INFO] 2023-02-08 09:20:08,516: Added node of type [agv1_xbee/node_xbee.py] in namespace [/]
[roslaunch][INFO] 2023-02-08 09:20:08,516: ... selected machine [] for node of type [agv1_base_controller/node_base_controller.py]
[roslaunch][INFO] 2023-02-08 09:20:08,516: ... selected machine [] for node of type [agv1_gpio/node_gpio.py]
[roslaunch][INFO] 2023-02-08 09:20:08,517: ... selected machine [] for node of type [agv1_followline/node_followline.py]
[roslaunch][INFO] 2023-02-08 09:20:08,517: ... selected machine [] for node of type [agv1_rfid/node_readRFID.py]
[roslaunch][INFO] 2023-02-08 09:20:08,517: ... selected machine [] for node of type [agv1_xbee/node_xbee.py]
[roslaunch.pmon][INFO] 2023-02-08 09:20:08,520: start_process_monitor: creating ProcessMonitor
[roslaunch.pmon][INFO] 2023-02-08 09:20:08,520: created process monitor <ProcessMonitor(ProcessMonitor-1, initial daemon)>
[roslaunch.pmon][INFO] 2023-02-08 09:20:08,521: start_process_monitor: ProcessMonitor started
[roslaunch.parent][INFO] 2023-02-08 09:20:08,521: starting parent XML-RPC server
[roslaunch.server][INFO] 2023-02-08 09:20:08,522: starting roslaunch XML-RPC server
[roslaunch.server][INFO] 2023-02-08 09:20:08,522: waiting for roslaunch XML-RPC server to initialize
[xmlrpc][INFO] 2023-02-08 09:20:08,522: XML-RPC server binding to 0.0.0.0:0
[xmlrpc][INFO] 2023-02-08 09:20:08,523: Started XML-RPC server [http://intechAGV:41293/]
[xmlrpc][INFO] 2023-02-08 09:20:08,524: xml rpc node: starting XML-RPC server
[roslaunch][INFO] 2023-02-08 09:20:08,539: started roslaunch server http://intechAGV:41293/
[roslaunch.parent][INFO] 2023-02-08 09:20:08,539: ... parent XML-RPC server started
[roslaunch][INFO] 2023-02-08 09:20:08,544: master.is_running[http://localhost:11311]
[roslaunch][INFO] 2023-02-08 09:20:08,549: master.is_running[http://localhost:11311]
[roslaunch][INFO] 2023-02-08 09:20:08,553: ROS_MASTER_URI=http://localhost:11311
[roslaunch][INFO] 2023-02-08 09:20:08,559: setting /roslaunch/uris/host_intechagv__41293' to http://intechAGV:41293/
[roslaunch][INFO] 2023-02-08 09:20:08,562: load_parameters starting ...
[roslaunch][INFO] 2023-02-08 09:20:08,628: ... load_parameters complete
[roslaunch][INFO] 2023-02-08 09:20:08,629: launch_nodes: launching local nodes ...
[roslaunch][INFO] 2023-02-08 09:20:08,631: ... preparing to launch node of type [agv1_base_controller/node_base_controller.py]
[roslaunch][INFO] 2023-02-08 09:20:08,631: create_node_process: package[agv1_base_controller] type[node_base_controller.py] machine[Machine(name[] env_loader[None] address[localhost] ssh_port[22] user[None] assignable[True] timeout[10.0])] master_uri[http://localhost:11311]
[roslaunch][INFO] 2023-02-08 09:20:08,631: process[baseController-1]: env[{'SHELL': '/bin/bash', 'ROS_VERSION': '1', 'PKG_CONFIG_PATH': '/home/intechAGV/catkin_ws/devel/lib/pkgconfig:/opt/ros/noetic/lib/pkgconfig', 'ROS_PYTHON_VERSION': '3', 'LC_ADDRESS': 'C.UTF-8', 'LC_NAME': 'C.UTF-8', 'LC_MONETARY': 'C.UTF-8', 'ROS_PACKAGE_PATH': '/home/intech/catkin_ws/src:/home/intechAGV/catkin_ws/src:/opt/ros/noetic/share', 'ROSLISP_PACKAGE_DIRECTORIES': '/home/intechAGV/catkin_ws/devel/share/common-lisp', 'PWD': '/home/intechAGV', 'LOGNAME': 'intechAGV', 'XDG_SESSION_TYPE': 'tty', 'MOTD_SHOWN': 'pam', 'HOME': '/home/intechAGV', 'LANG': 'C.UTF-8', 'LC_PAPER': 'C.UTF-8', 'ROS_ETC_DIR': '/opt/ros/noetic/etc/ros', 'LS_COLORS': 'rs=0:di=01;34:ln=01;36:mh=00:pi=40;33:so=01;35:do=01;35:bd=40;33;01:cd=40;33;01:or=40;31;01:mi=00:su=37;41:sg=30;43:ca=30;41:tw=30;42:ow=34;42:st=37;44:ex=01;32:*.tar=01;31:*.tgz=01;31:*.arc=01;31:*.arj=01;31:*.taz=01;31:*.lha=01;31:*.lz4=01;31:*.lzh=01;31:*.lzma=01;31:*.tlz=01;31:*.txz=01;31:*.tzo=01;31:*.t7z=01;31:*.zip=01;31:*.z=01;31:*.dz=01;31:*.gz=01;31:*.lrz=01;31:*.lz=01;31:*.lzo=01;31:*.xz=01;31:*.zst=01;31:*.tzst=01;31:*.bz2=01;31:*.bz=01;31:*.tbz=01;31:*.tbz2=01;31:*.tz=01;31:*.deb=01;31:*.rpm=01;31:*.jar=01;31:*.war=01;31:*.ear=01;31:*.sar=01;31:*.rar=01;31:*.alz=01;31:*.ace=01;31:*.zoo=01;31:*.cpio=01;31:*.7z=01;31:*.rz=01;31:*.cab=01;31:*.wim=01;31:*.swm=01;31:*.dwm=01;31:*.esd=01;31:*.jpg=01;35:*.jpeg=01;35:*.mjpg=01;35:*.mjpeg=01;35:*.gif=01;35:*.bmp=01;35:*.pbm=01;35:*.pgm=01;35:*.ppm=01;35:*.tga=01;35:*.xbm=01;35:*.xpm=01;35:*.tif=01;35:*.tiff=01;35:*.png=01;35:*.svg=01;35:*.svgz=01;35:*.mng=01;35:*.pcx=01;35:*.mov=01;35:*.mpg=01;35:*.mpeg=01;35:*.m2v=01;35:*.mkv=01;35:*.webm=01;35:*.ogm=01;35:*.mp4=01;35:*.m4v=01;35:*.mp4v=01;35:*.vob=01;35:*.qt=01;35:*.nuv=01;35:*.wmv=01;35:*.asf=01;35:*.rm=01;35:*.rmvb=01;35:*.flc=01;35:*.avi=01;35:*.fli=01;35:*.flv=01;35:*.gl=01;35:*.dl=01;35:*.xcf=01;35:*.xwd=01;35:*.yuv=01;35:*.cgm=01;35:*.emf=01;35:*.ogv=01;35:*.ogx=01;35:*.aac=00;36:*.au=00;36:*.flac=00;36:*.m4a=00;36:*.mid=00;36:*.midi=00;36:*.mka=00;36:*.mp3=00;36:*.mpc=00;36:*.ogg=00;36:*.ra=00;36:*.wav=00;36:*.oga=00;36:*.opus=00;36:*.spx=00;36:*.xspf=00;36:', 'CMAKE_PREFIX_PATH': '/home/intechAGV/catkin_ws/devel:/opt/ros/noetic', 'SSH_CONNECTION': '192.168.0.117 53332 192.168.0.120 22', 'LESSCLOSE': '/usr/bin/lesspipe %s %s', 'XDG_SESSION_CLASS': 'user', 'PYTHONPATH': '/home/intechAGV/catkin_ws/devel/lib/python3/dist-packages:/opt/ros/noetic/lib/python3/dist-packages', 'TERM': 'xterm-256color', 'LC_IDENTIFICATION': 'C.UTF-8', 'LESSOPEN': '| /usr/bin/lesspipe %s', 'USER': 'intechAGV', 'SHLVL': '1', 'LC_TELEPHONE': 'C.UTF-8', 'ROS_MASTER_URI': 'http://localhost:11311', 'LC_MEASUREMENT': 'C.UTF-8', 'XDG_SESSION_ID': '4', 'LD_LIBRARY_PATH': '/home/intechAGV/catkin_ws/devel/lib:/opt/ros/noetic/lib', 'XDG_RUNTIME_DIR': '/run/user/1000', 'SSH_CLIENT': '192.168.0.117 53332 22', 'LC_TIME': 'C.UTF-8', 'XDG_DATA_DIRS': '/usr/local/share:/usr/share:/var/lib/snapd/desktop', 'PATH': '/home/intechAGV/.local/bin:/opt/ros/noetic/bin:/usr/local/sbin:/usr/local/bin:/usr/sbin:/usr/bin:/sbin:/bin:/usr/games:/usr/local/games:/snap/bin', 'DBUS_SESSION_BUS_ADDRESS': 'unix:path=/run/user/1000/bus', 'SSH_TTY': '/dev/pts/0', 'ROS_ROOT': '/opt/ros/noetic/share/ros', 'ROS_DISTRO': 'noetic', 'LC_NUMERIC': 'C.UTF-8', '_': '/opt/ros/noetic/bin/roslaunch', 'ROS_LOG_FILENAME': '/home/intechAGV/.ros/log/73302cc2-a74f-11ed-8a64-07309bb668ad/roslaunch-intechAGV-5850.log'}]
[roslaunch][INFO] 2023-02-08 09:20:08,679: process[baseController-1]: args[['/home/intechAGV/catkin_ws/devel/lib/agv1_base_controller/node_base_controller.py', '__name:=baseController']]
[roslaunch][INFO] 2023-02-08 09:20:08,680: ... created process [baseController-1]
[roslaunch.pmon][INFO] 2023-02-08 09:20:08,680: ProcessMonitor.register[baseController-1]
[roslaunch.pmon][INFO] 2023-02-08 09:20:08,680: ProcessMonitor.register[baseController-1] complete
[roslaunch][INFO] 2023-02-08 09:20:08,680: ... registered process [baseController-1]
[roslaunch][INFO] 2023-02-08 09:20:08,681: process[baseController-1]: starting os process
[roslaunch][INFO] 2023-02-08 09:20:08,681: process[baseController-1]: start w/ args [['/home/intechAGV/catkin_ws/devel/lib/agv1_base_controller/node_base_controller.py', '__name:=baseController', '__log:=/home/intechAGV/.ros/log/73302cc2-a74f-11ed-8a64-07309bb668ad/baseController-1.log']]
[roslaunch][INFO] 2023-02-08 09:20:08,681: process[baseController-1]: cwd will be [/home/intechAGV/.ros]
[roslaunch][INFO] 2023-02-08 09:20:08,691: process[baseController-1]: started with pid [5864]
[roslaunch][INFO] 2023-02-08 09:20:08,691: ... successfully launched [baseController-1]
[roslaunch][INFO] 2023-02-08 09:20:08,692: ... preparing to launch node of type [agv1_gpio/node_gpio.py]
[roslaunch][INFO] 2023-02-08 09:20:08,692: create_node_process: package[agv1_gpio] type[node_gpio.py] machine[Machine(name[] env_loader[None] address[localhost] ssh_port[22] user[None] assignable[True] timeout[10.0])] master_uri[http://localhost:11311]
[roslaunch][INFO] 2023-02-08 09:20:08,693: process[gpio-2]: env[{'SHELL': '/bin/bash', 'ROS_VERSION': '1', 'PKG_CONFIG_PATH': '/home/intechAGV/catkin_ws/devel/lib/pkgconfig:/opt/ros/noetic/lib/pkgconfig', 'ROS_PYTHON_VERSION': '3', 'LC_ADDRESS': 'C.UTF-8', 'LC_NAME': 'C.UTF-8', 'LC_MONETARY': 'C.UTF-8', 'ROS_PACKAGE_PATH': '/home/intech/catkin_ws/src:/home/intechAGV/catkin_ws/src:/opt/ros/noetic/share', 'ROSLISP_PACKAGE_DIRECTORIES': '/home/intechAGV/catkin_ws/devel/share/common-lisp', 'PWD': '/home/intechAGV', 'LOGNAME': 'intechAGV', 'XDG_SESSION_TYPE': 'tty', 'MOTD_SHOWN': 'pam', 'HOME': '/home/intechAGV', 'LANG': 'C.UTF-8', 'LC_PAPER': 'C.UTF-8', 'ROS_ETC_DIR': '/opt/ros/noetic/etc/ros', 'LS_COLORS': 'rs=0:di=01;34:ln=01;36:mh=00:pi=40;33:so=01;35:do=01;35:bd=40;33;01:cd=40;33;01:or=40;31;01:mi=00:su=37;41:sg=30;43:ca=30;41:tw=30;42:ow=34;42:st=37;44:ex=01;32:*.tar=01;31:*.tgz=01;31:*.arc=01;31:*.arj=01;31:*.taz=01;31:*.lha=01;31:*.lz4=01;31:*.lzh=01;31:*.lzma=01;31:*.tlz=01;31:*.txz=01;31:*.tzo=01;31:*.t7z=01;31:*.zip=01;31:*.z=01;31:*.dz=01;31:*.gz=01;31:*.lrz=01;31:*.lz=01;31:*.lzo=01;31:*.xz=01;31:*.zst=01;31:*.tzst=01;31:*.bz2=01;31:*.bz=01;31:*.tbz=01;31:*.tbz2=01;31:*.tz=01;31:*.deb=01;31:*.rpm=01;31:*.jar=01;31:*.war=01;31:*.ear=01;31:*.sar=01;31:*.rar=01;31:*.alz=01;31:*.ace=01;31:*.zoo=01;31:*.cpio=01;31:*.7z=01;31:*.rz=01;31:*.cab=01;31:*.wim=01;31:*.swm=01;31:*.dwm=01;31:*.esd=01;31:*.jpg=01;35:*.jpeg=01;35:*.mjpg=01;35:*.mjpeg=01;35:*.gif=01;35:*.bmp=01;35:*.pbm=01;35:*.pgm=01;35:*.ppm=01;35:*.tga=01;35:*.xbm=01;35:*.xpm=01;35:*.tif=01;35:*.tiff=01;35:*.png=01;35:*.svg=01;35:*.svgz=01;35:*.mng=01;35:*.pcx=01;35:*.mov=01;35:*.mpg=01;35:*.mpeg=01;35:*.m2v=01;35:*.mkv=01;35:*.webm=01;35:*.ogm=01;35:*.mp4=01;35:*.m4v=01;35:*.mp4v=01;35:*.vob=01;35:*.qt=01;35:*.nuv=01;35:*.wmv=01;35:*.asf=01;35:*.rm=01;35:*.rmvb=01;35:*.flc=01;35:*.avi=01;35:*.fli=01;35:*.flv=01;35:*.gl=01;35:*.dl=01;35:*.xcf=01;35:*.xwd=01;35:*.yuv=01;35:*.cgm=01;35:*.emf=01;35:*.ogv=01;35:*.ogx=01;35:*.aac=00;36:*.au=00;36:*.flac=00;36:*.m4a=00;36:*.mid=00;36:*.midi=00;36:*.mka=00;36:*.mp3=00;36:*.mpc=00;36:*.ogg=00;36:*.ra=00;36:*.wav=00;36:*.oga=00;36:*.opus=00;36:*.spx=00;36:*.xspf=00;36:', 'CMAKE_PREFIX_PATH': '/home/intechAGV/catkin_ws/devel:/opt/ros/noetic', 'SSH_CONNECTION': '192.168.0.117 53332 192.168.0.120 22', 'LESSCLOSE': '/usr/bin/lesspipe %s %s', 'XDG_SESSION_CLASS': 'user', 'PYTHONPATH': '/home/intechAGV/catkin_ws/devel/lib/python3/dist-packages:/opt/ros/noetic/lib/python3/dist-packages', 'TERM': 'xterm-256color', 'LC_IDENTIFICATION': 'C.UTF-8', 'LESSOPEN': '| /usr/bin/lesspipe %s', 'USER': 'intechAGV', 'SHLVL': '1', 'LC_TELEPHONE': 'C.UTF-8', 'ROS_MASTER_URI': 'http://localhost:11311', 'LC_MEASUREMENT': 'C.UTF-8', 'XDG_SESSION_ID': '4', 'LD_LIBRARY_PATH': '/home/intechAGV/catkin_ws/devel/lib:/opt/ros/noetic/lib', 'XDG_RUNTIME_DIR': '/run/user/1000', 'SSH_CLIENT': '192.168.0.117 53332 22', 'LC_TIME': 'C.UTF-8', 'XDG_DATA_DIRS': '/usr/local/share:/usr/share:/var/lib/snapd/desktop', 'PATH': '/home/intechAGV/.local/bin:/opt/ros/noetic/bin:/usr/local/sbin:/usr/local/bin:/usr/sbin:/usr/bin:/sbin:/bin:/usr/games:/usr/local/games:/snap/bin', 'DBUS_SESSION_BUS_ADDRESS': 'unix:path=/run/user/1000/bus', 'SSH_TTY': '/dev/pts/0', 'ROS_ROOT': '/opt/ros/noetic/share/ros', 'ROS_DISTRO': 'noetic', 'LC_NUMERIC': 'C.UTF-8', '_': '/opt/ros/noetic/bin/roslaunch', 'ROS_LOG_FILENAME': '/home/intechAGV/.ros/log/73302cc2-a74f-11ed-8a64-07309bb668ad/roslaunch-intechAGV-5850.log'}]
[roslaunch][INFO] 2023-02-08 09:20:08,696: process[gpio-2]: args[['/home/intechAGV/catkin_ws/devel/lib/agv1_gpio/node_gpio.py', '__name:=gpio']]
[roslaunch][INFO] 2023-02-08 09:20:08,697: ... created process [gpio-2]
[roslaunch.pmon][INFO] 2023-02-08 09:20:08,697: ProcessMonitor.register[gpio-2]
[roslaunch.pmon][INFO] 2023-02-08 09:20:08,697: ProcessMonitor.register[gpio-2] complete
[roslaunch][INFO] 2023-02-08 09:20:08,697: ... registered process [gpio-2]
[roslaunch][INFO] 2023-02-08 09:20:08,698: process[gpio-2]: starting os process
[roslaunch][INFO] 2023-02-08 09:20:08,698: process[gpio-2]: start w/ args [['/home/intechAGV/catkin_ws/devel/lib/agv1_gpio/node_gpio.py', '__name:=gpio', '__log:=/home/intechAGV/.ros/log/73302cc2-a74f-11ed-8a64-07309bb668ad/gpio-2.log']]
[roslaunch][INFO] 2023-02-08 09:20:08,698: process[gpio-2]: cwd will be [/home/intechAGV/.ros]
[roslaunch][INFO] 2023-02-08 09:20:08,709: process[gpio-2]: started with pid [5865]
[roslaunch][INFO] 2023-02-08 09:20:08,709: ... successfully launched [gpio-2]
[roslaunch][INFO] 2023-02-08 09:20:08,710: ... preparing to launch node of type [agv1_followline/node_followline.py]
[roslaunch][INFO] 2023-02-08 09:20:08,710: create_node_process: package[agv1_followline] type[node_followline.py] machine[Machine(name[] env_loader[None] address[localhost] ssh_port[22] user[None] assignable[True] timeout[10.0])] master_uri[http://localhost:11311]
[roslaunch][INFO] 2023-02-08 09:20:08,711: process[followline-3]: env[{'SHELL': '/bin/bash', 'ROS_VERSION': '1', 'PKG_CONFIG_PATH': '/home/intechAGV/catkin_ws/devel/lib/pkgconfig:/opt/ros/noetic/lib/pkgconfig', 'ROS_PYTHON_VERSION': '3', 'LC_ADDRESS': 'C.UTF-8', 'LC_NAME': 'C.UTF-8', 'LC_MONETARY': 'C.UTF-8', 'ROS_PACKAGE_PATH': '/home/intech/catkin_ws/src:/home/intechAGV/catkin_ws/src:/opt/ros/noetic/share', 'ROSLISP_PACKAGE_DIRECTORIES': '/home/intechAGV/catkin_ws/devel/share/common-lisp', 'PWD': '/home/intechAGV', 'LOGNAME': 'intechAGV', 'XDG_SESSION_TYPE': 'tty', 'MOTD_SHOWN': 'pam', 'HOME': '/home/intechAGV', 'LANG': 'C.UTF-8', 'LC_PAPER': 'C.UTF-8', 'ROS_ETC_DIR': '/opt/ros/noetic/etc/ros', 'LS_COLORS': 'rs=0:di=01;34:ln=01;36:mh=00:pi=40;33:so=01;35:do=01;35:bd=40;33;01:cd=40;33;01:or=40;31;01:mi=00:su=37;41:sg=30;43:ca=30;41:tw=30;42:ow=34;42:st=37;44:ex=01;32:*.tar=01;31:*.tgz=01;31:*.arc=01;31:*.arj=01;31:*.taz=01;31:*.lha=01;31:*.lz4=01;31:*.lzh=01;31:*.lzma=01;31:*.tlz=01;31:*.txz=01;31:*.tzo=01;31:*.t7z=01;31:*.zip=01;31:*.z=01;31:*.dz=01;31:*.gz=01;31:*.lrz=01;31:*.lz=01;31:*.lzo=01;31:*.xz=01;31:*.zst=01;31:*.tzst=01;31:*.bz2=01;31:*.bz=01;31:*.tbz=01;31:*.tbz2=01;31:*.tz=01;31:*.deb=01;31:*.rpm=01;31:*.jar=01;31:*.war=01;31:*.ear=01;31:*.sar=01;31:*.rar=01;31:*.alz=01;31:*.ace=01;31:*.zoo=01;31:*.cpio=01;31:*.7z=01;31:*.rz=01;31:*.cab=01;31:*.wim=01;31:*.swm=01;31:*.dwm=01;31:*.esd=01;31:*.jpg=01;35:*.jpeg=01;35:*.mjpg=01;35:*.mjpeg=01;35:*.gif=01;35:*.bmp=01;35:*.pbm=01;35:*.pgm=01;35:*.ppm=01;35:*.tga=01;35:*.xbm=01;35:*.xpm=01;35:*.tif=01;35:*.tiff=01;35:*.png=01;35:*.svg=01;35:*.svgz=01;35:*.mng=01;35:*.pcx=01;35:*.mov=01;35:*.mpg=01;35:*.mpeg=01;35:*.m2v=01;35:*.mkv=01;35:*.webm=01;35:*.ogm=01;35:*.mp4=01;35:*.m4v=01;35:*.mp4v=01;35:*.vob=01;35:*.qt=01;35:*.nuv=01;35:*.wmv=01;35:*.asf=01;35:*.rm=01;35:*.rmvb=01;35:*.flc=01;35:*.avi=01;35:*.fli=01;35:*.flv=01;35:*.gl=01;35:*.dl=01;35:*.xcf=01;35:*.xwd=01;35:*.yuv=01;35:*.cgm=01;35:*.emf=01;35:*.ogv=01;35:*.ogx=01;35:*.aac=00;36:*.au=00;36:*.flac=00;36:*.m4a=00;36:*.mid=00;36:*.midi=00;36:*.mka=00;36:*.mp3=00;36:*.mpc=00;36:*.ogg=00;36:*.ra=00;36:*.wav=00;36:*.oga=00;36:*.opus=00;36:*.spx=00;36:*.xspf=00;36:', 'CMAKE_PREFIX_PATH': '/home/intechAGV/catkin_ws/devel:/opt/ros/noetic', 'SSH_CONNECTION': '192.168.0.117 53332 192.168.0.120 22', 'LESSCLOSE': '/usr/bin/lesspipe %s %s', 'XDG_SESSION_CLASS': 'user', 'PYTHONPATH': '/home/intechAGV/catkin_ws/devel/lib/python3/dist-packages:/opt/ros/noetic/lib/python3/dist-packages', 'TERM': 'xterm-256color', 'LC_IDENTIFICATION': 'C.UTF-8', 'LESSOPEN': '| /usr/bin/lesspipe %s', 'USER': 'intechAGV', 'SHLVL': '1', 'LC_TELEPHONE': 'C.UTF-8', 'ROS_MASTER_URI': 'http://localhost:11311', 'LC_MEASUREMENT': 'C.UTF-8', 'XDG_SESSION_ID': '4', 'LD_LIBRARY_PATH': '/home/intechAGV/catkin_ws/devel/lib:/opt/ros/noetic/lib', 'XDG_RUNTIME_DIR': '/run/user/1000', 'SSH_CLIENT': '192.168.0.117 53332 22', 'LC_TIME': 'C.UTF-8', 'XDG_DATA_DIRS': '/usr/local/share:/usr/share:/var/lib/snapd/desktop', 'PATH': '/home/intechAGV/.local/bin:/opt/ros/noetic/bin:/usr/local/sbin:/usr/local/bin:/usr/sbin:/usr/bin:/sbin:/bin:/usr/games:/usr/local/games:/snap/bin', 'DBUS_SESSION_BUS_ADDRESS': 'unix:path=/run/user/1000/bus', 'SSH_TTY': '/dev/pts/0', 'ROS_ROOT': '/opt/ros/noetic/share/ros', 'ROS_DISTRO': 'noetic', 'LC_NUMERIC': 'C.UTF-8', '_': '/opt/ros/noetic/bin/roslaunch', 'ROS_LOG_FILENAME': '/home/intechAGV/.ros/log/73302cc2-a74f-11ed-8a64-07309bb668ad/roslaunch-intechAGV-5850.log'}]
[roslaunch][INFO] 2023-02-08 09:20:08,715: process[followline-3]: args[['/home/intechAGV/catkin_ws/devel/lib/agv1_followline/node_followline.py', '__name:=followline']]
[roslaunch][INFO] 2023-02-08 09:20:08,715: ... created process [followline-3]
[roslaunch.pmon][INFO] 2023-02-08 09:20:08,716: ProcessMonitor.register[followline-3]
[roslaunch.pmon][INFO] 2023-02-08 09:20:08,716: ProcessMonitor.register[followline-3] complete
[roslaunch][INFO] 2023-02-08 09:20:08,716: ... registered process [followline-3]
[roslaunch][INFO] 2023-02-08 09:20:08,717: process[followline-3]: starting os process
[roslaunch][INFO] 2023-02-08 09:20:08,717: process[followline-3]: start w/ args [['/home/intechAGV/catkin_ws/devel/lib/agv1_followline/node_followline.py', '__name:=followline', '__log:=/home/intechAGV/.ros/log/73302cc2-a74f-11ed-8a64-07309bb668ad/followline-3.log']]
[roslaunch][INFO] 2023-02-08 09:20:08,718: process[followline-3]: cwd will be [/home/intechAGV/.ros]
[roslaunch][INFO] 2023-02-08 09:20:08,730: process[followline-3]: started with pid [5866]
[roslaunch][INFO] 2023-02-08 09:20:08,731: ... successfully launched [followline-3]
[roslaunch][INFO] 2023-02-08 09:20:08,731: ... preparing to launch node of type [agv1_rfid/node_readRFID.py]
[roslaunch][INFO] 2023-02-08 09:20:08,732: create_node_process: package[agv1_rfid] type[node_readRFID.py] machine[Machine(name[] env_loader[None] address[localhost] ssh_port[22] user[None] assignable[True] timeout[10.0])] master_uri[http://localhost:11311]
[roslaunch][INFO] 2023-02-08 09:20:08,733: process[RFID-4]: env[{'SHELL': '/bin/bash', 'ROS_VERSION': '1', 'PKG_CONFIG_PATH': '/home/intechAGV/catkin_ws/devel/lib/pkgconfig:/opt/ros/noetic/lib/pkgconfig', 'ROS_PYTHON_VERSION': '3', 'LC_ADDRESS': 'C.UTF-8', 'LC_NAME': 'C.UTF-8', 'LC_MONETARY': 'C.UTF-8', 'ROS_PACKAGE_PATH': '/home/intech/catkin_ws/src:/home/intechAGV/catkin_ws/src:/opt/ros/noetic/share', 'ROSLISP_PACKAGE_DIRECTORIES': '/home/intechAGV/catkin_ws/devel/share/common-lisp', 'PWD': '/home/intechAGV', 'LOGNAME': 'intechAGV', 'XDG_SESSION_TYPE': 'tty', 'MOTD_SHOWN': 'pam', 'HOME': '/home/intechAGV', 'LANG': 'C.UTF-8', 'LC_PAPER': 'C.UTF-8', 'ROS_ETC_DIR': '/opt/ros/noetic/etc/ros', 'LS_COLORS': 'rs=0:di=01;34:ln=01;36:mh=00:pi=40;33:so=01;35:do=01;35:bd=40;33;01:cd=40;33;01:or=40;31;01:mi=00:su=37;41:sg=30;43:ca=30;41:tw=30;42:ow=34;42:st=37;44:ex=01;32:*.tar=01;31:*.tgz=01;31:*.arc=01;31:*.arj=01;31:*.taz=01;31:*.lha=01;31:*.lz4=01;31:*.lzh=01;31:*.lzma=01;31:*.tlz=01;31:*.txz=01;31:*.tzo=01;31:*.t7z=01;31:*.zip=01;31:*.z=01;31:*.dz=01;31:*.gz=01;31:*.lrz=01;31:*.lz=01;31:*.lzo=01;31:*.xz=01;31:*.zst=01;31:*.tzst=01;31:*.bz2=01;31:*.bz=01;31:*.tbz=01;31:*.tbz2=01;31:*.tz=01;31:*.deb=01;31:*.rpm=01;31:*.jar=01;31:*.war=01;31:*.ear=01;31:*.sar=01;31:*.rar=01;31:*.alz=01;31:*.ace=01;31:*.zoo=01;31:*.cpio=01;31:*.7z=01;31:*.rz=01;31:*.cab=01;31:*.wim=01;31:*.swm=01;31:*.dwm=01;31:*.esd=01;31:*.jpg=01;35:*.jpeg=01;35:*.mjpg=01;35:*.mjpeg=01;35:*.gif=01;35:*.bmp=01;35:*.pbm=01;35:*.pgm=01;35:*.ppm=01;35:*.tga=01;35:*.xbm=01;35:*.xpm=01;35:*.tif=01;35:*.tiff=01;35:*.png=01;35:*.svg=01;35:*.svgz=01;35:*.mng=01;35:*.pcx=01;35:*.mov=01;35:*.mpg=01;35:*.mpeg=01;35:*.m2v=01;35:*.mkv=01;35:*.webm=01;35:*.ogm=01;35:*.mp4=01;35:*.m4v=01;35:*.mp4v=01;35:*.vob=01;35:*.qt=01;35:*.nuv=01;35:*.wmv=01;35:*.asf=01;35:*.rm=01;35:*.rmvb=01;35:*.flc=01;35:*.avi=01;35:*.fli=01;35:*.flv=01;35:*.gl=01;35:*.dl=01;35:*.xcf=01;35:*.xwd=01;35:*.yuv=01;35:*.cgm=01;35:*.emf=01;35:*.ogv=01;35:*.ogx=01;35:*.aac=00;36:*.au=00;36:*.flac=00;36:*.m4a=00;36:*.mid=00;36:*.midi=00;36:*.mka=00;36:*.mp3=00;36:*.mpc=00;36:*.ogg=00;36:*.ra=00;36:*.wav=00;36:*.oga=00;36:*.opus=00;36:*.spx=00;36:*.xspf=00;36:', 'CMAKE_PREFIX_PATH': '/home/intechAGV/catkin_ws/devel:/opt/ros/noetic', 'SSH_CONNECTION': '192.168.0.117 53332 192.168.0.120 22', 'LESSCLOSE': '/usr/bin/lesspipe %s %s', 'XDG_SESSION_CLASS': 'user', 'PYTHONPATH': '/home/intechAGV/catkin_ws/devel/lib/python3/dist-packages:/opt/ros/noetic/lib/python3/dist-packages', 'TERM': 'xterm-256color', 'LC_IDENTIFICATION': 'C.UTF-8', 'LESSOPEN': '| /usr/bin/lesspipe %s', 'USER': 'intechAGV', 'SHLVL': '1', 'LC_TELEPHONE': 'C.UTF-8', 'ROS_MASTER_URI': 'http://localhost:11311', 'LC_MEASUREMENT': 'C.UTF-8', 'XDG_SESSION_ID': '4', 'LD_LIBRARY_PATH': '/home/intechAGV/catkin_ws/devel/lib:/opt/ros/noetic/lib', 'XDG_RUNTIME_DIR': '/run/user/1000', 'SSH_CLIENT': '192.168.0.117 53332 22', 'LC_TIME': 'C.UTF-8', 'XDG_DATA_DIRS': '/usr/local/share:/usr/share:/var/lib/snapd/desktop', 'PATH': '/home/intechAGV/.local/bin:/opt/ros/noetic/bin:/usr/local/sbin:/usr/local/bin:/usr/sbin:/usr/bin:/sbin:/bin:/usr/games:/usr/local/games:/snap/bin', 'DBUS_SESSION_BUS_ADDRESS': 'unix:path=/run/user/1000/bus', 'SSH_TTY': '/dev/pts/0', 'ROS_ROOT': '/opt/ros/noetic/share/ros', 'ROS_DISTRO': 'noetic', 'LC_NUMERIC': 'C.UTF-8', '_': '/opt/ros/noetic/bin/roslaunch', 'ROS_LOG_FILENAME': '/home/intechAGV/.ros/log/73302cc2-a74f-11ed-8a64-07309bb668ad/roslaunch-intechAGV-5850.log'}]
[roslaunch][INFO] 2023-02-08 09:20:08,737: process[RFID-4]: args[['/home/intechAGV/catkin_ws/devel/lib/agv1_rfid/node_readRFID.py', '__name:=RFID']]
[roslaunch][INFO] 2023-02-08 09:20:08,738: ... created process [RFID-4]
[roslaunch.pmon][INFO] 2023-02-08 09:20:08,739: ProcessMonitor.register[RFID-4]
[roslaunch.pmon][INFO] 2023-02-08 09:20:08,740: ProcessMonitor.register[RFID-4] complete
[roslaunch][INFO] 2023-02-08 09:20:08,741: ... registered process [RFID-4]
[roslaunch][INFO] 2023-02-08 09:20:08,741: process[RFID-4]: starting os process
[roslaunch][INFO] 2023-02-08 09:20:08,743: process[RFID-4]: start w/ args [['/home/intechAGV/catkin_ws/devel/lib/agv1_rfid/node_readRFID.py', '__name:=RFID', '__log:=/home/intechAGV/.ros/log/73302cc2-a74f-11ed-8a64-07309bb668ad/RFID-4.log']]
[roslaunch][INFO] 2023-02-08 09:20:08,744: process[RFID-4]: cwd will be [/home/intechAGV/.ros]
[roslaunch][INFO] 2023-02-08 09:20:08,758: process[RFID-4]: started with pid [5867]
[roslaunch][INFO] 2023-02-08 09:20:08,760: ... successfully launched [RFID-4]
[roslaunch][INFO] 2023-02-08 09:20:08,761: ... preparing to launch node of type [agv1_xbee/node_xbee.py]
[roslaunch][INFO] 2023-02-08 09:20:08,762: create_node_process: package[agv1_xbee] type[node_xbee.py] machine[Machine(name[] env_loader[None] address[localhost] ssh_port[22] user[None] assignable[True] timeout[10.0])] master_uri[http://localhost:11311]
[roslaunch][INFO] 2023-02-08 09:20:08,762: process[xbee-5]: env[{'SHELL': '/bin/bash', 'ROS_VERSION': '1', 'PKG_CONFIG_PATH': '/home/intechAGV/catkin_ws/devel/lib/pkgconfig:/opt/ros/noetic/lib/pkgconfig', 'ROS_PYTHON_VERSION': '3', 'LC_ADDRESS': 'C.UTF-8', 'LC_NAME': 'C.UTF-8', 'LC_MONETARY': 'C.UTF-8', 'ROS_PACKAGE_PATH': '/home/intech/catkin_ws/src:/home/intechAGV/catkin_ws/src:/opt/ros/noetic/share', 'ROSLISP_PACKAGE_DIRECTORIES': '/home/intechAGV/catkin_ws/devel/share/common-lisp', 'PWD': '/home/intechAGV', 'LOGNAME': 'intechAGV', 'XDG_SESSION_TYPE': 'tty', 'MOTD_SHOWN': 'pam', 'HOME': '/home/intechAGV', 'LANG': 'C.UTF-8', 'LC_PAPER': 'C.UTF-8', 'ROS_ETC_DIR': '/opt/ros/noetic/etc/ros', 'LS_COLORS': 'rs=0:di=01;34:ln=01;36:mh=00:pi=40;33:so=01;35:do=01;35:bd=40;33;01:cd=40;33;01:or=40;31;01:mi=00:su=37;41:sg=30;43:ca=30;41:tw=30;42:ow=34;42:st=37;44:ex=01;32:*.tar=01;31:*.tgz=01;31:*.arc=01;31:*.arj=01;31:*.taz=01;31:*.lha=01;31:*.lz4=01;31:*.lzh=01;31:*.lzma=01;31:*.tlz=01;31:*.txz=01;31:*.tzo=01;31:*.t7z=01;31:*.zip=01;31:*.z=01;31:*.dz=01;31:*.gz=01;31:*.lrz=01;31:*.lz=01;31:*.lzo=01;31:*.xz=01;31:*.zst=01;31:*.tzst=01;31:*.bz2=01;31:*.bz=01;31:*.tbz=01;31:*.tbz2=01;31:*.tz=01;31:*.deb=01;31:*.rpm=01;31:*.jar=01;31:*.war=01;31:*.ear=01;31:*.sar=01;31:*.rar=01;31:*.alz=01;31:*.ace=01;31:*.zoo=01;31:*.cpio=01;31:*.7z=01;31:*.rz=01;31:*.cab=01;31:*.wim=01;31:*.swm=01;31:*.dwm=01;31:*.esd=01;31:*.jpg=01;35:*.jpeg=01;35:*.mjpg=01;35:*.mjpeg=01;35:*.gif=01;35:*.bmp=01;35:*.pbm=01;35:*.pgm=01;35:*.ppm=01;35:*.tga=01;35:*.xbm=01;35:*.xpm=01;35:*.tif=01;35:*.tiff=01;35:*.png=01;35:*.svg=01;35:*.svgz=01;35:*.mng=01;35:*.pcx=01;35:*.mov=01;35:*.mpg=01;35:*.mpeg=01;35:*.m2v=01;35:*.mkv=01;35:*.webm=01;35:*.ogm=01;35:*.mp4=01;35:*.m4v=01;35:*.mp4v=01;35:*.vob=01;35:*.qt=01;35:*.nuv=01;35:*.wmv=01;35:*.asf=01;35:*.rm=01;35:*.rmvb=01;35:*.flc=01;35:*.avi=01;35:*.fli=01;35:*.flv=01;35:*.gl=01;35:*.dl=01;35:*.xcf=01;35:*.xwd=01;35:*.yuv=01;35:*.cgm=01;35:*.emf=01;35:*.ogv=01;35:*.ogx=01;35:*.aac=00;36:*.au=00;36:*.flac=00;36:*.m4a=00;36:*.mid=00;36:*.midi=00;36:*.mka=00;36:*.mp3=00;36:*.mpc=00;36:*.ogg=00;36:*.ra=00;36:*.wav=00;36:*.oga=00;36:*.opus=00;36:*.spx=00;36:*.xspf=00;36:', 'CMAKE_PREFIX_PATH': '/home/intechAGV/catkin_ws/devel:/opt/ros/noetic', 'SSH_CONNECTION': '192.168.0.117 53332 192.168.0.120 22', 'LESSCLOSE': '/usr/bin/lesspipe %s %s', 'XDG_SESSION_CLASS': 'user', 'PYTHONPATH': '/home/intechAGV/catkin_ws/devel/lib/python3/dist-packages:/opt/ros/noetic/lib/python3/dist-packages', 'TERM': 'xterm-256color', 'LC_IDENTIFICATION': 'C.UTF-8', 'LESSOPEN': '| /usr/bin/lesspipe %s', 'USER': 'intechAGV', 'SHLVL': '1', 'LC_TELEPHONE': 'C.UTF-8', 'ROS_MASTER_URI': 'http://localhost:11311', 'LC_MEASUREMENT': 'C.UTF-8', 'XDG_SESSION_ID': '4', 'LD_LIBRARY_PATH': '/home/intechAGV/catkin_ws/devel/lib:/opt/ros/noetic/lib', 'XDG_RUNTIME_DIR': '/run/user/1000', 'SSH_CLIENT': '192.168.0.117 53332 22', 'LC_TIME': 'C.UTF-8', 'XDG_DATA_DIRS': '/usr/local/share:/usr/share:/var/lib/snapd/desktop', 'PATH': '/home/intechAGV/.local/bin:/opt/ros/noetic/bin:/usr/local/sbin:/usr/local/bin:/usr/sbin:/usr/bin:/sbin:/bin:/usr/games:/usr/local/games:/snap/bin', 'DBUS_SESSION_BUS_ADDRESS': 'unix:path=/run/user/1000/bus', 'SSH_TTY': '/dev/pts/0', 'ROS_ROOT': '/opt/ros/noetic/share/ros', 'ROS_DISTRO': 'noetic', 'LC_NUMERIC': 'C.UTF-8', '_': '/opt/ros/noetic/bin/roslaunch', 'ROS_LOG_FILENAME': '/home/intechAGV/.ros/log/73302cc2-a74f-11ed-8a64-07309bb668ad/roslaunch-intechAGV-5850.log'}]
[roslaunch][INFO] 2023-02-08 09:20:08,766: process[xbee-5]: args[['/home/intechAGV/catkin_ws/devel/lib/agv1_xbee/node_xbee.py', '__name:=xbee']]
[roslaunch][INFO] 2023-02-08 09:20:08,777: ... created process [xbee-5]
[roslaunch.pmon][INFO] 2023-02-08 09:20:08,778: ProcessMonitor.register[xbee-5]
[roslaunch.pmon][INFO] 2023-02-08 09:20:08,778: ProcessMonitor.register[xbee-5] complete
[roslaunch][INFO] 2023-02-08 09:20:08,779: ... registered process [xbee-5]
[roslaunch][INFO] 2023-02-08 09:20:08,779: process[xbee-5]: starting os process
[roslaunch][INFO] 2023-02-08 09:20:08,781: process[xbee-5]: start w/ args [['/home/intechAGV/catkin_ws/devel/lib/agv1_xbee/node_xbee.py', '__name:=xbee', '__log:=/home/intechAGV/.ros/log/73302cc2-a74f-11ed-8a64-07309bb668ad/xbee-5.log']]
[roslaunch][INFO] 2023-02-08 09:20:08,783: process[xbee-5]: cwd will be [/home/intechAGV/.ros]
[roslaunch][INFO] 2023-02-08 09:20:08,822: process[xbee-5]: started with pid [5868]
[roslaunch][INFO] 2023-02-08 09:20:08,823: ... successfully launched [xbee-5]
[roslaunch][INFO] 2023-02-08 09:20:08,823: ... launch_nodes complete
[roslaunch.pmon][INFO] 2023-02-08 09:20:08,824: registrations completed <ProcessMonitor(ProcessMonitor-1, started daemon 281472773657056)>
[roslaunch.parent][INFO] 2023-02-08 09:20:08,824: ... roslaunch parent running, waiting for process exit
[roslaunch][INFO] 2023-02-08 09:20:08,826: spin
[roslaunch][ERROR] 2023-02-08 09:20:24,099: [xbee-5] process has died [pid 5868, exit code 1, cmd /home/intechAGV/catkin_ws/devel/lib/agv1_xbee/node_xbee.py __name:=xbee __log:=/home/intechAGV/.ros/log/73302cc2-a74f-11ed-8a64-07309bb668ad/xbee-5.log].
log file: /home/intechAGV/.ros/log/73302cc2-a74f-11ed-8a64-07309bb668ad/xbee-5*.log
[roslaunch.pmon][INFO] 2023-02-08 09:20:24,100: ProcessMonitor.unregister[xbee-5] starting
[roslaunch.pmon][INFO] 2023-02-08 09:20:24,100: ProcessMonitor.unregister[xbee-5] complete
[roslaunch.pmon][INFO] 2023-02-08 09:20:26,707: ProcessMonitor.shutdown <ProcessMonitor(ProcessMonitor-1, started daemon 281472773657056)>
[roslaunch.pmon][INFO] 2023-02-08 09:20:26,713: ProcessMonitor._post_run <ProcessMonitor(ProcessMonitor-1, started daemon 281472773657056)>
[roslaunch.pmon][INFO] 2023-02-08 09:20:26,714: ProcessMonitor._post_run <ProcessMonitor(ProcessMonitor-1, started daemon 281472773657056)>: remaining procs are [<roslaunch.nodeprocess.LocalProcess object at 0xffff7cb969d0>, <roslaunch.nodeprocess.LocalProcess object at 0xffff7cb96b80>, <roslaunch.nodeprocess.LocalProcess object at 0xffff7cb96bb0>, <roslaunch.nodeprocess.LocalProcess object at 0xffff7cb96b50>]
[roslaunch.pmon][INFO] 2023-02-08 09:20:26,715: ProcessMonitor exit: killing RFID-4
[roslaunch.pmon][INFO] 2023-02-08 09:20:26,716: ProcessMonitor exit: killing followline-3
[roslaunch][INFO] 2023-02-08 09:20:26,716: [RFID-4] killing on exit
[roslaunch.pmon][INFO] 2023-02-08 09:20:26,717: ProcessMonitor exit: killing gpio-2
[roslaunch][INFO] 2023-02-08 09:20:26,717: [followline-3] killing on exit
[roslaunch.pmon][INFO] 2023-02-08 09:20:26,718: ProcessMonitor exit: killing baseController-1
[roslaunch][INFO] 2023-02-08 09:20:26,719: process[RFID-4]: killing os process with pid[5867] pgid[5867]
[roslaunch][INFO] 2023-02-08 09:20:26,720: [gpio-2] killing on exit
[roslaunch][INFO] 2023-02-08 09:20:26,722: process[followline-3]: killing os process with pid[5866] pgid[5866]
[roslaunch][INFO] 2023-02-08 09:20:26,722: [baseController-1] killing on exit
[roslaunch][INFO] 2023-02-08 09:20:26,723: [RFID-4] sending SIGINT to pgid [5867]
[roslaunch][INFO] 2023-02-08 09:20:26,724: process[gpio-2]: killing os process with pid[5865] pgid[5865]
[roslaunch][INFO] 2023-02-08 09:20:26,724: [followline-3] sending SIGINT to pgid [5866]
[roslaunch][INFO] 2023-02-08 09:20:26,725: process[baseController-1]: killing os process with pid[5864] pgid[5864]
[roslaunch][INFO] 2023-02-08 09:20:26,725: [RFID-4] sent SIGINT to pgid [5867]
[roslaunch][INFO] 2023-02-08 09:20:26,726: [gpio-2] sending SIGINT to pgid [5865]
[roslaunch][INFO] 2023-02-08 09:20:26,726: [followline-3] sent SIGINT to pgid [5866]
[roslaunch][INFO] 2023-02-08 09:20:26,727: [baseController-1] sending SIGINT to pgid [5864]
[roslaunch][INFO] 2023-02-08 09:20:26,727: [gpio-2] sent SIGINT to pgid [5865]
[roslaunch][INFO] 2023-02-08 09:20:26,728: [baseController-1] sent SIGINT to pgid [5864]
[roslaunch][INFO] 2023-02-08 09:20:27,533: process[gpio-2]: SIGINT killed with return value 0
[roslaunch][INFO] 2023-02-08 09:20:27,733: process[baseController-1]: SIGINT killed with return value 0
[roslaunch][INFO] 2023-02-08 09:20:28,531: process[RFID-4]: SIGINT killed with return value 0
[roslaunch][INFO] 2023-02-08 09:20:29,633: process[followline-3]: SIGINT killed with return value 0
[roslaunch.pmon][INFO] 2023-02-08 09:20:29,634: ProcessMonitor exit: cleaning up data structures and signals
[roslaunch.pmon][INFO] 2023-02-08 09:20:29,635: ProcessMonitor exit: pmon has shutdown
[roslaunch][INFO] 2023-02-08 09:20:29,635: process monitor is done spinning, initiating full shutdown
[roslaunch][INFO] 2023-02-08 09:20:29,636: runner.stop()
[roslaunch][INFO] 2023-02-08 09:20:29,636: shutting down processing monitor...
[roslaunch][INFO] 2023-02-08 09:20:29,637: shutting down processing monitor <ProcessMonitor(ProcessMonitor-1, stopped daemon 281472773657056)>
[roslaunch.pmon][INFO] 2023-02-08 09:20:29,637: ProcessMonitor.shutdown <ProcessMonitor(ProcessMonitor-1, stopped daemon 281472773657056)>
[roslaunch][INFO] 2023-02-08 09:20:29,637: ... shutting down processing monitor complete
[roslaunch][INFO] 2023-02-08 09:20:29,638: done
[roslaunch.pmon][INFO] 2023-02-08 09:20:29,638: ProcessMonitor.shutdown <ProcessMonitor(ProcessMonitor-1, stopped daemon 281472773657056)>
[rospy.core][INFO] 2023-02-08 09:20:29,639: signal_shutdown [atexit]
