[roslaunch][INFO] 2023-02-17 15:37:55,996: Checking log directory for disk usage. This may take a while.
Press Ctrl-C to interrupt
[roslaunch][INFO] 2023-02-17 15:37:56,118: Done checking log file disk usage. Usage is <1GB.
[roslaunch][INFO] 2023-02-17 15:37:56,119: roslaunch starting with args ['roscore', '--core']
[roslaunch][INFO] 2023-02-17 15:37:56,119: roslaunch env is environ({'SHELL': '/bin/bash', 'ROS_VERSION': '1', 'PKG_CONFIG_PATH': '/home/intechAGV/catkin_ws/devel/lib/pkgconfig:/opt/ros/noetic/lib/pkgconfig', 'ROS_PYTHON_VERSION': '3', 'LC_ADDRESS': 'C.UTF-8', 'LC_NAME': 'C.UTF-8', 'LC_MONETARY': 'C.UTF-8', 'ROS_PACKAGE_PATH': '/home/intech/catkin_ws/src:/home/intechAGV/catkin_ws/src:/opt/ros/noetic/share', 'ROSLISP_PACKAGE_DIRECTORIES': '/home/intechAGV/catkin_ws/devel/share/common-lisp', 'PWD': '/home/intechAGV', 'LOGNAME': 'intechAGV', 'XDG_SESSION_TYPE': 'tty', 'MOTD_SHOWN': 'pam', 'HOME': '/home/intechAGV', 'LANG': 'C.UTF-8', 'LC_PAPER': 'C.UTF-8', 'ROS_ETC_DIR': '/opt/ros/noetic/etc/ros', 'LS_COLORS': 'rs=0:di=01;34:ln=01;36:mh=00:pi=40;33:so=01;35:do=01;35:bd=40;33;01:cd=40;33;01:or=40;31;01:mi=00:su=37;41:sg=30;43:ca=30;41:tw=30;42:ow=34;42:st=37;44:ex=01;32:*.tar=01;31:*.tgz=01;31:*.arc=01;31:*.arj=01;31:*.taz=01;31:*.lha=01;31:*.lz4=01;31:*.lzh=01;31:*.lzma=01;31:*.tlz=01;31:*.txz=01;31:*.tzo=01;31:*.t7z=01;31:*.zip=01;31:*.z=01;31:*.dz=01;31:*.gz=01;31:*.lrz=01;31:*.lz=01;31:*.lzo=01;31:*.xz=01;31:*.zst=01;31:*.tzst=01;31:*.bz2=01;31:*.bz=01;31:*.tbz=01;31:*.tbz2=01;31:*.tz=01;31:*.deb=01;31:*.rpm=01;31:*.jar=01;31:*.war=01;31:*.ear=01;31:*.sar=01;31:*.rar=01;31:*.alz=01;31:*.ace=01;31:*.zoo=01;31:*.cpio=01;31:*.7z=01;31:*.rz=01;31:*.cab=01;31:*.wim=01;31:*.swm=01;31:*.dwm=01;31:*.esd=01;31:*.jpg=01;35:*.jpeg=01;35:*.mjpg=01;35:*.mjpeg=01;35:*.gif=01;35:*.bmp=01;35:*.pbm=01;35:*.pgm=01;35:*.ppm=01;35:*.tga=01;35:*.xbm=01;35:*.xpm=01;35:*.tif=01;35:*.tiff=01;35:*.png=01;35:*.svg=01;35:*.svgz=01;35:*.mng=01;35:*.pcx=01;35:*.mov=01;35:*.mpg=01;35:*.mpeg=01;35:*.m2v=01;35:*.mkv=01;35:*.webm=01;35:*.ogm=01;35:*.mp4=01;35:*.m4v=01;35:*.mp4v=01;35:*.vob=01;35:*.qt=01;35:*.nuv=01;35:*.wmv=01;35:*.asf=01;35:*.rm=01;35:*.rmvb=01;35:*.flc=01;35:*.avi=01;35:*.fli=01;35:*.flv=01;35:*.gl=01;35:*.dl=01;35:*.xcf=01;35:*.xwd=01;35:*.yuv=01;35:*.cgm=01;35:*.emf=01;35:*.ogv=01;35:*.ogx=01;35:*.aac=00;36:*.au=00;36:*.flac=00;36:*.m4a=00;36:*.mid=00;36:*.midi=00;36:*.mka=00;36:*.mp3=00;36:*.mpc=00;36:*.ogg=00;36:*.ra=00;36:*.wav=00;36:*.oga=00;36:*.opus=00;36:*.spx=00;36:*.xspf=00;36:', 'CMAKE_PREFIX_PATH': '/home/intechAGV/catkin_ws/devel:/opt/ros/noetic', 'SSH_CONNECTION': '192.168.0.116 44210 192.168.0.130 22', 'LESSCLOSE': '/usr/bin/lesspipe %s %s', 'XDG_SESSION_CLASS': 'user', 'PYTHONPATH': '/home/intechAGV/catkin_ws/devel/lib/python3/dist-packages:/opt/ros/noetic/lib/python3/dist-packages', 'TERM': 'xterm-256color', 'LC_IDENTIFICATION': 'C.UTF-8', 'LESSOPEN': '| /usr/bin/lesspipe %s', 'USER': 'intechAGV', 'SHLVL': '1', 'LC_TELEPHONE': 'C.UTF-8', 'ROS_MASTER_URI': 'http://localhost:11311', 'LC_MEASUREMENT': 'C.UTF-8', 'XDG_SESSION_ID': '1', 'LD_LIBRARY_PATH': '/home/intechAGV/catkin_ws/devel/lib:/opt/ros/noetic/lib', 'XDG_RUNTIME_DIR': '/run/user/1000', 'SSH_CLIENT': '192.168.0.116 44210 22', 'LC_TIME': 'C.UTF-8', 'XDG_DATA_DIRS': '/usr/local/share:/usr/share:/var/lib/snapd/desktop', 'PATH': '/home/intechAGV/.local/bin:/opt/ros/noetic/bin:/usr/local/sbin:/usr/local/bin:/usr/sbin:/usr/bin:/sbin:/bin:/usr/games:/usr/local/games:/snap/bin', 'DBUS_SESSION_BUS_ADDRESS': 'unix:path=/run/user/1000/bus', 'SSH_TTY': '/dev/pts/0', 'ROS_ROOT': '/opt/ros/noetic/share/ros', 'ROS_DISTRO': 'noetic', 'LC_NUMERIC': 'C.UTF-8', '_': '/opt/ros/noetic/bin/roscore', 'ROS_LOG_FILENAME': '/home/intechAGV/.ros/log/6003365c-ae9e-11ed-ad25-c7688d0e662a/roslaunch-intechAGV-1361.log'})
[roslaunch][INFO] 2023-02-17 15:37:56,120: starting in server mode
[roslaunch.parent][INFO] 2023-02-17 15:37:56,120: starting roslaunch parent run
[roslaunch][INFO] 2023-02-17 15:37:56,121: loading roscore config file /opt/ros/noetic/etc/ros/roscore.xml
[roslaunch][INFO] 2023-02-17 15:37:56,594: Added core node of type [rosout/rosout] in namespace [/]
[roslaunch.pmon][INFO] 2023-02-17 15:37:56,594: start_process_monitor: creating ProcessMonitor
[roslaunch.pmon][INFO] 2023-02-17 15:37:56,595: created process monitor <ProcessMonitor(ProcessMonitor-1, initial daemon)>
[roslaunch.pmon][INFO] 2023-02-17 15:37:56,596: start_process_monitor: ProcessMonitor started
[roslaunch.parent][INFO] 2023-02-17 15:37:56,596: starting parent XML-RPC server
[roslaunch.server][INFO] 2023-02-17 15:37:56,596: starting roslaunch XML-RPC server
[roslaunch.server][INFO] 2023-02-17 15:37:56,596: waiting for roslaunch XML-RPC server to initialize
[xmlrpc][INFO] 2023-02-17 15:37:56,597: XML-RPC server binding to 0.0.0.0:0
[xmlrpc][INFO] 2023-02-17 15:37:56,598: Started XML-RPC server [http://intechAGV:33925/]
[xmlrpc][INFO] 2023-02-17 15:37:56,598: xml rpc node: starting XML-RPC server
[roslaunch][INFO] 2023-02-17 15:37:56,614: started roslaunch server http://intechAGV:33925/
[roslaunch.parent][INFO] 2023-02-17 15:37:56,615: ... parent XML-RPC server started
[roslaunch][INFO] 2023-02-17 15:37:56,616: master.is_running[http://intechAGV:11311/]
[roslaunch][INFO] 2023-02-17 15:37:56,622: auto-starting new master
[roslaunch][INFO] 2023-02-17 15:37:56,623: create_master_process: rosmaster, /opt/ros/noetic/share/ros, 11311, 3, None, False
[roslaunch][INFO] 2023-02-17 15:37:56,623: process[master]: launching with args [['rosmaster', '--core', '-p', '11311', '-w', '3']]
[roslaunch.pmon][INFO] 2023-02-17 15:37:56,623: ProcessMonitor.register[master]
[roslaunch.pmon][INFO] 2023-02-17 15:37:56,623: ProcessMonitor.register[master] complete
[roslaunch][INFO] 2023-02-17 15:37:56,624: process[master]: starting os process
[roslaunch][INFO] 2023-02-17 15:37:56,624: process[master]: start w/ args [['rosmaster', '--core', '-p', '11311', '-w', '3', '__log:=/home/intechAGV/.ros/log/6003365c-ae9e-11ed-ad25-c7688d0e662a/master.log']]
[roslaunch][INFO] 2023-02-17 15:37:56,624: process[master]: cwd will be [/home/intechAGV/.ros]
[roslaunch][INFO] 2023-02-17 15:37:56,635: process[master]: started with pid [1371]
[roslaunch][INFO] 2023-02-17 15:37:56,636: master.is_running[http://intechAGV:11311/]
[roslaunch][INFO] 2023-02-17 15:37:56,738: master.is_running[http://intechAGV:11311/]
[roslaunch][INFO] 2023-02-17 15:37:56,839: master.is_running[http://intechAGV:11311/]
[roslaunch][INFO] 2023-02-17 15:37:56,941: master.is_running[http://intechAGV:11311/]
[roslaunch][INFO] 2023-02-17 15:37:57,042: master.is_running[http://intechAGV:11311/]
[roslaunch][INFO] 2023-02-17 15:37:57,144: master.is_running[http://intechAGV:11311/]
[roslaunch][INFO] 2023-02-17 15:37:57,245: master.is_running[http://intechAGV:11311/]
[roslaunch][INFO] 2023-02-17 15:37:57,347: master.is_running[http://intechAGV:11311/]
[roslaunch][INFO] 2023-02-17 15:37:57,448: master.is_running[http://intechAGV:11311/]
[roslaunch][INFO] 2023-02-17 15:37:57,454: master.is_running[http://intechAGV:11311/]
[roslaunch][INFO] 2023-02-17 15:37:57,460: ROS_MASTER_URI=http://intechAGV:11311/
[roslaunch][INFO] 2023-02-17 15:37:57,463: setting /run_id to 6003365c-ae9e-11ed-ad25-c7688d0e662a
[roslaunch][INFO] 2023-02-17 15:37:57,466: setting /roslaunch/uris/host_intechagv__33925' to http://intechAGV:33925/
[roslaunch][INFO] 2023-02-17 15:37:57,472: ... preparing to launch node of type [rosout/rosout]
[roslaunch][INFO] 2023-02-17 15:37:57,473: create_node_process: package[rosout] type[rosout] machine[Machine(name[] env_loader[None] address[localhost] ssh_port[22] user[None] assignable[True] timeout[10.0])] master_uri[http://intechAGV:11311/]
[roslaunch][INFO] 2023-02-17 15:37:57,473: process[rosout-1]: env[{'SHELL': '/bin/bash', 'ROS_VERSION': '1', 'PKG_CONFIG_PATH': '/home/intechAGV/catkin_ws/devel/lib/pkgconfig:/opt/ros/noetic/lib/pkgconfig', 'ROS_PYTHON_VERSION': '3', 'LC_ADDRESS': 'C.UTF-8', 'LC_NAME': 'C.UTF-8', 'LC_MONETARY': 'C.UTF-8', 'ROS_PACKAGE_PATH': '/home/intech/catkin_ws/src:/home/intechAGV/catkin_ws/src:/opt/ros/noetic/share', 'ROSLISP_PACKAGE_DIRECTORIES': '/home/intechAGV/catkin_ws/devel/share/common-lisp', 'PWD': '/home/intechAGV', 'LOGNAME': 'intechAGV', 'XDG_SESSION_TYPE': 'tty', 'MOTD_SHOWN': 'pam', 'HOME': '/home/intechAGV', 'LANG': 'C.UTF-8', 'LC_PAPER': 'C.UTF-8', 'ROS_ETC_DIR': '/opt/ros/noetic/etc/ros', 'LS_COLORS': 'rs=0:di=01;34:ln=01;36:mh=00:pi=40;33:so=01;35:do=01;35:bd=40;33;01:cd=40;33;01:or=40;31;01:mi=00:su=37;41:sg=30;43:ca=30;41:tw=30;42:ow=34;42:st=37;44:ex=01;32:*.tar=01;31:*.tgz=01;31:*.arc=01;31:*.arj=01;31:*.taz=01;31:*.lha=01;31:*.lz4=01;31:*.lzh=01;31:*.lzma=01;31:*.tlz=01;31:*.txz=01;31:*.tzo=01;31:*.t7z=01;31:*.zip=01;31:*.z=01;31:*.dz=01;31:*.gz=01;31:*.lrz=01;31:*.lz=01;31:*.lzo=01;31:*.xz=01;31:*.zst=01;31:*.tzst=01;31:*.bz2=01;31:*.bz=01;31:*.tbz=01;31:*.tbz2=01;31:*.tz=01;31:*.deb=01;31:*.rpm=01;31:*.jar=01;31:*.war=01;31:*.ear=01;31:*.sar=01;31:*.rar=01;31:*.alz=01;31:*.ace=01;31:*.zoo=01;31:*.cpio=01;31:*.7z=01;31:*.rz=01;31:*.cab=01;31:*.wim=01;31:*.swm=01;31:*.dwm=01;31:*.esd=01;31:*.jpg=01;35:*.jpeg=01;35:*.mjpg=01;35:*.mjpeg=01;35:*.gif=01;35:*.bmp=01;35:*.pbm=01;35:*.pgm=01;35:*.ppm=01;35:*.tga=01;35:*.xbm=01;35:*.xpm=01;35:*.tif=01;35:*.tiff=01;35:*.png=01;35:*.svg=01;35:*.svgz=01;35:*.mng=01;35:*.pcx=01;35:*.mov=01;35:*.mpg=01;35:*.mpeg=01;35:*.m2v=01;35:*.mkv=01;35:*.webm=01;35:*.ogm=01;35:*.mp4=01;35:*.m4v=01;35:*.mp4v=01;35:*.vob=01;35:*.qt=01;35:*.nuv=01;35:*.wmv=01;35:*.asf=01;35:*.rm=01;35:*.rmvb=01;35:*.flc=01;35:*.avi=01;35:*.fli=01;35:*.flv=01;35:*.gl=01;35:*.dl=01;35:*.xcf=01;35:*.xwd=01;35:*.yuv=01;35:*.cgm=01;35:*.emf=01;35:*.ogv=01;35:*.ogx=01;35:*.aac=00;36:*.au=00;36:*.flac=00;36:*.m4a=00;36:*.mid=00;36:*.midi=00;36:*.mka=00;36:*.mp3=00;36:*.mpc=00;36:*.ogg=00;36:*.ra=00;36:*.wav=00;36:*.oga=00;36:*.opus=00;36:*.spx=00;36:*.xspf=00;36:', 'CMAKE_PREFIX_PATH': '/home/intechAGV/catkin_ws/devel:/opt/ros/noetic', 'SSH_CONNECTION': '192.168.0.116 44210 192.168.0.130 22', 'LESSCLOSE': '/usr/bin/lesspipe %s %s', 'XDG_SESSION_CLASS': 'user', 'PYTHONPATH': '/home/intechAGV/catkin_ws/devel/lib/python3/dist-packages:/opt/ros/noetic/lib/python3/dist-packages', 'TERM': 'xterm-256color', 'LC_IDENTIFICATION': 'C.UTF-8', 'LESSOPEN': '| /usr/bin/lesspipe %s', 'USER': 'intechAGV', 'SHLVL': '1', 'LC_TELEPHONE': 'C.UTF-8', 'ROS_MASTER_URI': 'http://intechAGV:11311/', 'LC_MEASUREMENT': 'C.UTF-8', 'XDG_SESSION_ID': '1', 'LD_LIBRARY_PATH': '/home/intechAGV/catkin_ws/devel/lib:/opt/ros/noetic/lib', 'XDG_RUNTIME_DIR': '/run/user/1000', 'SSH_CLIENT': '192.168.0.116 44210 22', 'LC_TIME': 'C.UTF-8', 'XDG_DATA_DIRS': '/usr/local/share:/usr/share:/var/lib/snapd/desktop', 'PATH': '/home/intechAGV/.local/bin:/opt/ros/noetic/bin:/usr/local/sbin:/usr/local/bin:/usr/sbin:/usr/bin:/sbin:/bin:/usr/games:/usr/local/games:/snap/bin', 'DBUS_SESSION_BUS_ADDRESS': 'unix:path=/run/user/1000/bus', 'SSH_TTY': '/dev/pts/0', 'ROS_ROOT': '/opt/ros/noetic/share/ros', 'ROS_DISTRO': 'noetic', 'LC_NUMERIC': 'C.UTF-8', '_': '/opt/ros/noetic/bin/roscore', 'ROS_LOG_FILENAME': '/home/intechAGV/.ros/log/6003365c-ae9e-11ed-ad25-c7688d0e662a/roslaunch-intechAGV-1361.log'}]
[roslaunch][INFO] 2023-02-17 15:37:57,577: process[rosout-1]: args[['/opt/ros/noetic/lib/rosout/rosout', '__name:=rosout']]
[roslaunch][INFO] 2023-02-17 15:37:57,578: ... created process [rosout-1]
[roslaunch.pmon][INFO] 2023-02-17 15:37:57,578: ProcessMonitor.register[rosout-1]
[roslaunch.pmon][INFO] 2023-02-17 15:37:57,578: ProcessMonitor.register[rosout-1] complete
[roslaunch][INFO] 2023-02-17 15:37:57,578: ... registered process [rosout-1]
[roslaunch][INFO] 2023-02-17 15:37:57,578: process[rosout-1]: starting os process
[roslaunch][INFO] 2023-02-17 15:37:57,579: process[rosout-1]: start w/ args [['/opt/ros/noetic/lib/rosout/rosout', '__name:=rosout', '__log:=/home/intechAGV/.ros/log/6003365c-ae9e-11ed-ad25-c7688d0e662a/rosout-1.log']]
[roslaunch][INFO] 2023-02-17 15:37:57,579: process[rosout-1]: cwd will be [/home/intechAGV/.ros]
[roslaunch][INFO] 2023-02-17 15:37:57,591: process[rosout-1]: started with pid [1381]
[roslaunch][INFO] 2023-02-17 15:37:57,592: ... successfully launched [rosout-1]
[roslaunch][INFO] 2023-02-17 15:37:57,593: load_parameters starting ...
[roslaunch][INFO] 2023-02-17 15:37:57,604: ... load_parameters complete
[roslaunch][INFO] 2023-02-17 15:37:57,604: launch_nodes: launching local nodes ...
[roslaunch][INFO] 2023-02-17 15:37:57,605: ... launch_nodes complete
[roslaunch.pmon][INFO] 2023-02-17 15:37:57,605: registrations completed <ProcessMonitor(ProcessMonitor-1, started daemon 281473042776544)>
[roslaunch.parent][INFO] 2023-02-17 15:37:57,605: ... roslaunch parent running, waiting for process exit
[roslaunch][INFO] 2023-02-17 15:37:57,605: spin
[roslaunch.pmon][INFO] 2023-02-17 15:42:36,515: ProcessMonitor.shutdown <ProcessMonitor(ProcessMonitor-1, started daemon 281473042776544)>
[roslaunch.pmon][INFO] 2023-02-17 15:42:36,585: ProcessMonitor._post_run <ProcessMonitor(ProcessMonitor-1, started daemon 281473042776544)>
[roslaunch.pmon][INFO] 2023-02-17 15:42:36,586: ProcessMonitor._post_run <ProcessMonitor(ProcessMonitor-1, started daemon 281473042776544)>: remaining procs are [<roslaunch.nodeprocess.LocalProcess object at 0xffff8cbd5430>, <roslaunch.nodeprocess.LocalProcess object at 0xffff8cbd52e0>]
[roslaunch.pmon][INFO] 2023-02-17 15:42:36,592: ProcessMonitor exit: killing rosout-1
[roslaunch][INFO] 2023-02-17 15:42:36,593: [rosout-1] killing on exit
[roslaunch][INFO] 2023-02-17 15:42:36,594: process[rosout-1]: killing os process with pid[1381] pgid[1381]
[roslaunch][INFO] 2023-02-17 15:42:36,594: [rosout-1] sending SIGINT to pgid [1381]
[roslaunch][INFO] 2023-02-17 15:42:36,595: [rosout-1] sent SIGINT to pgid [1381]
[roslaunch][INFO] 2023-02-17 15:42:36,796: process[rosout-1]: SIGINT killed with return value 0
[roslaunch.pmon][INFO] 2023-02-17 15:42:36,797: ProcessMonitor exit: killing master
[roslaunch][INFO] 2023-02-17 15:42:36,797: [master] killing on exit
[roslaunch][INFO] 2023-02-17 15:42:36,798: process[master]: killing os process with pid[1371] pgid[1371]
[roslaunch][INFO] 2023-02-17 15:42:36,798: [master] sending SIGINT to pgid [1371]
[roslaunch][INFO] 2023-02-17 15:42:36,799: [master] sent SIGINT to pgid [1371]
[roslaunch][INFO] 2023-02-17 15:42:37,100: process[master]: SIGINT killed with return value 0
[roslaunch.pmon][INFO] 2023-02-17 15:42:37,101: ProcessMonitor exit: cleaning up data structures and signals
[roslaunch.pmon][INFO] 2023-02-17 15:42:37,101: ProcessMonitor exit: pmon has shutdown
[roslaunch][INFO] 2023-02-17 15:42:37,102: process monitor is done spinning, initiating full shutdown
[roslaunch][INFO] 2023-02-17 15:42:37,102: runner.stop()
[roslaunch][INFO] 2023-02-17 15:42:37,103: shutting down processing monitor...
[roslaunch][INFO] 2023-02-17 15:42:37,103: shutting down processing monitor <ProcessMonitor(ProcessMonitor-1, stopped daemon 281473042776544)>
[roslaunch.pmon][INFO] 2023-02-17 15:42:37,104: ProcessMonitor.shutdown <ProcessMonitor(ProcessMonitor-1, stopped daemon 281473042776544)>
[roslaunch][INFO] 2023-02-17 15:42:37,104: ... shutting down processing monitor complete
[roslaunch][INFO] 2023-02-17 15:42:37,105: done
[roslaunch.pmon][INFO] 2023-02-17 15:42:37,105: ProcessMonitor.shutdown <ProcessMonitor(ProcessMonitor-1, stopped daemon 281473042776544)>
[rospy.core][INFO] 2023-02-17 15:42:37,106: signal_shutdown [atexit]
