[roslaunch][INFO] 2023-02-09 13:09:30,625: Checking log directory for disk usage. This may take a while.
Press Ctrl-C to interrupt
[roslaunch][INFO] 2023-02-09 13:09:30,648: Done checking log file disk usage. Usage is <1GB.
[roslaunch][INFO] 2023-02-09 13:09:30,648: roslaunch starting with args ['/opt/ros/noetic/bin/roslaunch', 'agv1_master', 'agv1_intech.launch']
[roslaunch][INFO] 2023-02-09 13:09:30,649: roslaunch env is environ({'SHELL': '/bin/bash', 'ROS_VERSION': '1', 'PKG_CONFIG_PATH': '/home/intechAGV/catkin_ws/devel/lib/pkgconfig:/opt/ros/noetic/lib/pkgconfig', 'ROS_PYTHON_VERSION': '3', 'LC_ADDRESS': 'C.UTF-8', 'LC_NAME': 'C.UTF-8', 'LC_MONETARY': 'C.UTF-8', 'ROS_PACKAGE_PATH': '/home/intech/catkin_ws/src:/home/intechAGV/catkin_ws/src:/opt/ros/noetic/share', 'ROSLISP_PACKAGE_DIRECTORIES': '/home/intechAGV/catkin_ws/devel/share/common-lisp', 'PWD': '/home/intechAGV', 'LOGNAME': 'intechAGV', 'XDG_SESSION_TYPE': 'tty', 'MOTD_SHOWN': 'pam', 'HOME': '/home/intechAGV', 'LANG': 'C.UTF-8', 'LC_PAPER': 'C.UTF-8', 'ROS_ETC_DIR': '/opt/ros/noetic/etc/ros', 'LS_COLORS': 'rs=0:di=01;34:ln=01;36:mh=00:pi=40;33:so=01;35:do=01;35:bd=40;33;01:cd=40;33;01:or=40;31;01:mi=00:su=37;41:sg=30;43:ca=30;41:tw=30;42:ow=34;42:st=37;44:ex=01;32:*.tar=01;31:*.tgz=01;31:*.arc=01;31:*.arj=01;31:*.taz=01;31:*.lha=01;31:*.lz4=01;31:*.lzh=01;31:*.lzma=01;31:*.tlz=01;31:*.txz=01;31:*.tzo=01;31:*.t7z=01;31:*.zip=01;31:*.z=01;31:*.dz=01;31:*.gz=01;31:*.lrz=01;31:*.lz=01;31:*.lzo=01;31:*.xz=01;31:*.zst=01;31:*.tzst=01;31:*.bz2=01;31:*.bz=01;31:*.tbz=01;31:*.tbz2=01;31:*.tz=01;31:*.deb=01;31:*.rpm=01;31:*.jar=01;31:*.war=01;31:*.ear=01;31:*.sar=01;31:*.rar=01;31:*.alz=01;31:*.ace=01;31:*.zoo=01;31:*.cpio=01;31:*.7z=01;31:*.rz=01;31:*.cab=01;31:*.wim=01;31:*.swm=01;31:*.dwm=01;31:*.esd=01;31:*.jpg=01;35:*.jpeg=01;35:*.mjpg=01;35:*.mjpeg=01;35:*.gif=01;35:*.bmp=01;35:*.pbm=01;35:*.pgm=01;35:*.ppm=01;35:*.tga=01;35:*.xbm=01;35:*.xpm=01;35:*.tif=01;35:*.tiff=01;35:*.png=01;35:*.svg=01;35:*.svgz=01;35:*.mng=01;35:*.pcx=01;35:*.mov=01;35:*.mpg=01;35:*.mpeg=01;35:*.m2v=01;35:*.mkv=01;35:*.webm=01;35:*.ogm=01;35:*.mp4=01;35:*.m4v=01;35:*.mp4v=01;35:*.vob=01;35:*.qt=01;35:*.nuv=01;35:*.wmv=01;35:*.asf=01;35:*.rm=01;35:*.rmvb=01;35:*.flc=01;35:*.avi=01;35:*.fli=01;35:*.flv=01;35:*.gl=01;35:*.dl=01;35:*.xcf=01;35:*.xwd=01;35:*.yuv=01;35:*.cgm=01;35:*.emf=01;35:*.ogv=01;35:*.ogx=01;35:*.aac=00;36:*.au=00;36:*.flac=00;36:*.m4a=00;36:*.mid=00;36:*.midi=00;36:*.mka=00;36:*.mp3=00;36:*.mpc=00;36:*.ogg=00;36:*.ra=00;36:*.wav=00;36:*.oga=00;36:*.opus=00;36:*.spx=00;36:*.xspf=00;36:', 'CMAKE_PREFIX_PATH': '/home/intechAGV/catkin_ws/devel:/opt/ros/noetic', 'SSH_CONNECTION': '192.168.0.117 55404 192.168.0.120 22', 'LESSCLOSE': '/usr/bin/lesspipe %s %s', 'XDG_SESSION_CLASS': 'user', 'PYTHONPATH': '/home/intechAGV/catkin_ws/devel/lib/python3/dist-packages:/opt/ros/noetic/lib/python3/dist-packages', 'TERM': 'xterm-256color', 'LC_IDENTIFICATION': 'C.UTF-8', 'LESSOPEN': '| /usr/bin/lesspipe %s', 'USER': 'intechAGV', 'SHLVL': '1', 'LC_TELEPHONE': 'C.UTF-8', 'ROS_MASTER_URI': 'http://localhost:11311', 'LC_MEASUREMENT': 'C.UTF-8', 'XDG_SESSION_ID': '1', 'LD_LIBRARY_PATH': '/home/intechAGV/catkin_ws/devel/lib:/opt/ros/noetic/lib', 'XDG_RUNTIME_DIR': '/run/user/1000', 'SSH_CLIENT': '192.168.0.117 55404 22', 'LC_TIME': 'C.UTF-8', 'XDG_DATA_DIRS': '/usr/local/share:/usr/share:/var/lib/snapd/desktop', 'PATH': '/home/intechAGV/.local/bin:/opt/ros/noetic/bin:/usr/local/sbin:/usr/local/bin:/usr/sbin:/usr/bin:/sbin:/bin:/usr/games:/usr/local/games:/snap/bin', 'DBUS_SESSION_BUS_ADDRESS': 'unix:path=/run/user/1000/bus', 'SSH_TTY': '/dev/pts/0', 'ROS_ROOT': '/opt/ros/noetic/share/ros', 'ROS_DISTRO': 'noetic', 'LC_NUMERIC': 'C.UTF-8', '_': '/opt/ros/noetic/bin/roslaunch', 'ROS_LOG_FILENAME': '/home/intechAGV/.ros/log/eb271776-a82c-11ed-bd55-e1e3b81751b7/roslaunch-intechAGV-2635.log'})
[roslaunch][INFO] 2023-02-09 13:09:30,649: starting in server mode
[roslaunch.parent][INFO] 2023-02-09 13:09:30,650: starting roslaunch parent run
[roslaunch][INFO] 2023-02-09 13:09:30,650: loading roscore config file /opt/ros/noetic/etc/ros/roscore.xml
[roslaunch][INFO] 2023-02-09 13:09:31,123: Added core node of type [rosout/rosout] in namespace [/]
[roslaunch.config][INFO] 2023-02-09 13:09:31,124: loading config file /home/intechAGV/catkin_ws/src/agv1_master/launch/agv1_intech.launch
[roslaunch][INFO] 2023-02-09 13:09:31,126: Added node of type [agv1_base_controller/node_base_controller.py] in namespace [/]
[roslaunch][INFO] 2023-02-09 13:09:31,127: Added node of type [agv1_gpio/node_gpio.py] in namespace [/]
[roslaunch][INFO] 2023-02-09 13:09:31,128: Added node of type [agv1_followline/node_followline.py] in namespace [/]
[roslaunch][INFO] 2023-02-09 13:09:31,128: Added node of type [agv1_rfid/node_readRFID.py] in namespace [/]
[roslaunch][INFO] 2023-02-09 13:09:31,129: Added node of type [agv1_xbee/node_xbee.py] in namespace [/]
[roslaunch][INFO] 2023-02-09 13:09:31,129: ... selected machine [] for node of type [agv1_base_controller/node_base_controller.py]
[roslaunch][INFO] 2023-02-09 13:09:31,129: ... selected machine [] for node of type [agv1_gpio/node_gpio.py]
[roslaunch][INFO] 2023-02-09 13:09:31,130: ... selected machine [] for node of type [agv1_followline/node_followline.py]
[roslaunch][INFO] 2023-02-09 13:09:31,130: ... selected machine [] for node of type [agv1_rfid/node_readRFID.py]
[roslaunch][INFO] 2023-02-09 13:09:31,130: ... selected machine [] for node of type [agv1_xbee/node_xbee.py]
[roslaunch.pmon][INFO] 2023-02-09 13:09:31,133: start_process_monitor: creating ProcessMonitor
[roslaunch.pmon][INFO] 2023-02-09 13:09:31,133: created process monitor <ProcessMonitor(ProcessMonitor-1, initial daemon)>
[roslaunch.pmon][INFO] 2023-02-09 13:09:31,134: start_process_monitor: ProcessMonitor started
[roslaunch.parent][INFO] 2023-02-09 13:09:31,134: starting parent XML-RPC server
[roslaunch.server][INFO] 2023-02-09 13:09:31,135: starting roslaunch XML-RPC server
[roslaunch.server][INFO] 2023-02-09 13:09:31,135: waiting for roslaunch XML-RPC server to initialize
[xmlrpc][INFO] 2023-02-09 13:09:31,135: XML-RPC server binding to 0.0.0.0:0
[xmlrpc][INFO] 2023-02-09 13:09:31,136: Started XML-RPC server [http://intechAGV:45507/]
[xmlrpc][INFO] 2023-02-09 13:09:31,137: xml rpc node: starting XML-RPC server
[roslaunch][INFO] 2023-02-09 13:09:31,152: started roslaunch server http://intechAGV:45507/
[roslaunch.parent][INFO] 2023-02-09 13:09:31,153: ... parent XML-RPC server started
[roslaunch][INFO] 2023-02-09 13:09:31,157: master.is_running[http://localhost:11311]
[roslaunch][INFO] 2023-02-09 13:09:31,162: master.is_running[http://localhost:11311]
[roslaunch][INFO] 2023-02-09 13:09:31,166: ROS_MASTER_URI=http://localhost:11311
[roslaunch][INFO] 2023-02-09 13:09:31,172: setting /roslaunch/uris/host_intechagv__45507' to http://intechAGV:45507/
[roslaunch][INFO] 2023-02-09 13:09:31,175: load_parameters starting ...
[roslaunch][INFO] 2023-02-09 13:09:31,237: ... load_parameters complete
[roslaunch][INFO] 2023-02-09 13:09:31,238: launch_nodes: launching local nodes ...
[roslaunch][INFO] 2023-02-09 13:09:31,239: ... preparing to launch node of type [agv1_base_controller/node_base_controller.py]
[roslaunch][INFO] 2023-02-09 13:09:31,240: create_node_process: package[agv1_base_controller] type[node_base_controller.py] machine[Machine(name[] env_loader[None] address[localhost] ssh_port[22] user[None] assignable[True] timeout[10.0])] master_uri[http://localhost:11311]
[roslaunch][INFO] 2023-02-09 13:09:31,240: process[baseController-1]: env[{'SHELL': '/bin/bash', 'ROS_VERSION': '1', 'PKG_CONFIG_PATH': '/home/intechAGV/catkin_ws/devel/lib/pkgconfig:/opt/ros/noetic/lib/pkgconfig', 'ROS_PYTHON_VERSION': '3', 'LC_ADDRESS': 'C.UTF-8', 'LC_NAME': 'C.UTF-8', 'LC_MONETARY': 'C.UTF-8', 'ROS_PACKAGE_PATH': '/home/intech/catkin_ws/src:/home/intechAGV/catkin_ws/src:/opt/ros/noetic/share', 'ROSLISP_PACKAGE_DIRECTORIES': '/home/intechAGV/catkin_ws/devel/share/common-lisp', 'PWD': '/home/intechAGV', 'LOGNAME': 'intechAGV', 'XDG_SESSION_TYPE': 'tty', 'MOTD_SHOWN': 'pam', 'HOME': '/home/intechAGV', 'LANG': 'C.UTF-8', 'LC_PAPER': 'C.UTF-8', 'ROS_ETC_DIR': '/opt/ros/noetic/etc/ros', 'LS_COLORS': 'rs=0:di=01;34:ln=01;36:mh=00:pi=40;33:so=01;35:do=01;35:bd=40;33;01:cd=40;33;01:or=40;31;01:mi=00:su=37;41:sg=30;43:ca=30;41:tw=30;42:ow=34;42:st=37;44:ex=01;32:*.tar=01;31:*.tgz=01;31:*.arc=01;31:*.arj=01;31:*.taz=01;31:*.lha=01;31:*.lz4=01;31:*.lzh=01;31:*.lzma=01;31:*.tlz=01;31:*.txz=01;31:*.tzo=01;31:*.t7z=01;31:*.zip=01;31:*.z=01;31:*.dz=01;31:*.gz=01;31:*.lrz=01;31:*.lz=01;31:*.lzo=01;31:*.xz=01;31:*.zst=01;31:*.tzst=01;31:*.bz2=01;31:*.bz=01;31:*.tbz=01;31:*.tbz2=01;31:*.tz=01;31:*.deb=01;31:*.rpm=01;31:*.jar=01;31:*.war=01;31:*.ear=01;31:*.sar=01;31:*.rar=01;31:*.alz=01;31:*.ace=01;31:*.zoo=01;31:*.cpio=01;31:*.7z=01;31:*.rz=01;31:*.cab=01;31:*.wim=01;31:*.swm=01;31:*.dwm=01;31:*.esd=01;31:*.jpg=01;35:*.jpeg=01;35:*.mjpg=01;35:*.mjpeg=01;35:*.gif=01;35:*.bmp=01;35:*.pbm=01;35:*.pgm=01;35:*.ppm=01;35:*.tga=01;35:*.xbm=01;35:*.xpm=01;35:*.tif=01;35:*.tiff=01;35:*.png=01;35:*.svg=01;35:*.svgz=01;35:*.mng=01;35:*.pcx=01;35:*.mov=01;35:*.mpg=01;35:*.mpeg=01;35:*.m2v=01;35:*.mkv=01;35:*.webm=01;35:*.ogm=01;35:*.mp4=01;35:*.m4v=01;35:*.mp4v=01;35:*.vob=01;35:*.qt=01;35:*.nuv=01;35:*.wmv=01;35:*.asf=01;35:*.rm=01;35:*.rmvb=01;35:*.flc=01;35:*.avi=01;35:*.fli=01;35:*.flv=01;35:*.gl=01;35:*.dl=01;35:*.xcf=01;35:*.xwd=01;35:*.yuv=01;35:*.cgm=01;35:*.emf=01;35:*.ogv=01;35:*.ogx=01;35:*.aac=00;36:*.au=00;36:*.flac=00;36:*.m4a=00;36:*.mid=00;36:*.midi=00;36:*.mka=00;36:*.mp3=00;36:*.mpc=00;36:*.ogg=00;36:*.ra=00;36:*.wav=00;36:*.oga=00;36:*.opus=00;36:*.spx=00;36:*.xspf=00;36:', 'CMAKE_PREFIX_PATH': '/home/intechAGV/catkin_ws/devel:/opt/ros/noetic', 'SSH_CONNECTION': '192.168.0.117 55404 192.168.0.120 22', 'LESSCLOSE': '/usr/bin/lesspipe %s %s', 'XDG_SESSION_CLASS': 'user', 'PYTHONPATH': '/home/intechAGV/catkin_ws/devel/lib/python3/dist-packages:/opt/ros/noetic/lib/python3/dist-packages', 'TERM': 'xterm-256color', 'LC_IDENTIFICATION': 'C.UTF-8', 'LESSOPEN': '| /usr/bin/lesspipe %s', 'USER': 'intechAGV', 'SHLVL': '1', 'LC_TELEPHONE': 'C.UTF-8', 'ROS_MASTER_URI': 'http://localhost:11311', 'LC_MEASUREMENT': 'C.UTF-8', 'XDG_SESSION_ID': '1', 'LD_LIBRARY_PATH': '/home/intechAGV/catkin_ws/devel/lib:/opt/ros/noetic/lib', 'XDG_RUNTIME_DIR': '/run/user/1000', 'SSH_CLIENT': '192.168.0.117 55404 22', 'LC_TIME': 'C.UTF-8', 'XDG_DATA_DIRS': '/usr/local/share:/usr/share:/var/lib/snapd/desktop', 'PATH': '/home/intechAGV/.local/bin:/opt/ros/noetic/bin:/usr/local/sbin:/usr/local/bin:/usr/sbin:/usr/bin:/sbin:/bin:/usr/games:/usr/local/games:/snap/bin', 'DBUS_SESSION_BUS_ADDRESS': 'unix:path=/run/user/1000/bus', 'SSH_TTY': '/dev/pts/0', 'ROS_ROOT': '/opt/ros/noetic/share/ros', 'ROS_DISTRO': 'noetic', 'LC_NUMERIC': 'C.UTF-8', '_': '/opt/ros/noetic/bin/roslaunch', 'ROS_LOG_FILENAME': '/home/intechAGV/.ros/log/eb271776-a82c-11ed-bd55-e1e3b81751b7/roslaunch-intechAGV-2635.log'}]
[roslaunch][INFO] 2023-02-09 13:09:31,289: process[baseController-1]: args[['/home/intechAGV/catkin_ws/devel/lib/agv1_base_controller/node_base_controller.py', '__name:=baseController']]
[roslaunch][INFO] 2023-02-09 13:09:31,289: ... created process [baseController-1]
[roslaunch.pmon][INFO] 2023-02-09 13:09:31,289: ProcessMonitor.register[baseController-1]
[roslaunch.pmon][INFO] 2023-02-09 13:09:31,290: ProcessMonitor.register[baseController-1] complete
[roslaunch][INFO] 2023-02-09 13:09:31,290: ... registered process [baseController-1]
[roslaunch][INFO] 2023-02-09 13:09:31,290: process[baseController-1]: starting os process
[roslaunch][INFO] 2023-02-09 13:09:31,290: process[baseController-1]: start w/ args [['/home/intechAGV/catkin_ws/devel/lib/agv1_base_controller/node_base_controller.py', '__name:=baseController', '__log:=/home/intechAGV/.ros/log/eb271776-a82c-11ed-bd55-e1e3b81751b7/baseController-1.log']]
[roslaunch][INFO] 2023-02-09 13:09:31,290: process[baseController-1]: cwd will be [/home/intechAGV/.ros]
[roslaunch][INFO] 2023-02-09 13:09:31,300: process[baseController-1]: started with pid [2649]
[roslaunch][INFO] 2023-02-09 13:09:31,301: ... successfully launched [baseController-1]
[roslaunch][INFO] 2023-02-09 13:09:31,301: ... preparing to launch node of type [agv1_gpio/node_gpio.py]
[roslaunch][INFO] 2023-02-09 13:09:31,302: create_node_process: package[agv1_gpio] type[node_gpio.py] machine[Machine(name[] env_loader[None] address[localhost] ssh_port[22] user[None] assignable[True] timeout[10.0])] master_uri[http://localhost:11311]
[roslaunch][INFO] 2023-02-09 13:09:31,302: process[gpio-2]: env[{'SHELL': '/bin/bash', 'ROS_VERSION': '1', 'PKG_CONFIG_PATH': '/home/intechAGV/catkin_ws/devel/lib/pkgconfig:/opt/ros/noetic/lib/pkgconfig', 'ROS_PYTHON_VERSION': '3', 'LC_ADDRESS': 'C.UTF-8', 'LC_NAME': 'C.UTF-8', 'LC_MONETARY': 'C.UTF-8', 'ROS_PACKAGE_PATH': '/home/intech/catkin_ws/src:/home/intechAGV/catkin_ws/src:/opt/ros/noetic/share', 'ROSLISP_PACKAGE_DIRECTORIES': '/home/intechAGV/catkin_ws/devel/share/common-lisp', 'PWD': '/home/intechAGV', 'LOGNAME': 'intechAGV', 'XDG_SESSION_TYPE': 'tty', 'MOTD_SHOWN': 'pam', 'HOME': '/home/intechAGV', 'LANG': 'C.UTF-8', 'LC_PAPER': 'C.UTF-8', 'ROS_ETC_DIR': '/opt/ros/noetic/etc/ros', 'LS_COLORS': 'rs=0:di=01;34:ln=01;36:mh=00:pi=40;33:so=01;35:do=01;35:bd=40;33;01:cd=40;33;01:or=40;31;01:mi=00:su=37;41:sg=30;43:ca=30;41:tw=30;42:ow=34;42:st=37;44:ex=01;32:*.tar=01;31:*.tgz=01;31:*.arc=01;31:*.arj=01;31:*.taz=01;31:*.lha=01;31:*.lz4=01;31:*.lzh=01;31:*.lzma=01;31:*.tlz=01;31:*.txz=01;31:*.tzo=01;31:*.t7z=01;31:*.zip=01;31:*.z=01;31:*.dz=01;31:*.gz=01;31:*.lrz=01;31:*.lz=01;31:*.lzo=01;31:*.xz=01;31:*.zst=01;31:*.tzst=01;31:*.bz2=01;31:*.bz=01;31:*.tbz=01;31:*.tbz2=01;31:*.tz=01;31:*.deb=01;31:*.rpm=01;31:*.jar=01;31:*.war=01;31:*.ear=01;31:*.sar=01;31:*.rar=01;31:*.alz=01;31:*.ace=01;31:*.zoo=01;31:*.cpio=01;31:*.7z=01;31:*.rz=01;31:*.cab=01;31:*.wim=01;31:*.swm=01;31:*.dwm=01;31:*.esd=01;31:*.jpg=01;35:*.jpeg=01;35:*.mjpg=01;35:*.mjpeg=01;35:*.gif=01;35:*.bmp=01;35:*.pbm=01;35:*.pgm=01;35:*.ppm=01;35:*.tga=01;35:*.xbm=01;35:*.xpm=01;35:*.tif=01;35:*.tiff=01;35:*.png=01;35:*.svg=01;35:*.svgz=01;35:*.mng=01;35:*.pcx=01;35:*.mov=01;35:*.mpg=01;35:*.mpeg=01;35:*.m2v=01;35:*.mkv=01;35:*.webm=01;35:*.ogm=01;35:*.mp4=01;35:*.m4v=01;35:*.mp4v=01;35:*.vob=01;35:*.qt=01;35:*.nuv=01;35:*.wmv=01;35:*.asf=01;35:*.rm=01;35:*.rmvb=01;35:*.flc=01;35:*.avi=01;35:*.fli=01;35:*.flv=01;35:*.gl=01;35:*.dl=01;35:*.xcf=01;35:*.xwd=01;35:*.yuv=01;35:*.cgm=01;35:*.emf=01;35:*.ogv=01;35:*.ogx=01;35:*.aac=00;36:*.au=00;36:*.flac=00;36:*.m4a=00;36:*.mid=00;36:*.midi=00;36:*.mka=00;36:*.mp3=00;36:*.mpc=00;36:*.ogg=00;36:*.ra=00;36:*.wav=00;36:*.oga=00;36:*.opus=00;36:*.spx=00;36:*.xspf=00;36:', 'CMAKE_PREFIX_PATH': '/home/intechAGV/catkin_ws/devel:/opt/ros/noetic', 'SSH_CONNECTION': '192.168.0.117 55404 192.168.0.120 22', 'LESSCLOSE': '/usr/bin/lesspipe %s %s', 'XDG_SESSION_CLASS': 'user', 'PYTHONPATH': '/home/intechAGV/catkin_ws/devel/lib/python3/dist-packages:/opt/ros/noetic/lib/python3/dist-packages', 'TERM': 'xterm-256color', 'LC_IDENTIFICATION': 'C.UTF-8', 'LESSOPEN': '| /usr/bin/lesspipe %s', 'USER': 'intechAGV', 'SHLVL': '1', 'LC_TELEPHONE': 'C.UTF-8', 'ROS_MASTER_URI': 'http://localhost:11311', 'LC_MEASUREMENT': 'C.UTF-8', 'XDG_SESSION_ID': '1', 'LD_LIBRARY_PATH': '/home/intechAGV/catkin_ws/devel/lib:/opt/ros/noetic/lib', 'XDG_RUNTIME_DIR': '/run/user/1000', 'SSH_CLIENT': '192.168.0.117 55404 22', 'LC_TIME': 'C.UTF-8', 'XDG_DATA_DIRS': '/usr/local/share:/usr/share:/var/lib/snapd/desktop', 'PATH': '/home/intechAGV/.local/bin:/opt/ros/noetic/bin:/usr/local/sbin:/usr/local/bin:/usr/sbin:/usr/bin:/sbin:/bin:/usr/games:/usr/local/games:/snap/bin', 'DBUS_SESSION_BUS_ADDRESS': 'unix:path=/run/user/1000/bus', 'SSH_TTY': '/dev/pts/0', 'ROS_ROOT': '/opt/ros/noetic/share/ros', 'ROS_DISTRO': 'noetic', 'LC_NUMERIC': 'C.UTF-8', '_': '/opt/ros/noetic/bin/roslaunch', 'ROS_LOG_FILENAME': '/home/intechAGV/.ros/log/eb271776-a82c-11ed-bd55-e1e3b81751b7/roslaunch-intechAGV-2635.log'}]
[roslaunch][INFO] 2023-02-09 13:09:31,305: process[gpio-2]: args[['/home/intechAGV/catkin_ws/devel/lib/agv1_gpio/node_gpio.py', '__name:=gpio']]
[roslaunch][INFO] 2023-02-09 13:09:31,306: ... created process [gpio-2]
[roslaunch.pmon][INFO] 2023-02-09 13:09:31,306: ProcessMonitor.register[gpio-2]
[roslaunch.pmon][INFO] 2023-02-09 13:09:31,307: ProcessMonitor.register[gpio-2] complete
[roslaunch][INFO] 2023-02-09 13:09:31,307: ... registered process [gpio-2]
[roslaunch][INFO] 2023-02-09 13:09:31,307: process[gpio-2]: starting os process
[roslaunch][INFO] 2023-02-09 13:09:31,308: process[gpio-2]: start w/ args [['/home/intechAGV/catkin_ws/devel/lib/agv1_gpio/node_gpio.py', '__name:=gpio', '__log:=/home/intechAGV/.ros/log/eb271776-a82c-11ed-bd55-e1e3b81751b7/gpio-2.log']]
[roslaunch][INFO] 2023-02-09 13:09:31,308: process[gpio-2]: cwd will be [/home/intechAGV/.ros]
[roslaunch][INFO] 2023-02-09 13:09:31,318: process[gpio-2]: started with pid [2650]
[roslaunch][INFO] 2023-02-09 13:09:31,319: ... successfully launched [gpio-2]
[roslaunch][INFO] 2023-02-09 13:09:31,320: ... preparing to launch node of type [agv1_followline/node_followline.py]
[roslaunch][INFO] 2023-02-09 13:09:31,320: create_node_process: package[agv1_followline] type[node_followline.py] machine[Machine(name[] env_loader[None] address[localhost] ssh_port[22] user[None] assignable[True] timeout[10.0])] master_uri[http://localhost:11311]
[roslaunch][INFO] 2023-02-09 13:09:31,321: process[followline-3]: env[{'SHELL': '/bin/bash', 'ROS_VERSION': '1', 'PKG_CONFIG_PATH': '/home/intechAGV/catkin_ws/devel/lib/pkgconfig:/opt/ros/noetic/lib/pkgconfig', 'ROS_PYTHON_VERSION': '3', 'LC_ADDRESS': 'C.UTF-8', 'LC_NAME': 'C.UTF-8', 'LC_MONETARY': 'C.UTF-8', 'ROS_PACKAGE_PATH': '/home/intech/catkin_ws/src:/home/intechAGV/catkin_ws/src:/opt/ros/noetic/share', 'ROSLISP_PACKAGE_DIRECTORIES': '/home/intechAGV/catkin_ws/devel/share/common-lisp', 'PWD': '/home/intechAGV', 'LOGNAME': 'intechAGV', 'XDG_SESSION_TYPE': 'tty', 'MOTD_SHOWN': 'pam', 'HOME': '/home/intechAGV', 'LANG': 'C.UTF-8', 'LC_PAPER': 'C.UTF-8', 'ROS_ETC_DIR': '/opt/ros/noetic/etc/ros', 'LS_COLORS': 'rs=0:di=01;34:ln=01;36:mh=00:pi=40;33:so=01;35:do=01;35:bd=40;33;01:cd=40;33;01:or=40;31;01:mi=00:su=37;41:sg=30;43:ca=30;41:tw=30;42:ow=34;42:st=37;44:ex=01;32:*.tar=01;31:*.tgz=01;31:*.arc=01;31:*.arj=01;31:*.taz=01;31:*.lha=01;31:*.lz4=01;31:*.lzh=01;31:*.lzma=01;31:*.tlz=01;31:*.txz=01;31:*.tzo=01;31:*.t7z=01;31:*.zip=01;31:*.z=01;31:*.dz=01;31:*.gz=01;31:*.lrz=01;31:*.lz=01;31:*.lzo=01;31:*.xz=01;31:*.zst=01;31:*.tzst=01;31:*.bz2=01;31:*.bz=01;31:*.tbz=01;31:*.tbz2=01;31:*.tz=01;31:*.deb=01;31:*.rpm=01;31:*.jar=01;31:*.war=01;31:*.ear=01;31:*.sar=01;31:*.rar=01;31:*.alz=01;31:*.ace=01;31:*.zoo=01;31:*.cpio=01;31:*.7z=01;31:*.rz=01;31:*.cab=01;31:*.wim=01;31:*.swm=01;31:*.dwm=01;31:*.esd=01;31:*.jpg=01;35:*.jpeg=01;35:*.mjpg=01;35:*.mjpeg=01;35:*.gif=01;35:*.bmp=01;35:*.pbm=01;35:*.pgm=01;35:*.ppm=01;35:*.tga=01;35:*.xbm=01;35:*.xpm=01;35:*.tif=01;35:*.tiff=01;35:*.png=01;35:*.svg=01;35:*.svgz=01;35:*.mng=01;35:*.pcx=01;35:*.mov=01;35:*.mpg=01;35:*.mpeg=01;35:*.m2v=01;35:*.mkv=01;35:*.webm=01;35:*.ogm=01;35:*.mp4=01;35:*.m4v=01;35:*.mp4v=01;35:*.vob=01;35:*.qt=01;35:*.nuv=01;35:*.wmv=01;35:*.asf=01;35:*.rm=01;35:*.rmvb=01;35:*.flc=01;35:*.avi=01;35:*.fli=01;35:*.flv=01;35:*.gl=01;35:*.dl=01;35:*.xcf=01;35:*.xwd=01;35:*.yuv=01;35:*.cgm=01;35:*.emf=01;35:*.ogv=01;35:*.ogx=01;35:*.aac=00;36:*.au=00;36:*.flac=00;36:*.m4a=00;36:*.mid=00;36:*.midi=00;36:*.mka=00;36:*.mp3=00;36:*.mpc=00;36:*.ogg=00;36:*.ra=00;36:*.wav=00;36:*.oga=00;36:*.opus=00;36:*.spx=00;36:*.xspf=00;36:', 'CMAKE_PREFIX_PATH': '/home/intechAGV/catkin_ws/devel:/opt/ros/noetic', 'SSH_CONNECTION': '192.168.0.117 55404 192.168.0.120 22', 'LESSCLOSE': '/usr/bin/lesspipe %s %s', 'XDG_SESSION_CLASS': 'user', 'PYTHONPATH': '/home/intechAGV/catkin_ws/devel/lib/python3/dist-packages:/opt/ros/noetic/lib/python3/dist-packages', 'TERM': 'xterm-256color', 'LC_IDENTIFICATION': 'C.UTF-8', 'LESSOPEN': '| /usr/bin/lesspipe %s', 'USER': 'intechAGV', 'SHLVL': '1', 'LC_TELEPHONE': 'C.UTF-8', 'ROS_MASTER_URI': 'http://localhost:11311', 'LC_MEASUREMENT': 'C.UTF-8', 'XDG_SESSION_ID': '1', 'LD_LIBRARY_PATH': '/home/intechAGV/catkin_ws/devel/lib:/opt/ros/noetic/lib', 'XDG_RUNTIME_DIR': '/run/user/1000', 'SSH_CLIENT': '192.168.0.117 55404 22', 'LC_TIME': 'C.UTF-8', 'XDG_DATA_DIRS': '/usr/local/share:/usr/share:/var/lib/snapd/desktop', 'PATH': '/home/intechAGV/.local/bin:/opt/ros/noetic/bin:/usr/local/sbin:/usr/local/bin:/usr/sbin:/usr/bin:/sbin:/bin:/usr/games:/usr/local/games:/snap/bin', 'DBUS_SESSION_BUS_ADDRESS': 'unix:path=/run/user/1000/bus', 'SSH_TTY': '/dev/pts/0', 'ROS_ROOT': '/opt/ros/noetic/share/ros', 'ROS_DISTRO': 'noetic', 'LC_NUMERIC': 'C.UTF-8', '_': '/opt/ros/noetic/bin/roslaunch', 'ROS_LOG_FILENAME': '/home/intechAGV/.ros/log/eb271776-a82c-11ed-bd55-e1e3b81751b7/roslaunch-intechAGV-2635.log'}]
[roslaunch][INFO] 2023-02-09 13:09:31,324: process[followline-3]: args[['/home/intechAGV/catkin_ws/devel/lib/agv1_followline/node_followline.py', '__name:=followline']]
[roslaunch][INFO] 2023-02-09 13:09:31,325: ... created process [followline-3]
[roslaunch.pmon][INFO] 2023-02-09 13:09:31,325: ProcessMonitor.register[followline-3]
[roslaunch.pmon][INFO] 2023-02-09 13:09:31,325: ProcessMonitor.register[followline-3] complete
[roslaunch][INFO] 2023-02-09 13:09:31,326: ... registered process [followline-3]
[roslaunch][INFO] 2023-02-09 13:09:31,326: process[followline-3]: starting os process
[roslaunch][INFO] 2023-02-09 13:09:31,327: process[followline-3]: start w/ args [['/home/intechAGV/catkin_ws/devel/lib/agv1_followline/node_followline.py', '__name:=followline', '__log:=/home/intechAGV/.ros/log/eb271776-a82c-11ed-bd55-e1e3b81751b7/followline-3.log']]
[roslaunch][INFO] 2023-02-09 13:09:31,327: process[followline-3]: cwd will be [/home/intechAGV/.ros]
[roslaunch][INFO] 2023-02-09 13:09:31,339: process[followline-3]: started with pid [2651]
[roslaunch][INFO] 2023-02-09 13:09:31,340: ... successfully launched [followline-3]
[roslaunch][INFO] 2023-02-09 13:09:31,340: ... preparing to launch node of type [agv1_rfid/node_readRFID.py]
[roslaunch][INFO] 2023-02-09 13:09:31,341: create_node_process: package[agv1_rfid] type[node_readRFID.py] machine[Machine(name[] env_loader[None] address[localhost] ssh_port[22] user[None] assignable[True] timeout[10.0])] master_uri[http://localhost:11311]
[roslaunch][INFO] 2023-02-09 13:09:31,342: process[RFID-4]: env[{'SHELL': '/bin/bash', 'ROS_VERSION': '1', 'PKG_CONFIG_PATH': '/home/intechAGV/catkin_ws/devel/lib/pkgconfig:/opt/ros/noetic/lib/pkgconfig', 'ROS_PYTHON_VERSION': '3', 'LC_ADDRESS': 'C.UTF-8', 'LC_NAME': 'C.UTF-8', 'LC_MONETARY': 'C.UTF-8', 'ROS_PACKAGE_PATH': '/home/intech/catkin_ws/src:/home/intechAGV/catkin_ws/src:/opt/ros/noetic/share', 'ROSLISP_PACKAGE_DIRECTORIES': '/home/intechAGV/catkin_ws/devel/share/common-lisp', 'PWD': '/home/intechAGV', 'LOGNAME': 'intechAGV', 'XDG_SESSION_TYPE': 'tty', 'MOTD_SHOWN': 'pam', 'HOME': '/home/intechAGV', 'LANG': 'C.UTF-8', 'LC_PAPER': 'C.UTF-8', 'ROS_ETC_DIR': '/opt/ros/noetic/etc/ros', 'LS_COLORS': 'rs=0:di=01;34:ln=01;36:mh=00:pi=40;33:so=01;35:do=01;35:bd=40;33;01:cd=40;33;01:or=40;31;01:mi=00:su=37;41:sg=30;43:ca=30;41:tw=30;42:ow=34;42:st=37;44:ex=01;32:*.tar=01;31:*.tgz=01;31:*.arc=01;31:*.arj=01;31:*.taz=01;31:*.lha=01;31:*.lz4=01;31:*.lzh=01;31:*.lzma=01;31:*.tlz=01;31:*.txz=01;31:*.tzo=01;31:*.t7z=01;31:*.zip=01;31:*.z=01;31:*.dz=01;31:*.gz=01;31:*.lrz=01;31:*.lz=01;31:*.lzo=01;31:*.xz=01;31:*.zst=01;31:*.tzst=01;31:*.bz2=01;31:*.bz=01;31:*.tbz=01;31:*.tbz2=01;31:*.tz=01;31:*.deb=01;31:*.rpm=01;31:*.jar=01;31:*.war=01;31:*.ear=01;31:*.sar=01;31:*.rar=01;31:*.alz=01;31:*.ace=01;31:*.zoo=01;31:*.cpio=01;31:*.7z=01;31:*.rz=01;31:*.cab=01;31:*.wim=01;31:*.swm=01;31:*.dwm=01;31:*.esd=01;31:*.jpg=01;35:*.jpeg=01;35:*.mjpg=01;35:*.mjpeg=01;35:*.gif=01;35:*.bmp=01;35:*.pbm=01;35:*.pgm=01;35:*.ppm=01;35:*.tga=01;35:*.xbm=01;35:*.xpm=01;35:*.tif=01;35:*.tiff=01;35:*.png=01;35:*.svg=01;35:*.svgz=01;35:*.mng=01;35:*.pcx=01;35:*.mov=01;35:*.mpg=01;35:*.mpeg=01;35:*.m2v=01;35:*.mkv=01;35:*.webm=01;35:*.ogm=01;35:*.mp4=01;35:*.m4v=01;35:*.mp4v=01;35:*.vob=01;35:*.qt=01;35:*.nuv=01;35:*.wmv=01;35:*.asf=01;35:*.rm=01;35:*.rmvb=01;35:*.flc=01;35:*.avi=01;35:*.fli=01;35:*.flv=01;35:*.gl=01;35:*.dl=01;35:*.xcf=01;35:*.xwd=01;35:*.yuv=01;35:*.cgm=01;35:*.emf=01;35:*.ogv=01;35:*.ogx=01;35:*.aac=00;36:*.au=00;36:*.flac=00;36:*.m4a=00;36:*.mid=00;36:*.midi=00;36:*.mka=00;36:*.mp3=00;36:*.mpc=00;36:*.ogg=00;36:*.ra=00;36:*.wav=00;36:*.oga=00;36:*.opus=00;36:*.spx=00;36:*.xspf=00;36:', 'CMAKE_PREFIX_PATH': '/home/intechAGV/catkin_ws/devel:/opt/ros/noetic', 'SSH_CONNECTION': '192.168.0.117 55404 192.168.0.120 22', 'LESSCLOSE': '/usr/bin/lesspipe %s %s', 'XDG_SESSION_CLASS': 'user', 'PYTHONPATH': '/home/intechAGV/catkin_ws/devel/lib/python3/dist-packages:/opt/ros/noetic/lib/python3/dist-packages', 'TERM': 'xterm-256color', 'LC_IDENTIFICATION': 'C.UTF-8', 'LESSOPEN': '| /usr/bin/lesspipe %s', 'USER': 'intechAGV', 'SHLVL': '1', 'LC_TELEPHONE': 'C.UTF-8', 'ROS_MASTER_URI': 'http://localhost:11311', 'LC_MEASUREMENT': 'C.UTF-8', 'XDG_SESSION_ID': '1', 'LD_LIBRARY_PATH': '/home/intechAGV/catkin_ws/devel/lib:/opt/ros/noetic/lib', 'XDG_RUNTIME_DIR': '/run/user/1000', 'SSH_CLIENT': '192.168.0.117 55404 22', 'LC_TIME': 'C.UTF-8', 'XDG_DATA_DIRS': '/usr/local/share:/usr/share:/var/lib/snapd/desktop', 'PATH': '/home/intechAGV/.local/bin:/opt/ros/noetic/bin:/usr/local/sbin:/usr/local/bin:/usr/sbin:/usr/bin:/sbin:/bin:/usr/games:/usr/local/games:/snap/bin', 'DBUS_SESSION_BUS_ADDRESS': 'unix:path=/run/user/1000/bus', 'SSH_TTY': '/dev/pts/0', 'ROS_ROOT': '/opt/ros/noetic/share/ros', 'ROS_DISTRO': 'noetic', 'LC_NUMERIC': 'C.UTF-8', '_': '/opt/ros/noetic/bin/roslaunch', 'ROS_LOG_FILENAME': '/home/intechAGV/.ros/log/eb271776-a82c-11ed-bd55-e1e3b81751b7/roslaunch-intechAGV-2635.log'}]
[roslaunch][INFO] 2023-02-09 13:09:31,346: process[RFID-4]: args[['/home/intechAGV/catkin_ws/devel/lib/agv1_rfid/node_readRFID.py', '__name:=RFID']]
[roslaunch][INFO] 2023-02-09 13:09:31,347: ... created process [RFID-4]
[roslaunch.pmon][INFO] 2023-02-09 13:09:31,348: ProcessMonitor.register[RFID-4]
[roslaunch.pmon][INFO] 2023-02-09 13:09:31,349: ProcessMonitor.register[RFID-4] complete
[roslaunch][INFO] 2023-02-09 13:09:31,349: ... registered process [RFID-4]
[roslaunch][INFO] 2023-02-09 13:09:31,350: process[RFID-4]: starting os process
[roslaunch][INFO] 2023-02-09 13:09:31,351: process[RFID-4]: start w/ args [['/home/intechAGV/catkin_ws/devel/lib/agv1_rfid/node_readRFID.py', '__name:=RFID', '__log:=/home/intechAGV/.ros/log/eb271776-a82c-11ed-bd55-e1e3b81751b7/RFID-4.log']]
[roslaunch][INFO] 2023-02-09 13:09:31,352: process[RFID-4]: cwd will be [/home/intechAGV/.ros]
[roslaunch][INFO] 2023-02-09 13:09:31,366: process[RFID-4]: started with pid [2652]
[roslaunch][INFO] 2023-02-09 13:09:31,366: ... successfully launched [RFID-4]
[roslaunch][INFO] 2023-02-09 13:09:31,367: ... preparing to launch node of type [agv1_xbee/node_xbee.py]
[roslaunch][INFO] 2023-02-09 13:09:31,367: create_node_process: package[agv1_xbee] type[node_xbee.py] machine[Machine(name[] env_loader[None] address[localhost] ssh_port[22] user[None] assignable[True] timeout[10.0])] master_uri[http://localhost:11311]
[roslaunch][INFO] 2023-02-09 13:09:31,369: process[xbee-5]: env[{'SHELL': '/bin/bash', 'ROS_VERSION': '1', 'PKG_CONFIG_PATH': '/home/intechAGV/catkin_ws/devel/lib/pkgconfig:/opt/ros/noetic/lib/pkgconfig', 'ROS_PYTHON_VERSION': '3', 'LC_ADDRESS': 'C.UTF-8', 'LC_NAME': 'C.UTF-8', 'LC_MONETARY': 'C.UTF-8', 'ROS_PACKAGE_PATH': '/home/intech/catkin_ws/src:/home/intechAGV/catkin_ws/src:/opt/ros/noetic/share', 'ROSLISP_PACKAGE_DIRECTORIES': '/home/intechAGV/catkin_ws/devel/share/common-lisp', 'PWD': '/home/intechAGV', 'LOGNAME': 'intechAGV', 'XDG_SESSION_TYPE': 'tty', 'MOTD_SHOWN': 'pam', 'HOME': '/home/intechAGV', 'LANG': 'C.UTF-8', 'LC_PAPER': 'C.UTF-8', 'ROS_ETC_DIR': '/opt/ros/noetic/etc/ros', 'LS_COLORS': 'rs=0:di=01;34:ln=01;36:mh=00:pi=40;33:so=01;35:do=01;35:bd=40;33;01:cd=40;33;01:or=40;31;01:mi=00:su=37;41:sg=30;43:ca=30;41:tw=30;42:ow=34;42:st=37;44:ex=01;32:*.tar=01;31:*.tgz=01;31:*.arc=01;31:*.arj=01;31:*.taz=01;31:*.lha=01;31:*.lz4=01;31:*.lzh=01;31:*.lzma=01;31:*.tlz=01;31:*.txz=01;31:*.tzo=01;31:*.t7z=01;31:*.zip=01;31:*.z=01;31:*.dz=01;31:*.gz=01;31:*.lrz=01;31:*.lz=01;31:*.lzo=01;31:*.xz=01;31:*.zst=01;31:*.tzst=01;31:*.bz2=01;31:*.bz=01;31:*.tbz=01;31:*.tbz2=01;31:*.tz=01;31:*.deb=01;31:*.rpm=01;31:*.jar=01;31:*.war=01;31:*.ear=01;31:*.sar=01;31:*.rar=01;31:*.alz=01;31:*.ace=01;31:*.zoo=01;31:*.cpio=01;31:*.7z=01;31:*.rz=01;31:*.cab=01;31:*.wim=01;31:*.swm=01;31:*.dwm=01;31:*.esd=01;31:*.jpg=01;35:*.jpeg=01;35:*.mjpg=01;35:*.mjpeg=01;35:*.gif=01;35:*.bmp=01;35:*.pbm=01;35:*.pgm=01;35:*.ppm=01;35:*.tga=01;35:*.xbm=01;35:*.xpm=01;35:*.tif=01;35:*.tiff=01;35:*.png=01;35:*.svg=01;35:*.svgz=01;35:*.mng=01;35:*.pcx=01;35:*.mov=01;35:*.mpg=01;35:*.mpeg=01;35:*.m2v=01;35:*.mkv=01;35:*.webm=01;35:*.ogm=01;35:*.mp4=01;35:*.m4v=01;35:*.mp4v=01;35:*.vob=01;35:*.qt=01;35:*.nuv=01;35:*.wmv=01;35:*.asf=01;35:*.rm=01;35:*.rmvb=01;35:*.flc=01;35:*.avi=01;35:*.fli=01;35:*.flv=01;35:*.gl=01;35:*.dl=01;35:*.xcf=01;35:*.xwd=01;35:*.yuv=01;35:*.cgm=01;35:*.emf=01;35:*.ogv=01;35:*.ogx=01;35:*.aac=00;36:*.au=00;36:*.flac=00;36:*.m4a=00;36:*.mid=00;36:*.midi=00;36:*.mka=00;36:*.mp3=00;36:*.mpc=00;36:*.ogg=00;36:*.ra=00;36:*.wav=00;36:*.oga=00;36:*.opus=00;36:*.spx=00;36:*.xspf=00;36:', 'CMAKE_PREFIX_PATH': '/home/intechAGV/catkin_ws/devel:/opt/ros/noetic', 'SSH_CONNECTION': '192.168.0.117 55404 192.168.0.120 22', 'LESSCLOSE': '/usr/bin/lesspipe %s %s', 'XDG_SESSION_CLASS': 'user', 'PYTHONPATH': '/home/intechAGV/catkin_ws/devel/lib/python3/dist-packages:/opt/ros/noetic/lib/python3/dist-packages', 'TERM': 'xterm-256color', 'LC_IDENTIFICATION': 'C.UTF-8', 'LESSOPEN': '| /usr/bin/lesspipe %s', 'USER': 'intechAGV', 'SHLVL': '1', 'LC_TELEPHONE': 'C.UTF-8', 'ROS_MASTER_URI': 'http://localhost:11311', 'LC_MEASUREMENT': 'C.UTF-8', 'XDG_SESSION_ID': '1', 'LD_LIBRARY_PATH': '/home/intechAGV/catkin_ws/devel/lib:/opt/ros/noetic/lib', 'XDG_RUNTIME_DIR': '/run/user/1000', 'SSH_CLIENT': '192.168.0.117 55404 22', 'LC_TIME': 'C.UTF-8', 'XDG_DATA_DIRS': '/usr/local/share:/usr/share:/var/lib/snapd/desktop', 'PATH': '/home/intechAGV/.local/bin:/opt/ros/noetic/bin:/usr/local/sbin:/usr/local/bin:/usr/sbin:/usr/bin:/sbin:/bin:/usr/games:/usr/local/games:/snap/bin', 'DBUS_SESSION_BUS_ADDRESS': 'unix:path=/run/user/1000/bus', 'SSH_TTY': '/dev/pts/0', 'ROS_ROOT': '/opt/ros/noetic/share/ros', 'ROS_DISTRO': 'noetic', 'LC_NUMERIC': 'C.UTF-8', '_': '/opt/ros/noetic/bin/roslaunch', 'ROS_LOG_FILENAME': '/home/intechAGV/.ros/log/eb271776-a82c-11ed-bd55-e1e3b81751b7/roslaunch-intechAGV-2635.log'}]
[roslaunch][INFO] 2023-02-09 13:09:31,374: process[xbee-5]: args[['/home/intechAGV/catkin_ws/devel/lib/agv1_xbee/node_xbee.py', '__name:=xbee']]
[roslaunch][INFO] 2023-02-09 13:09:31,375: ... created process [xbee-5]
[roslaunch.pmon][INFO] 2023-02-09 13:09:31,385: ProcessMonitor.register[xbee-5]
[roslaunch.pmon][INFO] 2023-02-09 13:09:31,385: ProcessMonitor.register[xbee-5] complete
[roslaunch][INFO] 2023-02-09 13:09:31,386: ... registered process [xbee-5]
[roslaunch][INFO] 2023-02-09 13:09:31,387: process[xbee-5]: starting os process
[roslaunch][INFO] 2023-02-09 13:09:31,388: process[xbee-5]: start w/ args [['/home/intechAGV/catkin_ws/devel/lib/agv1_xbee/node_xbee.py', '__name:=xbee', '__log:=/home/intechAGV/.ros/log/eb271776-a82c-11ed-bd55-e1e3b81751b7/xbee-5.log']]
[roslaunch][INFO] 2023-02-09 13:09:31,388: process[xbee-5]: cwd will be [/home/intechAGV/.ros]
[roslaunch][INFO] 2023-02-09 13:09:31,430: process[xbee-5]: started with pid [2653]
[roslaunch][INFO] 2023-02-09 13:09:31,431: ... successfully launched [xbee-5]
[roslaunch][INFO] 2023-02-09 13:09:31,431: ... launch_nodes complete
[roslaunch.pmon][INFO] 2023-02-09 13:09:31,432: registrations completed <ProcessMonitor(ProcessMonitor-1, started daemon 281473508303328)>
[roslaunch.parent][INFO] 2023-02-09 13:09:31,432: ... roslaunch parent running, waiting for process exit
[roslaunch][INFO] 2023-02-09 13:09:31,433: spin
[roslaunch.pmon][INFO] 2023-02-09 13:11:21,853: ProcessMonitor.shutdown <ProcessMonitor(ProcessMonitor-1, started daemon 281473508303328)>
[roslaunch.pmon][INFO] 2023-02-09 13:11:21,856: ProcessMonitor._post_run <ProcessMonitor(ProcessMonitor-1, started daemon 281473508303328)>
[roslaunch.pmon][INFO] 2023-02-09 13:11:21,857: ProcessMonitor._post_run <ProcessMonitor(ProcessMonitor-1, started daemon 281473508303328)>: remaining procs are [<roslaunch.nodeprocess.LocalProcess object at 0xffffa8833760>, <roslaunch.nodeprocess.LocalProcess object at 0xffffa8833fa0>, <roslaunch.nodeprocess.LocalProcess object at 0xffffa8833ac0>, <roslaunch.nodeprocess.LocalProcess object at 0xffffa8833d00>, <roslaunch.nodeprocess.LocalProcess object at 0xffffa88337c0>]
[roslaunch.pmon][INFO] 2023-02-09 13:11:21,858: ProcessMonitor exit: killing xbee-5
[roslaunch.pmon][INFO] 2023-02-09 13:11:21,859: ProcessMonitor exit: killing RFID-4
[roslaunch][INFO] 2023-02-09 13:11:21,859: [xbee-5] killing on exit
[roslaunch.pmon][INFO] 2023-02-09 13:11:21,860: ProcessMonitor exit: killing followline-3
[roslaunch][INFO] 2023-02-09 13:11:21,860: [RFID-4] killing on exit
[roslaunch.pmon][INFO] 2023-02-09 13:11:21,861: ProcessMonitor exit: killing gpio-2
[roslaunch.pmon][INFO] 2023-02-09 13:11:21,862: ProcessMonitor exit: killing baseController-1
[roslaunch][INFO] 2023-02-09 13:11:21,862: [followline-3] killing on exit
[roslaunch][INFO] 2023-02-09 13:11:21,862: process[xbee-5]: killing os process with pid[2653] pgid[2653]
[roslaunch][INFO] 2023-02-09 13:11:21,864: [gpio-2] killing on exit
[roslaunch][INFO] 2023-02-09 13:11:21,865: process[RFID-4]: killing os process with pid[2652] pgid[2652]
[roslaunch][INFO] 2023-02-09 13:11:21,866: [baseController-1] killing on exit
[roslaunch][INFO] 2023-02-09 13:11:21,867: process[followline-3]: killing os process with pid[2651] pgid[2651]
[roslaunch][INFO] 2023-02-09 13:11:21,867: [xbee-5] sending SIGINT to pgid [2653]
[roslaunch][INFO] 2023-02-09 13:11:21,868: process[gpio-2]: killing os process with pid[2650] pgid[2650]
[roslaunch][INFO] 2023-02-09 13:11:21,868: [RFID-4] sending SIGINT to pgid [2652]
[roslaunch][INFO] 2023-02-09 13:11:21,868: process[baseController-1]: killing os process with pid[2649] pgid[2649]
[roslaunch][INFO] 2023-02-09 13:11:21,872: [baseController-1] sending SIGINT to pgid [2649]
[roslaunch][INFO] 2023-02-09 13:11:21,869: [xbee-5] sent SIGINT to pgid [2653]
[roslaunch][INFO] 2023-02-09 13:11:21,869: [gpio-2] sending SIGINT to pgid [2650]
[roslaunch][INFO] 2023-02-09 13:11:21,869: [RFID-4] sent SIGINT to pgid [2652]
[roslaunch][INFO] 2023-02-09 13:11:21,872: [baseController-1] sent SIGINT to pgid [2649]
[roslaunch][INFO] 2023-02-09 13:11:21,868: [followline-3] sending SIGINT to pgid [2651]
[roslaunch][INFO] 2023-02-09 13:11:21,875: [gpio-2] sent SIGINT to pgid [2650]
[roslaunch][INFO] 2023-02-09 13:11:21,876: [followline-3] sent SIGINT to pgid [2651]
[roslaunch][INFO] 2023-02-09 13:11:22,779: process[gpio-2]: SIGINT killed with return value 0
[roslaunch][INFO] 2023-02-09 13:11:22,978: process[baseController-1]: SIGINT killed with return value 0
[roslaunch][INFO] 2023-02-09 13:11:23,778: process[RFID-4]: SIGINT killed with return value 0
[roslaunch][INFO] 2023-02-09 13:11:23,779: process[xbee-5]: SIGINT killed with return value 0
[roslaunch][INFO] 2023-02-09 13:11:24,784: process[followline-3]: SIGINT killed with return value 0
[roslaunch.pmon][INFO] 2023-02-09 13:11:24,785: ProcessMonitor exit: cleaning up data structures and signals
[roslaunch.pmon][INFO] 2023-02-09 13:11:24,786: ProcessMonitor exit: pmon has shutdown
[roslaunch][INFO] 2023-02-09 13:11:24,786: process monitor is done spinning, initiating full shutdown
[roslaunch][INFO] 2023-02-09 13:11:24,787: runner.stop()
[roslaunch][INFO] 2023-02-09 13:11:24,787: shutting down processing monitor...
[roslaunch][INFO] 2023-02-09 13:11:24,788: shutting down processing monitor <ProcessMonitor(ProcessMonitor-1, stopped daemon 281473508303328)>
[roslaunch.pmon][INFO] 2023-02-09 13:11:24,788: ProcessMonitor.shutdown <ProcessMonitor(ProcessMonitor-1, stopped daemon 281473508303328)>
[roslaunch][INFO] 2023-02-09 13:11:24,789: ... shutting down processing monitor complete
[roslaunch][INFO] 2023-02-09 13:11:24,789: done
[roslaunch.pmon][INFO] 2023-02-09 13:11:24,790: ProcessMonitor.shutdown <ProcessMonitor(ProcessMonitor-1, stopped daemon 281473508303328)>
[rospy.core][INFO] 2023-02-09 13:11:24,791: signal_shutdown [atexit]
