

1675914641.620800476  Node Startup
1675914646.482494831 INFO /followline [node_followline.py:118(<module>)] [topics: /rosout] /followline started
1675914646.727035760 INFO /xbee [node_xbee.py:290(<module>)] [topics: /rosout] /xbee started
1675914646.690959930 INFO /RFID [node_readRFID.py:65(<module>)] [topics: /rosout] /RFID started
1675914647.214211702 INFO /gpio [node_gpio.py:115(<module>)] [topics: /rosout] /gpio started
1675914647.263262748 INFO /baseController [node_base_controller.py:175(<module>)] [topics: /rosout] /baseController started
1675914658.330537319 INFO /teleop_key [teleop_key.py:88(<module>)] [topics: /rosout] /teleop_key started 

1675914697.049580097 INFO /AGV1_MASTER [node_master.py:578(<module>)] [topics: /rosout] /AGV1_MASTER started
1675922275.722856521 INFO /teleop_key [teleop_key.py:88(<module>)] [topics: /rosout] /teleop_key started 

1675922307.007280349 INFO /AGV1_MASTER [node_master.py:578(<module>)] [topics: /rosout] /AGV1_MASTER started
1675922821.984328269 INFO /followline [node_followline.py:118(<module>)] [topics: /rosout] /followline started
1675922821.950515747 INFO /xbee [node_xbee.py:290(<module>)] [topics: /rosout] /xbee started
1675922822.071687221 INFO /RFID [node_readRFID.py:65(<module>)] [topics: /rosout] /RFID started
1675922822.468438863 INFO /gpio [node_gpio.py:115(<module>)] [topics: /rosout] /gpio started
1675922822.519073724 INFO /baseController [node_base_controller.py:175(<module>)] [topics: /rosout] /baseController started
1675922874.995623350 INFO /followline [node_followline.py:118(<module>)] [topics: /rosout] /followline started
1675922874.978306531 INFO /RFID [node_readRFID.py:65(<module>)] [topics: /rosout] /RFID started
1675922875.114689588 INFO /xbee [node_xbee.py:290(<module>)] [topics: /rosout] /xbee started
1675922875.465547800 INFO /baseController [node_base_controller.py:175(<module>)] [topics: /rosout] /baseController started
1675922875.591124773 INFO /gpio [node_gpio.py:115(<module>)] [topics: /rosout] /gpio started
1675922972.873994350 INFO /followline [node_followline.py:118(<module>)] [topics: /rosout] /followline started
1675922973.065304517 INFO /RFID [node_readRFID.py:65(<module>)] [topics: /rosout] /RFID started
1675922973.179192781 INFO /xbee [node_xbee.py:290(<module>)] [topics: /rosout] /xbee started
1675922973.532412528 INFO /gpio [node_gpio.py:115(<module>)] [topics: /rosout] /gpio started
1675922973.619676589 INFO /baseController [node_base_controller.py:175(<module>)] [topics: /rosout] /baseController started
1675923142.034027576 INFO /RFID [node_readRFID.py:65(<module>)] [topics: /rosout] /RFID started
1675923142.175015926 INFO /xbee [node_xbee.py:290(<module>)] [topics: /rosout] /xbee started
1675923142.203171491 INFO /followline [node_followline.py:118(<module>)] [topics: /rosout] /followline started
1675923142.471492528 INFO /baseController [node_base_controller.py:175(<module>)] [topics: /rosout] /baseController started
1675923142.595231056 INFO /gpio [node_gpio.py:115(<module>)] [topics: /rosout] /gpio started
1675924572.104611873 INFO /followline [node_followline.py:118(<module>)] [topics: /rosout] /followline started
1675924572.131450653 INFO /RFID [node_readRFID.py:65(<module>)] [topics: /rosout] /RFID started
1675924572.310522317 INFO /xbee [node_xbee.py:290(<module>)] [topics: /rosout] /xbee started
1675924572.659658908 INFO /gpio [node_gpio.py:115(<module>)] [topics: /rosout] /gpio started
1675924572.746114253 INFO /baseController [node_base_controller.py:175(<module>)] [topics: /rosout] /baseController started
1675924596.627288818 INFO /followline [node_followline.py:118(<module>)] [topics: /rosout] /followline started
1675924596.720625877 INFO /RFID [node_readRFID.py:65(<module>)] [topics: /rosout] /RFID started
1675924596.751988410 INFO /xbee [node_xbee.py:290(<module>)] [topics: /rosout] /xbee started
1675924597.047034025 INFO /gpio [node_gpio.py:115(<module>)] [topics: /rosout] /gpio started
1675924597.108682394 INFO /baseController [node_base_controller.py:175(<module>)] [topics: /rosout] /baseController started
1675924635.831017494 INFO /followline [node_followline.py:118(<module>)] [topics: /rosout] /followline started
1675924636.054153442 INFO /RFID [node_readRFID.py:65(<module>)] [topics: /rosout] /RFID started
1675924636.164601087 INFO /xbee [node_xbee.py:290(<module>)] [topics: /rosout] /xbee started
1675924636.508119821 INFO /baseController [node_base_controller.py:175(<module>)] [topics: /rosout] /baseController started
1675924636.501932621 INFO /gpio [node_gpio.py:115(<module>)] [topics: /rosout] /gpio started
1675924793.862156867 INFO /followline [node_followline.py:118(<module>)] [topics: /rosout] /followline started
1675924793.958972692 INFO /RFID [node_readRFID.py:65(<module>)] [topics: /rosout] /RFID started
1675924794.235421419 INFO /gpio [node_gpio.py:115(<module>)] [topics: /rosout] /gpio started
1675924794.362219572 INFO /baseController [node_base_controller.py:175(<module>)] [topics: /rosout] /baseController started
1675924862.501281023 INFO /RFID [node_readRFID.py:65(<module>)] [topics: /rosout] /RFID started
1675924862.572869300 INFO /followline [node_followline.py:118(<module>)] [topics: /rosout] /followline started
1675924862.921323776 INFO /gpio [node_gpio.py:115(<module>)] [topics: /rosout] /gpio started
1675924862.927878618 INFO /baseController [node_base_controller.py:175(<module>)] [topics: /rosout] /baseController started
1675924906.457337379 INFO /followline [node_followline.py:118(<module>)] [topics: /rosout] /followline started
1675924906.541755437 INFO /xbee [node_xbee.py:290(<module>)] [topics: /rosout] /xbee started
1675924906.534602165 INFO /RFID [node_readRFID.py:65(<module>)] [topics: /rosout] /RFID started
1675924906.818300008 INFO /baseController [node_base_controller.py:175(<module>)] [topics: /rosout] /baseController started
1675924906.838762998 INFO /gpio [node_gpio.py:115(<module>)] [topics: /rosout] /gpio started
