

1675302168.497791915  Node Startup
1675302186.626739501 INFO /RFID [node_readRFID.py:65(<module>)] [topics: /rosout] /RFID started
1675302186.810226202 INFO /xbee [node_xbee.py:411(<module>)] [topics: /rosout] /xbee started
1675302186.866151571 INFO /followline [node_followline.py:118(<module>)] [topics: /rosout] /followline started
1675302187.186127901 INFO /gpio [node_gpio.py:115(<module>)] [topics: /rosout] /gpio started
1675302187.348520517 INFO /baseController [node_base_controller.py:175(<module>)] [topics: /rosout] /baseController started
