[rospy.client][INFO] 2023-02-02 08:43:06,674: init_node, name[/xbee], pid[1970]
[xmlrpc][INFO] 2023-02-02 08:43:06,676: XML-RPC server binding to 0.0.0.0:0
[xmlrpc][INFO] 2023-02-02 08:43:06,678: Started XML-RPC server [http://intechAGV:35679/]
[rospy.init][INFO] 2023-02-02 08:43:06,679: ROS Slave URI: [http://intechAGV:35679/]
[rospy.impl.masterslave][INFO] 2023-02-02 08:43:06,679: _ready: http://intechAGV:35679/
[rospy.registration][INFO] 2023-02-02 08:43:06,682: Registering with master node http://localhost:11311
[xmlrpc][INFO] 2023-02-02 08:43:06,683: xml rpc node: starting XML-RPC server
[rospy.init][INFO] 2023-02-02 08:43:06,780: registered with master
[rospy.rosout][INFO] 2023-02-02 08:43:06,781: initializing /rosout core topic
[rospy.rosout][INFO] 2023-02-02 08:43:06,792: connected to core topic /rosout
[rospy.simtime][INFO] 2023-02-02 08:43:06,795: /use_sim_time is not set, will not subscribe to simulated time [/clock] topic
[rosout][INFO] 2023-02-02 08:43:06,805: /xbee started
[rospy.internal][INFO] 2023-02-02 08:43:06,937: topic[/xbeeConveyor_topic] adding connection to [http://intechAGV:35679/], count 0
[rospy.internal][INFO] 2023-02-02 08:43:06,949: topic[/xbeeConveyor_topic] adding connection to [/xbee], count 0
[rospy.internal][INFO] 2023-02-02 08:43:07,033: topic[/rosout] adding connection to [/rosout], count 0
[rospy.internal][INFO] 2023-02-02 08:43:07,210: topic[/conveyor_topic] adding connection to [/gpio], count 0
[rospy.core][INFO] 2023-02-02 10:29:35,589: signal_shutdown [signal-15]
