[rosmaster.main][INFO] 2023-02-13 16:11:34,400: initialization complete, waiting for shutdown
[rosmaster.main][INFO] 2023-02-13 16:11:34,401: Starting ROS Master Node
[xmlrpc][INFO] 2023-02-13 16:11:34,402: XML-RPC server binding to 0.0.0.0:11311
[xmlrpc][INFO] 2023-02-13 16:11:34,403: Started XML-RPC server [http://intechAGV:11311/]
[rosmaster.master][INFO] 2023-02-13 16:11:34,403: Master initialized: port[11311], uri[http://intechAGV:11311/]
[xmlrpc][INFO] 2023-02-13 16:11:34,403: xml rpc node: starting XML-RPC server
[rosmaster.master][INFO] 2023-02-13 16:11:34,464: +PARAM [/run_id] by /roslaunch
[rosmaster.master][INFO] 2023-02-13 16:11:34,467: +PARAM [/roslaunch/uris/host_intechagv__43609] by /roslaunch
[rosmaster.master][INFO] 2023-02-13 16:11:34,550: +PARAM [/rosversion] by /roslaunch
[rosmaster.master][INFO] 2023-02-13 16:11:34,550: +PARAM [/rosdistro] by /roslaunch
[rosmaster.master][INFO] 2023-02-13 16:11:34,551: +PARAM [/baseController/nameTopic_cmd_vel] by /roslaunch
[rosmaster.master][INFO] 2023-02-13 16:11:34,551: +PARAM [/baseController/rate] by /roslaunch
[rosmaster.master][INFO] 2023-02-13 16:11:34,551: +PARAM [/gpio/rate] by /roslaunch
[rosmaster.master][INFO] 2023-02-13 16:11:34,552: +PARAM [/followline/port_fl_forward] by /roslaunch
[rosmaster.master][INFO] 2023-02-13 16:11:34,552: +PARAM [/followline/port_fl_backward] by /roslaunch
[rosmaster.master][INFO] 2023-02-13 16:11:34,552: +PARAM [/followline/rate] by /roslaunch
[rosmaster.master][INFO] 2023-02-13 16:11:34,553: +PARAM [/RFID/port_RFID] by /roslaunch
[rosmaster.master][INFO] 2023-02-13 16:11:34,553: +PARAM [/RFID/rate] by /roslaunch
[rosmaster.master][INFO] 2023-02-13 16:11:34,554: +PARAM [/xbee/port_xbee] by /roslaunch
[rosmaster.master][INFO] 2023-02-13 16:11:34,554: +PARAM [/xbee/rate] by /roslaunch
[rosmaster.master][INFO] 2023-02-13 16:11:34,592: +SERVICE [/rosout/get_loggers] /rosout http://intechAGV:43241/
[rosmaster.master][INFO] 2023-02-13 16:11:34,595: +SERVICE [/rosout/set_logger_level] /rosout http://intechAGV:43241/
[rosmaster.master][INFO] 2023-02-13 16:11:34,602: +PUB [/rosout_agg] /rosout http://intechAGV:43241/
[rosmaster.master][INFO] 2023-02-13 16:11:34,615: +SUB [/rosout] /rosout http://intechAGV:43241/
[rosmaster.master][INFO] 2023-02-13 16:11:36,353: +PUB [/rosout] /RFID http://intechAGV:42995/
[rosmaster.master][INFO] 2023-02-13 16:11:36,361: +SERVICE [/RFID/get_loggers] /RFID http://intechAGV:42995/
[rosmaster.master][INFO] 2023-02-13 16:11:36,365: +SERVICE [/RFID/set_logger_level] /RFID http://intechAGV:42995/
[rosmaster.master][INFO] 2023-02-13 16:11:36,369: +CACHEDPARAM [/rosout_disable_topics_generation] by /RFID
[rosmaster.master][INFO] 2023-02-13 16:11:36,399: +PUB [/rosout] /followline http://intechAGV:38983/
[rosmaster.master][INFO] 2023-02-13 16:11:36,404: +PUB [/rfid_topic] /RFID http://intechAGV:42995/
[rosmaster.master][INFO] 2023-02-13 16:11:36,407: +PUB [/rosout] /xbee http://intechAGV:44065/
[rosmaster.master][INFO] 2023-02-13 16:11:36,408: publisherUpdate[/rosout] -> http://intechAGV:43241/ ['http://intechAGV:42995/']
[rosmaster.master][INFO] 2023-02-13 16:11:36,420: +SERVICE [/followline/get_loggers] /followline http://intechAGV:38983/
[rosmaster.master][INFO] 2023-02-13 16:11:36,426: +SERVICE [/followline/set_logger_level] /followline http://intechAGV:38983/
[rosmaster.master][INFO] 2023-02-13 16:11:36,429: publisherUpdate[/rosout] -> http://intechAGV:43241/ ['http://intechAGV:42995/']: sec=0.02, result=[1, '', 0]
[rosmaster.master][INFO] 2023-02-13 16:11:36,431: publisherUpdate[/rosout] -> http://intechAGV:43241/ ['http://intechAGV:42995/', 'http://intechAGV:38983/']
[rosmaster.master][INFO] 2023-02-13 16:11:36,432: +SERVICE [/xbee/get_loggers] /xbee http://intechAGV:44065/
[rosmaster.master][INFO] 2023-02-13 16:11:36,438: +CACHEDPARAM [/rosout_disable_topics_generation] by /followline
[rosmaster.master][INFO] 2023-02-13 16:11:36,442: +SERVICE [/xbee/set_logger_level] /xbee http://intechAGV:44065/
[rosmaster.master][INFO] 2023-02-13 16:11:36,440: publisherUpdate[/rosout] -> http://intechAGV:43241/ ['http://intechAGV:42995/', 'http://intechAGV:38983/']: sec=0.01, result=[1, '', 0]
[rosmaster.master][INFO] 2023-02-13 16:11:36,448: publisherUpdate[/rosout] -> http://intechAGV:43241/ ['http://intechAGV:42995/', 'http://intechAGV:38983/', 'http://intechAGV:44065/']
[rosmaster.master][INFO] 2023-02-13 16:11:36,447: +CACHEDPARAM [/rosout_disable_topics_generation] by /xbee
[rosmaster.master][INFO] 2023-02-13 16:11:36,452: publisherUpdate[/rosout] -> http://intechAGV:43241/ ['http://intechAGV:42995/', 'http://intechAGV:38983/', 'http://intechAGV:44065/']: sec=0.00, result=[1, '', 0]
[rosmaster.master][INFO] 2023-02-13 16:11:36,462: +SUB [/xbeeConveyor_topic] /xbee http://intechAGV:44065/
[rosmaster.master][INFO] 2023-02-13 16:11:36,467: +PUB [/xbeeConveyor_topic] /xbee http://intechAGV:44065/
[rosmaster.master][INFO] 2023-02-13 16:11:36,471: +PUB [/conveyor_topic] /xbee http://intechAGV:44065/
[rosmaster.master][INFO] 2023-02-13 16:11:36,476: +PUB [/followline_topic] /followline http://intechAGV:38983/
[rosmaster.master][INFO] 2023-02-13 16:11:36,508: publisherUpdate[/xbeeConveyor_topic] -> http://intechAGV:44065/ ['http://intechAGV:44065/']
[rosmaster.master][INFO] 2023-02-13 16:11:36,513: publisherUpdate[/xbeeConveyor_topic] -> http://intechAGV:44065/ ['http://intechAGV:44065/']: sec=0.00, result=[1, '', 0]
[rosmaster.master][INFO] 2023-02-13 16:11:36,664: +CACHEDPARAM [/rosout/omit_topics] by /rosout
[rosmaster.master][INFO] 2023-02-13 16:11:36,890: +PUB [/rosout] /baseController http://intechAGV:45307/
[rosmaster.master][INFO] 2023-02-13 16:11:36,897: +SERVICE [/baseController/get_loggers] /baseController http://intechAGV:45307/
[rosmaster.master][INFO] 2023-02-13 16:11:36,900: +SERVICE [/baseController/set_logger_level] /baseController http://intechAGV:45307/
[rosmaster.master][INFO] 2023-02-13 16:11:36,903: +CACHEDPARAM [/rosout_disable_topics_generation] by /baseController
[rosmaster.master][INFO] 2023-02-13 16:11:36,910: publisherUpdate[/rosout] -> http://intechAGV:43241/ ['http://intechAGV:42995/', 'http://intechAGV:38983/', 'http://intechAGV:44065/', 'http://intechAGV:45307/']
[rosmaster.master][INFO] 2023-02-13 16:11:36,914: publisherUpdate[/rosout] -> http://intechAGV:43241/ ['http://intechAGV:42995/', 'http://intechAGV:38983/', 'http://intechAGV:44065/', 'http://intechAGV:45307/']: sec=0.00, result=[1, '', 0]
[rosmaster.master][INFO] 2023-02-13 16:11:36,916: +SUB [/cmd_vel] /baseController http://intechAGV:45307/
[rosmaster.master][INFO] 2023-02-13 16:11:36,999: +PUB [/rosout] /gpio http://intechAGV:43447/
[rosmaster.master][INFO] 2023-02-13 16:11:37,007: +SERVICE [/gpio/get_loggers] /gpio http://intechAGV:43447/
[rosmaster.master][INFO] 2023-02-13 16:11:37,010: +SERVICE [/gpio/set_logger_level] /gpio http://intechAGV:43447/
[rosmaster.master][INFO] 2023-02-13 16:11:37,014: +CACHEDPARAM [/rosout_disable_topics_generation] by /gpio
[rosmaster.master][INFO] 2023-02-13 16:11:37,016: publisherUpdate[/rosout] -> http://intechAGV:43241/ ['http://intechAGV:42995/', 'http://intechAGV:38983/', 'http://intechAGV:44065/', 'http://intechAGV:45307/', 'http://intechAGV:43447/']
[rosmaster.master][INFO] 2023-02-13 16:11:37,021: publisherUpdate[/rosout] -> http://intechAGV:43241/ ['http://intechAGV:42995/', 'http://intechAGV:38983/', 'http://intechAGV:44065/', 'http://intechAGV:45307/', 'http://intechAGV:43447/']: sec=0.00, result=[1, '', 0]
[rosmaster.master][INFO] 2023-02-13 16:11:37,022: +SUB [/conveyor_topic] /gpio http://intechAGV:43447/
[rosmaster.master][INFO] 2023-02-13 16:11:37,031: +SUB [/speaker_topic] /gpio http://intechAGV:43447/
[rosmaster.master][INFO] 2023-02-13 16:11:37,035: +PUB [/safety_topic] /gpio http://intechAGV:43447/
[rosmaster.master][INFO] 2023-02-13 16:11:40,764: +PUB [/rosout] /teleop_key http://intechAGV:41493/
[rosmaster.master][INFO] 2023-02-13 16:11:40,772: +SERVICE [/teleop_key/get_loggers] /teleop_key http://intechAGV:41493/
[rosmaster.master][INFO] 2023-02-13 16:11:40,775: +SERVICE [/teleop_key/set_logger_level] /teleop_key http://intechAGV:41493/
[rosmaster.master][INFO] 2023-02-13 16:11:40,778: +CACHEDPARAM [/rosout_disable_topics_generation] by /teleop_key
[rosmaster.master][INFO] 2023-02-13 16:11:40,781: +PUB [/cmd_vel] /teleop_key http://intechAGV:41493/
[rosmaster.master][INFO] 2023-02-13 16:11:40,823: publisherUpdate[/rosout] -> http://intechAGV:43241/ ['http://intechAGV:42995/', 'http://intechAGV:38983/', 'http://intechAGV:44065/', 'http://intechAGV:45307/', 'http://intechAGV:43447/', 'http://intechAGV:41493/']
[rosmaster.master][INFO] 2023-02-13 16:11:40,826: publisherUpdate[/rosout] -> http://intechAGV:43241/ ['http://intechAGV:42995/', 'http://intechAGV:38983/', 'http://intechAGV:44065/', 'http://intechAGV:45307/', 'http://intechAGV:43447/', 'http://intechAGV:41493/']: sec=0.00, result=[1, '', 0]
[rosmaster.master][INFO] 2023-02-13 16:11:40,827: publisherUpdate[/cmd_vel] -> http://intechAGV:45307/ ['http://intechAGV:41493/']
[rosmaster.master][INFO] 2023-02-13 16:11:40,832: publisherUpdate[/cmd_vel] -> http://intechAGV:45307/ ['http://intechAGV:41493/']: sec=0.01, result=[1, '', 0]
[rosmaster.master][INFO] 2023-02-13 16:12:32,027: -PUB [/rosout] /teleop_key http://intechAGV:41493/
[rosmaster.master][INFO] 2023-02-13 16:12:32,028: -PUB [/cmd_vel] /teleop_key http://intechAGV:41493/
[rosmaster.master][INFO] 2023-02-13 16:12:32,029: -SERVICE [/teleop_key/get_loggers] /teleop_key rosrpc://intechAGV:40677
[rosmaster.master][INFO] 2023-02-13 16:12:32,029: -SERVICE [/teleop_key/set_logger_level] /teleop_key rosrpc://intechAGV:40677
[rosmaster.master][INFO] 2023-02-13 16:12:32,056: publisherUpdate[/rosout] -> http://intechAGV:43241/ ['http://intechAGV:42995/', 'http://intechAGV:38983/', 'http://intechAGV:44065/', 'http://intechAGV:45307/', 'http://intechAGV:43447/']
[rosmaster.master][INFO] 2023-02-13 16:12:32,059: publisherUpdate[/rosout] -> http://intechAGV:43241/ ['http://intechAGV:42995/', 'http://intechAGV:38983/', 'http://intechAGV:44065/', 'http://intechAGV:45307/', 'http://intechAGV:43447/']: sec=0.00, result=[1, '', 0]
[rosmaster.master][INFO] 2023-02-13 16:12:32,060: publisherUpdate[/cmd_vel] -> http://intechAGV:45307/ []
[rosmaster.master][INFO] 2023-02-13 16:12:32,065: publisherUpdate[/cmd_vel] -> http://intechAGV:45307/ []: sec=0.00, result=[1, '', 0]
[rosmaster.master][INFO] 2023-02-13 16:18:34,395: -SUB [/xbeeConveyor_topic] /xbee http://intechAGV:44065/
[rosmaster.master][INFO] 2023-02-13 16:18:34,395: -PUB [/rosout] /xbee http://intechAGV:44065/
[rosmaster.master][INFO] 2023-02-13 16:18:34,399: publisherUpdate[/rosout] -> http://intechAGV:43241/ ['http://intechAGV:42995/', 'http://intechAGV:38983/', 'http://intechAGV:45307/', 'http://intechAGV:43447/']
[rosmaster.master][INFO] 2023-02-13 16:18:34,403: -SUB [/conveyor_topic] /gpio http://intechAGV:43447/
[rosmaster.master][INFO] 2023-02-13 16:18:34,404: -SUB [/speaker_topic] /gpio http://intechAGV:43447/
[rosmaster.master][INFO] 2023-02-13 16:18:34,405: publisherUpdate[/rosout] -> http://intechAGV:43241/ ['http://intechAGV:42995/', 'http://intechAGV:38983/', 'http://intechAGV:45307/', 'http://intechAGV:43447/']: sec=0.00, result=[1, '', 0]
[rosmaster.master][INFO] 2023-02-13 16:18:34,405: -PUB [/xbeeConveyor_topic] /xbee http://intechAGV:44065/
[rosmaster.master][INFO] 2023-02-13 16:18:34,406: -PUB [/rosout] /RFID http://intechAGV:42995/
[rosmaster.master][INFO] 2023-02-13 16:18:34,406: -SUB [/cmd_vel] /baseController http://intechAGV:45307/
[rosmaster.master][INFO] 2023-02-13 16:18:34,406: -PUB [/rosout] /followline http://intechAGV:38983/
[rosmaster.master][INFO] 2023-02-13 16:18:34,407: -PUB [/rosout] /gpio http://intechAGV:43447/
[rosmaster.master][INFO] 2023-02-13 16:18:34,407: -PUB [/conveyor_topic] /xbee http://intechAGV:44065/
[rosmaster.master][INFO] 2023-02-13 16:18:34,408: -PUB [/rfid_topic] /RFID http://intechAGV:42995/
[rosmaster.master][INFO] 2023-02-13 16:18:34,408: -PUB [/rosout] /baseController http://intechAGV:45307/
[rosmaster.master][INFO] 2023-02-13 16:18:34,408: -PUB [/followline_topic] /followline http://intechAGV:38983/
[rosmaster.master][INFO] 2023-02-13 16:18:34,409: -PUB [/safety_topic] /gpio http://intechAGV:43447/
[rosmaster.master][INFO] 2023-02-13 16:18:34,409: -SERVICE [/xbee/get_loggers] /xbee rosrpc://intechAGV:35651
[rosmaster.master][INFO] 2023-02-13 16:18:34,409: -SERVICE [/RFID/get_loggers] /RFID rosrpc://intechAGV:44903
[rosmaster.master][INFO] 2023-02-13 16:18:34,410: -SERVICE [/baseController/get_loggers] /baseController rosrpc://intechAGV:45789
[rosmaster.master][INFO] 2023-02-13 16:18:34,410: -SERVICE [/followline/get_loggers] /followline rosrpc://intechAGV:43451
[rosmaster.master][INFO] 2023-02-13 16:18:34,410: -SERVICE [/gpio/get_loggers] /gpio rosrpc://intechAGV:38943
[rosmaster.master][INFO] 2023-02-13 16:18:34,411: -SERVICE [/xbee/set_logger_level] /xbee rosrpc://intechAGV:35651
[rosmaster.master][INFO] 2023-02-13 16:18:34,412: -SERVICE [/RFID/set_logger_level] /RFID rosrpc://intechAGV:44903
[rosmaster.master][INFO] 2023-02-13 16:18:34,413: -SERVICE [/baseController/set_logger_level] /baseController rosrpc://intechAGV:45789
[rosmaster.master][INFO] 2023-02-13 16:18:34,414: -SERVICE [/followline/set_logger_level] /followline rosrpc://intechAGV:43451
[rosmaster.master][INFO] 2023-02-13 16:18:34,424: -SERVICE [/gpio/set_logger_level] /gpio rosrpc://intechAGV:38943
[rosmaster.master][INFO] 2023-02-13 16:18:34,429: publisherUpdate[/rosout] -> http://intechAGV:43241/ ['http://intechAGV:38983/', 'http://intechAGV:45307/', 'http://intechAGV:43447/']
[rosmaster.master][INFO] 2023-02-13 16:18:34,431: publisherUpdate[/rosout] -> http://intechAGV:43241/ ['http://intechAGV:38983/', 'http://intechAGV:45307/', 'http://intechAGV:43447/']: sec=0.00, result=[1, '', 0]
[rosmaster.master][INFO] 2023-02-13 16:18:34,432: publisherUpdate[/rosout] -> http://intechAGV:43241/ ['http://intechAGV:45307/', 'http://intechAGV:43447/']
[rosmaster.master][INFO] 2023-02-13 16:18:34,433: publisherUpdate[/rosout] -> http://intechAGV:43241/ ['http://intechAGV:45307/', 'http://intechAGV:43447/']: sec=0.00, result=[1, '', 0]
[rosmaster.master][INFO] 2023-02-13 16:18:34,434: publisherUpdate[/rosout] -> http://intechAGV:43241/ ['http://intechAGV:45307/']
[rosmaster.master][INFO] 2023-02-13 16:18:34,435: publisherUpdate[/rosout] -> http://intechAGV:43241/ ['http://intechAGV:45307/']: sec=0.00, result=[1, '', 0]
[rosmaster.master][INFO] 2023-02-13 16:18:34,436: publisherUpdate[/rosout] -> http://intechAGV:43241/ []
[rosmaster.master][INFO] 2023-02-13 16:18:34,437: publisherUpdate[/rosout] -> http://intechAGV:43241/ []: sec=0.00, result=[1, '', 0]
[rosmaster.master][INFO] 2023-02-13 16:18:37,442: -PUB [/rosout_agg] /rosout http://intechAGV:43241/
[rosmaster.master][INFO] 2023-02-13 16:18:37,444: -SUB [/rosout] /rosout http://intechAGV:43241/
[rosmaster.master][INFO] 2023-02-13 16:18:37,445: -SERVICE [/rosout/get_loggers] /rosout rosrpc://intechAGV:55531
[rosmaster.master][INFO] 2023-02-13 16:18:37,447: -SERVICE [/rosout/set_logger_level] /rosout rosrpc://intechAGV:55531
[rosmaster.master][INFO] 2023-02-13 16:18:37,448: -CACHEDPARAM [/rosout/omit_topics] by /rosout
[rosmaster.main][INFO] 2023-02-13 16:18:37,509: keyboard interrupt, will exit
[rosmaster.main][INFO] 2023-02-13 16:18:37,510: stopping master...
[rospy.core][INFO] 2023-02-13 16:18:37,511: signal_shutdown [atexit]
