[rosmaster.main][INFO] 2023-02-02 10:31:57,731: initialization complete, waiting for shutdown
[rosmaster.main][INFO] 2023-02-02 10:31:57,732: Starting ROS Master Node
[xmlrpc][INFO] 2023-02-02 10:31:57,733: XML-RPC server binding to 0.0.0.0:11311
[xmlrpc][INFO] 2023-02-02 10:31:57,734: Started XML-RPC server [http://intechAGV:11311/]
[rosmaster.master][INFO] 2023-02-02 10:31:57,734: Master initialized: port[11311], uri[http://intechAGV:11311/]
[xmlrpc][INFO] 2023-02-02 10:31:57,735: xml rpc node: starting XML-RPC server
[rosmaster.master][INFO] 2023-02-02 10:31:57,797: +PARAM [/run_id] by /roslaunch
[rosmaster.master][INFO] 2023-02-02 10:31:57,801: +PARAM [/roslaunch/uris/host_intechagv__36901] by /roslaunch
[rosmaster.master][INFO] 2023-02-02 10:31:57,894: +PARAM [/rosversion] by /roslaunch
[rosmaster.master][INFO] 2023-02-02 10:31:57,894: +PARAM [/rosdistro] by /roslaunch
[rosmaster.master][INFO] 2023-02-02 10:31:58,165: +SERVICE [/rosout/get_loggers] /rosout http://intechAGV:43865/
[rosmaster.master][INFO] 2023-02-02 10:31:58,166: +SERVICE [/rosout/set_logger_level] /rosout http://intechAGV:43865/
[rosmaster.master][INFO] 2023-02-02 10:31:58,169: +PUB [/rosout_agg] /rosout http://intechAGV:43865/
[rosmaster.master][INFO] 2023-02-02 10:31:58,175: +SUB [/rosout] /rosout http://intechAGV:43865/
