[rospy.client][INFO] 2022-11-15 14:52:00,107: init_node, name[/baseController], pid[1451]
[xmlrpc][INFO] 2022-11-15 14:52:00,108: XML-RPC server binding to 0.0.0.0:0
[xmlrpc][INFO] 2022-11-15 14:52:00,109: Started XML-RPC server [http://robotAGV1:43809/]
[rospy.init][INFO] 2022-11-15 14:52:00,109: ROS Slave URI: [http://robotAGV1:43809/]
[rospy.impl.masterslave][INFO] 2022-11-15 14:52:00,109: _ready: http://robotAGV1:43809/
[rospy.registration][INFO] 2022-11-15 14:52:00,111: Registering with master node http://localhost:11311
[xmlrpc][INFO] 2022-11-15 14:52:00,111: xml rpc node: starting XML-RPC server
[rospy.init][INFO] 2022-11-15 14:52:00,210: registered with master
[rospy.rosout][INFO] 2022-11-15 14:52:00,210: initializing /rosout core topic
[rospy.rosout][INFO] 2022-11-15 14:52:00,219: connected to core topic /rosout
[rospy.simtime][INFO] 2022-11-15 14:52:00,221: /use_sim_time is not set, will not subscribe to simulated time [/clock] topic
[rosout][INFO] 2022-11-15 14:52:00,228: /baseController started
[rospy.internal][INFO] 2022-11-15 14:52:00,492: topic[/rosout] adding connection to [/rosout], count 0
[rospy.internal][INFO] 2022-11-15 14:52:28,852: topic[/cmd_vel] adding connection to [http://robotAGV1:45787/], count 0
[rospy.internal][INFO] 2022-11-15 17:36:50,874: topic[/cmd_vel] removing connection to http://robotAGV1:45787/
