[rospy.client][INFO] 2023-02-08 16:40:58,382: init_node, name[/RFID], pid[3249]
[xmlrpc][INFO] 2023-02-08 16:40:58,383: XML-RPC server binding to 0.0.0.0:0
[xmlrpc][INFO] 2023-02-08 16:40:58,386: Started XML-RPC server [http://intechAGV:38943/]
[rospy.init][INFO] 2023-02-08 16:40:58,387: ROS Slave URI: [http://intechAGV:38943/]
[rospy.impl.masterslave][INFO] 2023-02-08 16:40:58,388: _ready: http://intechAGV:38943/
[rospy.registration][INFO] 2023-02-08 16:40:58,402: Registering with master node http://localhost:11311
[xmlrpc][INFO] 2023-02-08 16:40:58,403: xml rpc node: starting XML-RPC server
[rospy.init][INFO] 2023-02-08 16:40:58,489: registered with master
[rospy.rosout][INFO] 2023-02-08 16:40:58,489: initializing /rosout core topic
[rospy.rosout][INFO] 2023-02-08 16:40:58,506: connected to core topic /rosout
[rospy.simtime][INFO] 2023-02-08 16:40:58,511: /use_sim_time is not set, will not subscribe to simulated time [/clock] topic
[rosout][INFO] 2023-02-08 16:40:58,522: /RFID started
[rospy.internal][INFO] 2023-02-08 16:40:58,753: topic[/rosout] adding connection to [/rosout], count 0
[rospy.internal][INFO] 2023-02-08 16:41:09,625: topic[/rfid_topic] adding connection to [/rostopic_3295_1675849269437], count 0
[rospy.internal][INFO] 2023-02-08 16:42:57,972: topic[/rfid_topic] removing connection to /rostopic_3295_1675849269437
[rospy.core][INFO] 2023-02-08 16:43:41,492: signal_shutdown [signal-15]
