[rospy.client][INFO] 2023-02-08 16:40:58,798: init_node, name[/xbee], pid[3250]
[xmlrpc][INFO] 2023-02-08 16:40:58,799: XML-RPC server binding to 0.0.0.0:0
[xmlrpc][INFO] 2023-02-08 16:40:58,801: Started XML-RPC server [http://intechAGV:41113/]
[rospy.init][INFO] 2023-02-08 16:40:58,803: ROS Slave URI: [http://intechAGV:41113/]
[rospy.impl.masterslave][INFO] 2023-02-08 16:40:58,804: _ready: http://intechAGV:41113/
[rospy.registration][INFO] 2023-02-08 16:40:58,807: Registering with master node http://localhost:11311
[xmlrpc][INFO] 2023-02-08 16:40:58,807: xml rpc node: starting XML-RPC server
[rospy.init][INFO] 2023-02-08 16:40:58,905: registered with master
[rospy.rosout][INFO] 2023-02-08 16:40:58,906: initializing /rosout core topic
[rospy.rosout][INFO] 2023-02-08 16:40:58,916: connected to core topic /rosout
[rospy.simtime][INFO] 2023-02-08 16:40:58,921: /use_sim_time is not set, will not subscribe to simulated time [/clock] topic
[rosout][INFO] 2023-02-08 16:40:58,928: /xbee started
[rospy.internal][INFO] 2023-02-08 16:40:58,958: topic[/xbeeConveyor_topic] adding connection to [http://intechAGV:41113/], count 0
[rospy.internal][INFO] 2023-02-08 16:40:58,965: topic[/xbeeConveyor_topic] adding connection to [/xbee], count 0
[rospy.internal][INFO] 2023-02-08 16:40:59,155: topic[/rosout] adding connection to [/rosout], count 0
[rospy.internal][INFO] 2023-02-08 16:40:59,170: topic[/conveyor_topic] adding connection to [/gpio], count 0
[rospy.core][INFO] 2023-02-08 16:43:41,492: signal_shutdown [signal-15]
