2022-11-15T07:50:50.082Z [debug] [main] Safe constructing new CMakeTools instance
2022-11-15T07:50:50.085Z [debug] [variant] Constructing VariantManager
2022-11-15T07:50:50.090Z [debug] [main] Constructing new CMakeTools instance
2022-11-15T07:50:50.091Z [debug] [main] Starting CMakeTools second-phase init
2022-11-15T07:50:50.440Z [info] [variant] Loaded new set of variants
2022-11-15T07:50:50.445Z [debug] [main] CMakeTools instance initialization complete.
2022-11-15T07:50:50.453Z [debug] [kit] Reading kits file /home/intech/.local/share/CMakeTools/cmake-tools-kits.json
2022-11-15T07:50:50.547Z [info] [kit] Successfully loaded 2 kits from /home/intech/.local/share/CMakeTools/cmake-tools-kits.json
2022-11-15T07:50:50.565Z [debug] [kit] Not reading non-existent kits file: /home/intech/catkin_ws/.vscode/cmake-kits.json
2022-11-25T11:41:53.128Z [debug] [extension] Deactivate CMakeTools
no kit selected
2022-11-15T07:56:24.117Z [debug] [main] Not starting CMake driver: no kit selected
2022-11-15T07:57:39.595Z [debug] [main] Not starting CMake driver: no kit selected
2022-11-15T07:58:11.611Z [debug] [main] Not starting CMake driver: no kit selected
2022-11-15T07:58:12.103Z [debug] [main] Not starting CMake driver: no kit selected
2022-11-15T08:02:07.966Z [debug] [main] Not starting CMake driver: no kit selected
2022-11-15T08:02:08.184Z [debug] [main] Not starting CMake driver: no kit selected
2022-11-15T08:02:08.654Z [debug] [main] Not starting CMake driver: no kit selected
2022-11-15T08:02:08.911Z [debug] [main] Not starting CMake driver: no kit selected
2022-11-15T08:02:09.695Z [debug] [main] Not starting CMake driver: no kit selected
2022-11-15T08:02:10.075Z [debug] [main] Not starting CMake driver: no kit selected
T08:13:19.601Z [debug] [main] Not starting CMake driver: no kit selected
2022-11-15T08:13:21.220Z [debug] [main] Not starting CMake driver: no kit selected
2022-11-15T08:13:23.502Z [debug] [main] Not starting CMake driver: no kit selected
2022-11-15T08:13:25.652Z [debug] [main] Not starting CMake driver: no kit selected
2022-11-15T07:58:15.266Z [debug] [main] Not starting CMake driver: no kit selected
2022-11-15T07:58:15.880Z [debug] [main] Not starting CMake driver: no kit selected
2022-11-15T07:58:26.930Z [debug] [main] Not starting CMake driver: no kit selected
2022-11-15T07:58:44.344Z [debug] [main] Not starting CMake driver: no kit selected
2022-11-15T07:58:57.681Z [debug] [main] Not starting CMake driver: no kit selected
2022-11-15T07:59:11.932Z [debug] [main] Not starting CMake driver: no kit selected
2022-11-15T07:59:12.148Z [debug] [main] Not starting CMake driver: no kit selected
2022-11-15T07:59:12.297Z [debug] [main] Not starting CMake driver: no kit selected
2022-11-15T07:59:15.928Z [debug] [main] Not starting CMake driver: no kit selected
2022-11-15T07:59:22.672Z [debug] [main] Not starting CMake driver: no kit selected
2022-11-15T07:59:41.145Z [debug] [main] Not starting CMake driver: no kit selected
2022-11-15T07:59:44.490Z [debug] [main] Not starting CMake driver: no kit selected
2022-11-15T07:59:48.914Z [debug] [main] Not starting CMake driver: no kit selected
2022-11-15T08:31:57.651Z [debug] [main] Not starting CMake driver: no kit selected
2022-11-15T08:31:57.825Z [debug] [main] Not starting CMake driver: no kit selected
2022-11-15T08:31:58.223Z [debug] [main] Not starting CMake driver: no kit selected
2022-11-15T08:32:06.901Z [debug] [main] Not starting CMake driver: no kit selected
2022-11-15T08:32:45.525Z [debug] [main] Not starting CMake driver: no kit selected
2022-11-15T08:32:59.043Z [debug] [main] Not starting CMake driver: no kit selected
esting GCC binary: /usr/bin/c89-gcc
2022-11-13T07:14:30.146Z [info] [proc] Executing command: /usr/bin/c89-gcc -v
2022-11-13T07:14:30.169Z [debug] [kit] Testing GCC binary: /usr/bin/c99-gcc
2022-11-13T07:14:30.170Z [info] [proc] Executing command: /usr/bin/c99-gcc -v
2022-11-13T07:14:30.225Z [debug] [kit] Testing GCC binary: /usr/bin/gcc
2022-11-13T07:14:30.226Z [info] [proc] Executing command: /usr/bin/gcc -v
2022-11-13T07:14:30.248Z [debug] [kit] Testing GCC binary: /usr/bin/gcc-8
2022-11-13T07:14:30.249Z [info] [proc] Executing command: /usr/bin/gcc-8 -v
2022-11-13T07:14:30.271Z [debug] [kit] Testing GCC binary: /usr/bin/gcc-9
2022-11-13T07:14:30.272Z [info] [proc] Executing command: /usr/bin/gcc-9 -v
2022-11-13T07:14:30.439Z [debug] [kit] Testing GCC binary: /bin/aarch64-linux-gnu-gcc
2022-11-13T07:14:30.441Z [info] [proc] Executing command: /bin/aarch64-linux-gnu-gcc -v
2022-11-13T07:14:30.465Z [debug] [kit] Testing GCC binary: /bin/aarch64-linux-gnu-gcc-8
2022-11-13T07:14:30.467Z [info] [proc] Executing command: /bin/aarch64-linux-gnu-gcc-8 -v
2022-11-13T07:14:30.493Z [debug] [kit] Testing GCC binary: /bin/aarch64-linux-gnu-gcc-9
2022-11-13T07:14:30.494Z [info] [proc] Executing command: /bin/aarch64-linux-gnu-gcc-9 -v
2022-11-13T07:14:30.541Z [debug] [kit] Testing GCC binary: /bin/c89-gcc
2022-11-13T07:14:30.542Z [info] [proc] Executing command: /bin/c89-gcc -v
2022-11-13T07:14:30.571Z [debug] [kit] Testing GCC binary: /bin/c99-gcc
2022-11-13T07:14:30.571Z [info] [proc] Executing command: /bin/c99-gcc -v
2022-11-13T07:14:30.622Z [debug] [kit] Testing GCC binary: /bin/gcc
2022-11-13T07:14:30.622Z [info] [proc] Executing command: /bin/gcc -v
2022-11-13T07:14:30.645Z [debug] [kit] Testing GCC binary: /bin/gcc-8
2022-11-13T07:14:30.646Z [info] [proc] Executing command: /bin/gcc-8 -v
2022-11-13T07:14:30.669Z [debug] [kit] Testing GCC binary: /bin/gcc-9
2022-11-13T07:14:30.670Z [info] [proc] Executing command: /bin/gcc-9 -v
2022-11-13T07:14:30.894Z [debug] [kit] Detected GCC compiler: /bin/gcc-9
2022-11-13T07:14:30.898Z [debug] [kit] Detected GCC compiler: /bin/gcc-8
2022-11-13T07:14:30.902Z [debug] [kit] Detected GCC compiler: /bin/gcc
2022-11-13T07:14:30.906Z [debug] [kit] Detected GCC compiler: /bin/c99-gcc
2022-11-13T07:14:30.910Z [debug] [kit] Detected GCC compiler: /bin/c89-gcc
2022-11-13T07:14:30.915Z [debug] [kit] Detected GCC compiler: /bin/aarch64-linux-gnu-gcc-9
2022-11-13T07:14:30.919Z [debug] [kit] Detected GCC compiler: /bin/aarch64-linux-gnu-gcc-8
2022-11-13T07:14:30.923Z [debug] [kit] Detected GCC compiler: /bin/aarch64-linux-gnu-gcc
2022-11-13T07:14:30.927Z [debug] [kit] Detected GCC compiler: /usr/bin/gcc-9
2022-11-13T07:14:30.932Z [debug] [kit] Detected GCC compiler: /usr/bin/gcc-8
2022-11-13T07:14:30.936Z [debug] [kit] Detected GCC compiler: /usr/bin/gcc
2022-11-13T07:14:30.940Z [debug] [kit] Detected GCC compiler: /usr/bin/c99-gcc
2022-11-13T07:14:30.944Z [debug] [kit] Detected GCC compiler: /usr/bin/c89-gcc
2022-11-13T07:14:30.948Z [debug] [kit] Detected GCC compiler: /usr/bin/aarch64-linux-gnu-gcc-9
2022-11-13T07:14:30.952Z [debug] [kit] Detected GCC compiler: /usr/bin/aarch64-linux-gnu-gcc-8
2022-11-13T07:14:30.956Z [debug] [kit] Detected GCC compiler: /usr/bin/aarch64-linux-gnu-gcc
2022-11-13T07:14:30.969Z [debug] [kit] Testing GCC binary: /bin/gcc
2022-11-13T07:14:30.970Z [info] [proc] Executing command: /bin/gcc -v
2022-11-13T07:14:30.995Z [debug] [kit] Testing GCC binary: /bin/c99-gcc
2022-11-13T07:14:30.996Z [info] [proc] Executing command: /bin/c99-gcc -v
2022-11-13T07:14:31.021Z [debug] [kit] Testing GCC binary: /bin/c89-gcc
2022-11-13T07:14:31.023Z [info] [proc] Executing command: /bin/c89-gcc -v
2022-11-13T07:14:31.048Z [debug] [kit] Testing GCC binary: /bin/aarch64-linux-gnu-gcc
2022-11-13T07:14:31.049Z [info] [proc] Executing command: /bin/aarch64-linux-gnu-gcc -v
2022-11-13T07:14:31.074Z [debug] [kit] Testing GCC binary: /usr/bin/gcc
2022-11-13T07:14:31.075Z [info] [proc] Executing command: /usr/bin/gcc -v
2022-11-13T07:14:31.103Z [debug] [kit] Testing GCC binary: /usr/bin/c99-gcc
2022-11-13T07:14:31.104Z [info] [proc] Executing command: /usr/bin/c99-gcc -v
2022-11-13T07:14:31.129Z [debug] [kit] Testing GCC binary: /usr/bin/c89-gcc
2022-11-13T07:14:31.130Z [info] [proc] Executing command: /usr/bin/c89-gcc -v
2022-11-13T07:14:31.157Z [debug] [kit] Testing GCC binary: /usr/bin/aarch64-linux-gnu-gcc
2022-11-13T07:14:31.159Z [info] [proc] Executing command: /usr/bin/aarch64-linux-gnu-gcc -v
2022-11-13T07:14:31.227Z [debug] [kit] Detected GCC compiler: /usr/bin/aarch64-linux-gnu-gcc
2022-11-13T07:14:31.232Z [debug] [kit] Detected GCC compiler: /usr/bin/c89-gcc
2022-11-13T07:14:31.237Z [debug] [kit] Detected GCC compiler: /usr/bin/c99-gcc
2022-11-13T07:14:31.241Z [debug] [kit] Detected GCC compiler: /usr/bin/gcc
2022-11-13T07:14:31.247Z [debug] [kit] Detected GCC compiler: /bin/aarch64-linux-gnu-gcc
2022-11-13T07:14:31.252Z [debug] [kit] Detected GCC compiler: /bin/c89-gcc
2022-11-13T07:14:31.257Z [debug] [kit] Detected GCC compiler: /bin/c99-gcc
2022-11-13T07:14:31.261Z [debug] [kit] Detected GCC compiler: /bin/gcc
2022-11-13T07:14:31.271Z [debug] [kit] Found 8 kits in directory /usr/bin
2022-11-13T07:14:31.273Z [debug] [kit] Found 8 kits in directory /bin
2022-11-13T07:14:31.275Z [info] [kit] Found Kit: GCC 9.4.0 aarch64-linux-gnu
2022-11-13T07:14:31.275Z [info] [kit] Found Kit: GCC 8.4.0 aarch64-linux-gnu
2022-11-13T07:14:31.276Z [info] [kit] Found Kit: GCC 9.4.0 aarch64-linux-gnu
2022-11-13T07:14:31.277Z [info] [kit] Found Kit: GCC 9.4.0 aarch64-linux-gnu
2022-11-13T07:14:31.277Z [info] [kit] Found Kit: GCC 9.4.0 aarch64-linux-gnu
2022-11-13T07:14:31.278Z [info] [kit] Found Kit: GCC 9.4.0 aarch64-linux-gnu
2022-11-13T07:14:31.278Z [info] [kit] Found Kit: GCC 8.4.0 aarch64-linux-gnu
2022-11-13T07:14:31.279Z [info] [kit] Found Kit: GCC 9.4.0 aarch64-linux-gnu
2022-11-13T07:14:31.279Z [info] [kit] Found Kit: GCC 9.4.0 aarch64-linux-gnu
2022-11-13T07:14:31.280Z [info] [kit] Found Kit: GCC 8.4.0 aarch64-linux-gnu
2022-11-13T07:14:31.281Z [info] [kit] Found Kit: GCC 9.4.0 aarch64-linux-gnu
2022-11-13T07:14:31.281Z [info] [kit] Found Kit: GCC 9.4.0 aarch64-linux-gnu
2022-11-13T07:14:31.282Z [info] [kit] Found Kit: GCC 9.4.0 aarch64-linux-gnu
2022-11-13T07:14:31.283Z [info] [kit] Found Kit: GCC 9.4.0 aarch64-linux-gnu
2022-11-13T07:14:31.283Z [info] [kit] Found Kit: GCC 8.4.0 aarch64-linux-gnu
2022-11-13T07:14:31.284Z [info] [kit] Found Kit: GCC 9.4.0 aarch64-linux-gnu
2022-11-13T07:14:31.288Z [debug] [kitsController] Saving kits to /home/intech/.local/share/CMakeTools/cmake-tools-kits.json
2022-11-13T07:14:31.289Z [debug] [kitsController] Saving new kits to /home/intech/.local/share/CMakeTools/cmake-tools-kits.json
2022-11-13T07:14:31.380Z [debug] [kit] Reading kits file /home/intech/.local/share/CMakeTools/cmake-tools-kits.json
2022-11-13T07:14:31.519Z [info] [kit] Successfully loaded 2 kits from /home/intech/.local/share/CMakeTools/cmake-tools-kits.json
[main] Not starting CMake driver: no kit selected
2022-11-07T12:19:54.336Z [debug] [main] Not starting CMake driver: no kit selected
2022-11-07T12:20:16.900Z [debug] [extension] Deactivate CMakeTools
no kit selected
2022-11-03T14:00:53.983Z [debug] [main] Not starting CMake driver: no kit selected
2022-11-03T14:00:54.161Z [debug] [main] Not starting CMake driver: no kit selected
2022-11-03T14:00:54.341Z [debug] [main] Not starting CMake driver: no kit selected
2022-11-03T14:00:54.514Z [debug] [main] Not starting CMake driver: no kit selected
2022-11-03T14:00:54.668Z [debug] [main] Not starting CMake driver: no kit selected
2022-11-03T14:00:54.971Z [debug] [main] Not starting CMake driver: no kit selected
2022-11-03T14:00:55.175Z [debug] [main] Not starting CMake driver: no kit selected
2022-11-03T14:00:55.324Z [debug] [main] Not starting CMake driver: no kit selected
2022-11-03T14:00:55.524Z [debug] [main] Not starting CMake driver: no kit selected
2022-11-03T14:00:55.662Z [debug] [main] Not starting CMake driver: no kit selected
2022-11-03T14:00:55.825Z [debug] [main] Not starting CMake driver: no kit selected
2022-11-03T14:00:55.991Z [debug] [main] Not starting CMake driver: no kit selected
2022-11-03T14:01:17.372Z [debug] [main] Not starting CMake driver: no kit selected
2022-11-03T14:02:32.298Z [debug] [main] Not starting CMake driver: no kit selected
2022-11-03T14:02:32.518Z [debug] [main] Not starting CMake driver: no kit selected
2022-11-03T14:02:32.653Z [debug] [main] Not starting CMake driver: no kit selected
2022-11-03T14:02:32.794Z [debug] [main] Not starting CMake driver: no kit selected
2022-11-03T14:02:32.947Z [debug] [main] Not starting CMake driver: no kit selected
2022-11-03T14:04:53.394Z [debug] [main] Not starting CMake driver: no kit selected
2022-11-03T14:04:55.266Z [debug] [main] Not starting CMake driver: no kit selected
2022-11-03T14:04:55.454Z [debug] [main] Not starting CMake driver: no kit selected
2022-11-03T14:04:55.689Z [debug] [main] Not starting CMake driver: no kit selected
2022-11-03T14:04:55.869Z [debug] [main] Not starting CMake driver: no kit selected
2022-11-03T14:04:56.018Z [debug] [main] Not starting CMake driver: no kit selected
2022-11-03T14:04:56.159Z [debug] [main] Not starting CMake driver: no kit selected
2022-11-03T14:04:56.320Z [debug] [main] Not starting CMake driver: no kit selected
2022-11-03T14:05:12.787Z [debug] [main] Not starting CMake driver: no kit selected
2022-11-03T14:05:16.419Z [debug] [main] Not starting CMake driver: no kit selected
2022-11-03T14:05:16.638Z [debug] [main] Not starting CMake driver: no kit selected
2022-11-03T14:05:16.778Z [debug] [main] Not starting CMake driver: no kit selected
2022-11-03T14:05:16.920Z [debug] [main] Not starting CMake driver: no kit selected
2022-11-03T14:05:17.087Z [debug] [main] Not starting CMake driver: no kit selected
2022-11-03T14:06:40.745Z [debug] [main] Not starting CMake driver: no kit selected
2022-11-03T14:06:41.469Z [debug] [main] Not starting CMake driver: no kit selected
2022-11-03T14:06:41.732Z [debug] [main] Not starting CMake driver: no kit selected
2022-11-03T14:06:41.894Z [debug] [main] Not starting CMake driver: no kit selected
2022-11-03T14:06:49.445Z [debug] [main] Not starting CMake driver: no kit selected
2022-11-03T14:06:49.603Z [debug] [main] Not starting CMake driver: no kit selected
2022-11-03T14:09:05.870Z [debug] [main] Not starting CMake driver: no kit selected
2022-11-03T14:09:06.068Z [debug] [main] Not starting CMake driver: no kit selected
2022-11-03T14:09:06.299Z [debug] [main] Not starting CMake driver: no kit selected
2022-11-03T14:09:06.565Z [debug] [main] Not starting CMake driver: no kit selected
2022-11-03T14:09:06.690Z [debug] [main] Not starting CMake driver: no kit selected
2022-11-03T14:09:06.850Z [debug] [main] Not starting CMake driver: no kit selected
2022-11-03T14:10:11.277Z [debug] [main] Not starting CMake driver: no kit selected
2022-11-03T14:10:11.513Z [debug] [main] Not starting CMake driver: no kit selected
2022-11-03T14:10:11.625Z [debug] [main] Not starting CMake driver: no kit selected
2022-11-03T14:10:11.929Z [debug] [main] Not starting CMake driver: no kit selected
2022-11-03T14:10:12.098Z [debug] [main] Not starting CMake driver: no kit selected
2022-11-03T14:10:12.263Z [debug] [main] Not starting CMake driver: no kit selected
2022-11-03T14:10:12.419Z [debug] [main] Not starting CMake driver: no kit selected
2022-11-03T14:10:12.562Z [debug] [main] Not starting CMake driver: no kit selected
2022-11-03T14:10:12.720Z [debug] [main] Not starting CMake driver: no kit selected
2022-11-03T14:10:12.881Z [debug] [main] Not starting CMake driver: no kit selected
2022-11-03T14:10:13.029Z [debug] [main] Not starting CMake driver: no kit selected
2022-11-03T14:10:13.184Z [debug] [main] Not starting CMake driver: no kit selected
2022-11-03T14:10:18.894Z [debug] [main] Not starting CMake driver: no kit selected
2022-11-03T14:10:19.128Z [debug] [main] Not starting CMake driver: no kit selected
2022-11-03T14:10:19.294Z [debug] [main] Not starting CMake driver: no kit selected
2022-11-03T14:10:19.467Z [debug] [main] Not starting CMake driver: no kit selected
2022-11-03T14:10:19.588Z [debug] [main] Not starting CMake driver: no kit selected
2022-11-03T14:10:19.750Z [debug] [main] Not starting CMake driver: no kit selected
2022-11-03T14:10:19.908Z [debug] [main] Not starting CMake driver: no kit selected
2022-11-03T14:10:20.054Z [debug] [main] Not starting CMake driver: no kit selected
2022-11-03T14:10:20.212Z [debug] [main] Not starting CMake driver: no kit selected
2022-11-03T14:10:20.363Z [debug] [main] Not starting CMake driver: no kit selected
2022-11-03T14:10:20.525Z [debug] [main] Not starting CMake driver: no kit selected
2022-11-03T14:10:40.228Z [debug] [main] Not starting CMake driver: no kit selected
2022-11-03T14:10:49.717Z [debug] [main] Not starting CMake driver: no kit selected
2022-11-03T14:20:46.102Z [debug] [main] Not starting CMake driver: no kit selected
2022-11-03T14:20:46.279Z [debug] [main] Not starting CMake driver: no kit selected
2022-11-03T14:20:46.430Z [debug] [main] Not starting CMake driver: no kit selected
2022-11-03T14:20:46.631Z [debug] [main] Not starting CMake driver: no kit selected
2022-11-03T14:21:59.532Z [debug] [main] Not starting CMake driver: no kit selected
2022-11-03T14:22:18.164Z [debug] [main] Not starting CMake driver: no kit selected
2022-11-03T14:22:18.305Z [debug] [main] Not starting CMake driver: no kit selected
2022-11-03T14:22:18.444Z [debug] [main] Not starting CMake driver: no kit selected
2022-11-03T14:22:18.607Z [debug] [main] Not starting CMake driver: no kit selected
2022-11-03T14:22:18.758Z [debug] [main] Not starting CMake driver: no kit selected
2022-11-03T14:22:18.905Z [debug] [main] Not starting CMake driver: no kit selected
2022-11-03T14:46:06.018Z [debug] [main] Not starting CMake driver: no kit selected
2022-11-03T14:46:07.454Z [debug] [extension] Deactivate CMakeTools
no kit selected
2022-11-01T08:17:27.960Z [debug] [main] Not starting CMake driver: no kit selected
2022-11-01T08:21:55.971Z [debug] [main] Not starting CMake driver: no kit selected
2022-11-01T08:21:56.666Z [debug] [main] Not starting CMake driver: no kit selected
2022-11-01T08:22:09.424Z [debug] [extension] Deactivate CMakeTools
no kit selected
2022-10-31T08:27:39.758Z [debug] [main] Not starting CMake driver: no kit selected
2022-10-31T08:27:43.806Z [debug] [main] Not starting CMake driver: no kit selected
2022-10-31T08:29:04.522Z [debug] [main] Not starting CMake driver: no kit selected
2022-10-31T08:29:06.643Z [debug] [main] Not starting CMake driver: no kit selected
2022-10-31T08:29:15.090Z [debug] [main] Not starting CMake driver: no kit selected
2022-10-31T08:29:16.669Z [debug] [main] Not starting CMake driver: no kit selected
2022-09-19T11:12:28.966Z [debug] [main] Not starting CMake driver: no kit selected
2022-09-19T11:12:29.133Z [debug] [main] Not starting CMake driver: no kit selected
2022-09-19T11:12:29.282Z [debug] [main] Not starting CMake driver: no kit selected
2022-09-19T11:12:29.409Z [debug] [main] Not starting CMake driver: no kit selected
2022-09-19T11:12:29.577Z [debug] [main] Not starting CMake driver: no kit selected
2022-09-19T11:12:29.712Z [debug] [main] Not starting CMake driver: no kit selected
2022-09-19T11:12:29.872Z [debug] [main] Not starting CMake driver: no kit selected
2022-09-19T11:18:29.400Z [debug] [main] Not starting CMake driver: no kit selected
2022-09-19T11:18:29.575Z [debug] [main] Not starting CMake driver: no kit selected
2022-09-19T11:18:29.847Z [debug] [main] Not starting CMake driver: no kit selected
2022-09-19T11:18:32.741Z [debug] [main] Not starting CMake driver: no kit selected
2022-09-19T11:18:33.006Z [debug] [main] Not starting CMake driver: no kit selected
2022-09-19T11:18:33.165Z [debug] [main] Not starting CMake driver: no kit selected
2022-09-19T11:18:33.350Z [debug] [main] Not starting CMake driver: no kit selected
2022-09-19T11:18:33.536Z [debug] [main] Not starting CMake driver: no kit selected
2022-09-19T11:18:33.771Z [debug] [main] Not starting CMake driver: no kit selected
2022-09-19T11:18:33.866Z [debug] [main] Not starting CMake driver: no kit selected
2022-09-19T11:18:34.011Z [debug] [main] Not starting CMake driver: no kit selected
2022-09-19T11:18:34.247Z [debug] [main] Not starting CMake driver: no kit selected
2022-09-19T11:20:15.456Z [debug] [main] Not starting CMake driver: no kit selected
2022-09-19T11:20:23.753Z [debug] [main] Not starting CMake driver: no kit selected
2022-09-19T11:20:51.634Z [debug] [main] Not starting CMake driver: no kit selected
2022-09-19T11:20:51.827Z [debug] [main] Not starting CMake driver: no kit selected
2022-09-19T11:36:21.953Z [debug] [main] Not starting CMake driver: no kit selected
2022-09-19T11:36:22.889Z [debug] [main] Not starting CMake driver: no kit selected
2022-09-19T11:36:23.041Z [debug] [main] Not starting CMake driver: no kit selected
2022-09-19T11:36:23.414Z [debug] [main] Not starting CMake driver: no kit selected
2022-09-19T11:36:29.050Z [debug] [main] Not starting CMake driver: no kit selected
2022-09-19T11:38:11.338Z [debug] [main] Not starting CMake driver: no kit selected
2022-09-19T11:38:11.510Z [debug] [main] Not starting CMake driver: no kit selected
2022-09-19T11:38:11.667Z [debug] [main] Not starting CMake driver: no kit selected
2022-09-19T11:38:11.794Z [debug] [main] Not starting CMake driver: no kit selected
2022-09-19T11:38:12.938Z [debug] [main] Not starting CMake driver: no kit selected
2022-09-19T11:38:13.086Z [debug] [main] Not starting CMake driver: no kit selected
2022-09-19T12:07:35.511Z [debug] [main] Not starting CMake driver: no kit selected
2022-09-19T12:07:35.864Z [debug] [main] Not starting CMake driver: no kit selected
2022-09-19T12:07:36.676Z [debug] [extension] Deactivate CMakeTools
2022-09-19T12:07:36.707Z [fatal] [rollbar] Unhandled exception: Unhandled Promise rejection: Post-folder-open Canceled: Canceled {"folder":{"uri":{"$mid":1,"fsPath":"/home/intech/catkin_ws","external":"file:///home/intech/catkin_ws","path":"/home/intech/catkin_ws","scheme":"file"},"name":"catkin_ws","index":0}}
18T03:00:43.993Z [debug] [main] Not starting CMake driver: no kit selected
2022-09-18T03:00:44.120Z [debug] [main] Not starting CMake driver: no kit selected
2022-09-18T03:00:44.286Z [debug] [main] Not starting CMake driver: no kit selected
2022-09-18T03:00:44.431Z [debug] [main] Not starting CMake driver: no kit selected
2022-09-18T03:00:44.573Z [debug] [main] Not starting CMake driver: no kit selected
2022-09-18T03:00:44.723Z [debug] [main] Not starting CMake driver: no kit selected
2022-09-18T03:00:57.607Z [debug] [main] Not starting CMake driver: no kit selected
2022-09-18T03:00:57.694Z [debug] [main] Not starting CMake driver: no kit selected
2022-09-18T03:00:57.860Z [debug] [main] Not starting CMake driver: no kit selected
2022-09-18T03:00:58.011Z [debug] [main] Not starting CMake driver: no kit selected
2022-09-18T03:00:58.143Z [debug] [main] Not starting CMake driver: no kit selected
2022-09-18T03:00:59.201Z [debug] [main] Not starting CMake driver: no kit selected
2022-09-18T03:01:11.395Z [debug] [main] Not starting CMake driver: no kit selected
2022-09-18T03:01:11.610Z [debug] [main] Not starting CMake driver: no kit selected
2022-09-18T03:01:11.794Z [debug] [main] Not starting CMake driver: no kit selected
2022-09-18T03:01:11.930Z [debug] [main] Not starting CMake driver: no kit selected
2022-09-18T03:01:12.134Z [debug] [main] Not starting CMake driver: no kit selected
2022-09-18T03:01:46.719Z [debug] [main] Not starting CMake driver: no kit selected
2022-09-18T03:02:24.537Z [debug] [main] Not starting CMake driver: no kit selected
2022-09-18T03:02:58.861Z [debug] [main] Not starting CMake driver: no kit selected
2022-09-18T03:04:26.946Z [debug] [main] Not starting CMake driver: no kit selected
2022-09-18T03:06:28.005Z [debug] [main] Not starting CMake driver: no kit selected
2022-09-18T03:06:41.685Z [debug] [main] Not starting CMake driver: no kit selected
2022-09-18T03:06:50.799Z [debug] [main] Not starting CMake driver: no kit selected
2022-09-18T03:07:17.545Z [debug] [main] Not starting CMake driver: no kit selected
2022-09-18T03:07:43.192Z [debug] [main] Not starting CMake driver: no kit selected
2022-09-18T03:07:45.190Z [debug] [main] Not starting CMake driver: no kit selected
2022-09-18T03:09:17.728Z [debug] [main] Not starting CMake driver: no kit selected
2022-09-18T03:12:21.301Z [debug] [main] Not starting CMake driver: no kit selected
2022-09-18T03:12:51.813Z [debug] [main] Not starting CMake driver: no kit selected
2022-09-18T03:12:54.653Z [debug] [main] Not starting CMake driver: no kit selected
2022-09-18T03:12:56.475Z [debug] [main] Not starting CMake driver: no kit selected
2022-09-18T03:13:23.984Z [debug] [main] Not starting CMake driver: no kit selected
2022-09-18T03:13:36.328Z [debug] [main] Not starting CMake driver: no kit selected
2022-09-18T03:13:46.752Z [debug] [main] Not starting CMake driver: no kit selected
2022-09-18T03:13:56.033Z [debug] [main] Not starting CMake driver: no kit selected
2022-09-18T03:16:24.209Z [debug] [main] Not starting CMake driver: no kit selected
2022-09-18T03:17:15.801Z [debug] [main] Not starting CMake driver: no kit selected
2022-09-18T03:17:19.052Z [debug] [main] Not starting CMake driver: no kit selected
2022-09-18T03:17:33.814Z [debug] [main] Not starting CMake driver: no kit selected
2022-09-18T03:17:38.038Z [debug] [main] Not starting CMake driver: no kit selected
2022-09-18T03:18:05.953Z [debug] [main] Not starting CMake driver: no kit selected
2022-09-18T03:18:20.749Z [debug] [main] Not starting CMake driver: no kit selected
2022-09-18T03:19:13.925Z [debug] [main] Not starting CMake driver: no kit selected
2022-09-18T03:20:54.327Z [debug] [main] Not starting CMake driver: no kit selected
2022-09-18T03:21:23.929Z [debug] [main] Not starting CMake driver: no kit selected
2022-09-18T03:21:48.200Z [debug] [main] Not starting CMake driver: no kit selected
2022-09-18T03:22:46.350Z [debug] [main] Not starting CMake driver: no kit selected
2022-09-18T03:23:02.796Z [debug] [main] Not starting CMake driver: no kit selected
2022-09-18T03:24:55.666Z [debug] [main] Not starting CMake driver: no kit selected
2022-09-18T03:25:25.946Z [debug] [main] Not starting CMake driver: no kit selected
2022-09-18T03:25:28.816Z [debug] [main] Not starting CMake driver: no kit selected
2022-09-18T03:25:33.516Z [debug] [main] Not starting CMake driver: no kit selected
2022-09-18T03:25:40.611Z [debug] [main] Not starting CMake driver: no kit selected
2022-09-18T03:25:56.777Z [debug] [main] Not starting CMake driver: no kit selected
2022-09-18T03:26:26.781Z [debug] [main] Not starting CMake driver: no kit selected
2022-09-18T03:27:07.990Z [debug] [main] Not starting CMake driver: no kit selected
2022-09-18T03:27:48.283Z [debug] [main] Not starting CMake driver: no kit selected
2022-09-18T03:28:06.471Z [debug] [main] Not starting CMake driver: no kit selected
2022-09-18T03:28:35.996Z [debug] [main] Not starting CMake driver: no kit selected
2022-09-18T03:28:45.222Z [debug] [main] Not starting CMake driver: no kit selected
2022-09-18T03:28:51.317Z [debug] [main] Not starting CMake driver: no kit selected
2022-09-18T03:28:53.873Z [debug] [main] Not starting CMake driver: no kit selected
2022-09-18T03:30:32.645Z [debug] [main] Not starting CMake driver: no kit selected
2022-09-18T03:31:34.420Z [debug] [main] Not starting CMake driver: no kit selected
2022-09-18T03:32:25.381Z [debug] [main] Not starting CMake driver: no kit selected
2022-09-18T03:33:13.130Z [debug] [main] Not starting CMake driver: no kit selected
2022-09-18T03:33:15.996Z [debug] [main] Not starting CMake driver: no kit selected
2022-09-18T03:33:37.261Z [debug] [main] Not starting CMake driver: no kit selected
2022-09-18T03:33:41.443Z [debug] [main] Not starting CMake driver: no kit selected
2022-09-18T03:39:33.755Z [debug] [main] Not starting CMake driver: no kit selected
2022-09-18T03:40:15.712Z [debug] [main] Not starting CMake driver: no kit selected
2022-09-18T03:40:27.964Z [debug] [main] Not starting CMake driver: no kit selected
2022-09-18T03:41:17.042Z [debug] [main] Not starting CMake driver: no kit selected
2022-09-18T03:41:26.825Z [debug] [main] Not starting CMake driver: no kit selected
2022-09-18T03:41:37.890Z [debug] [main] Not starting CMake driver: no kit selected
2022-09-18T03:43:33.692Z [debug] [main] Not starting CMake driver: no kit selected
2022-09-18T03:44:24.823Z [debug] [main] Not starting CMake driver: no kit selected
2022-09-18T03:50:18.676Z [debug] [main] Not starting CMake driver: no kit selected
2022-09-18T03:53:30.125Z [debug] [main] Not starting CMake driver: no kit selected
2022-09-18T03:53:40.775Z [debug] [main] Not starting CMake driver: no kit selected
2022-09-18T03:55:40.290Z [debug] [main] Not starting CMake driver: no kit selected
2022-09-18T03:57:12.447Z [debug] [main] Not starting CMake driver: no kit selected
2022-09-18T03:57:17.076Z [debug] [main] Not starting CMake driver: no kit selected
2022-09-18T03:57:53.699Z [debug] [main] Not starting CMake driver: no kit selected
2022-09-18T03:58:04.413Z [debug] [main] Not starting CMake driver: no kit selected
2022-09-18T03:58:19.798Z [debug] [main] Not starting CMake driver: no kit selected
2022-09-18T03:58:37.712Z [debug] [main] Not starting CMake driver: no kit selected
2022-09-18T03:59:21.701Z [debug] [main] Not starting CMake driver: no kit selected
2022-09-18T03:59:34.766Z [debug] [main] Not starting CMake driver: no kit selected
2022-09-18T03:59:44.870Z [debug] [main] Not starting CMake driver: no kit selected
2022-09-18T03:59:45.888Z [debug] [main] Not starting CMake driver: no kit selected
2022-09-18T04:00:25.902Z [debug] [main] Not starting CMake driver: no kit selected
2022-09-18T04:00:43.908Z [debug] [main] Not starting CMake driver: no kit selected
2022-09-18T04:00:45.959Z [debug] [main] Not starting CMake driver: no kit selected
2022-09-18T04:00:46.160Z [debug] [main] Not starting CMake driver: no kit selected
2022-09-18T04:00:46.307Z [debug] [main] Not starting CMake driver: no kit selected
2022-09-18T04:00:54.681Z [debug] [main] Not starting CMake driver: no kit selected
2022-09-18T04:01:43.973Z [debug] [main] Not starting CMake driver: no kit selected
2022-09-18T04:02:09.984Z [debug] [main] Not starting CMake driver: no kit selected
2022-09-18T04:03:25.599Z [debug] [main] Not starting CMake driver: no kit selected
2022-09-18T04:04:32.549Z [debug] [main] Not starting CMake driver: no kit selected
2022-09-18T04:05:07.717Z [debug] [main] Not starting CMake driver: no kit selected
2022-09-18T04:05:13.510Z [debug] [main] Not starting CMake driver: no kit selected
2022-09-18T04:06:11.303Z [debug] [main] Not starting CMake driver: no kit selected
2022-09-18T04:06:29.173Z [debug] [main] Not starting CMake driver: no kit selected
2022-09-18T04:06:34.121Z [debug] [main] Not starting CMake driver: no kit selected
2022-09-18T04:07:08.458Z [debug] [main] Not starting CMake driver: no kit selected
2022-09-18T04:07:09.281Z [debug] [main] Not starting CMake driver: no kit selected
2022-09-18T04:07:47.343Z [debug] [main] Not starting CMake driver: no kit selected
2022-09-18T04:07:48.780Z [debug] [main] Not starting CMake driver: no kit selected
2022-09-18T04:08:53.454Z [debug] [extension] Deactivate CMakeTools
 [debug] [main] Not starting CMake driver: no kit selected
2022-09-15T10:07:59.025Z [debug] [main] Not starting CMake driver: no kit selected
2022-09-15T10:07:59.194Z [debug] [main] Not starting CMake driver: no kit selected
2022-09-15T10:07:59.409Z [debug] [main] Not starting CMake driver: no kit selected
2022-09-15T10:08:27.173Z [debug] [main] Not starting CMake driver: no kit selected
2022-09-15T10:11:16.132Z [debug] [main] Not starting CMake driver: no kit selected
2022-09-15T10:20:00.202Z [debug] [main] Not starting CMake driver: no kit selected
2022-09-15T10:20:00.408Z [debug] [main] Not starting CMake driver: no kit selected
2022-09-15T10:20:29.165Z [debug] [main] Not starting CMake driver: no kit selected
2022-09-15T10:20:29.264Z [debug] [main] Not starting CMake driver: no kit selected
2022-09-15T10:23:37.192Z [debug] [main] Not starting CMake driver: no kit selected
2022-09-15T10:23:37.543Z [debug] [main] Not starting CMake driver: no kit selected
2022-09-15T10:23:37.880Z [debug] [main] Not starting CMake driver: no kit selected
2022-09-15T10:23:37.994Z [debug] [main] Not starting CMake driver: no kit selected
2022-09-15T10:23:43.499Z [debug] [main] Not starting CMake driver: no kit selected
2022-09-15T10:23:43.781Z [debug] [main] Not starting CMake driver: no kit selected
2022-09-15T10:23:43.882Z [debug] [main] Not starting CMake driver: no kit selected
2022-09-15T10:23:44.051Z [debug] [main] Not starting CMake driver: no kit selected
2022-09-15T10:23:44.217Z [debug] [main] Not starting CMake driver: no kit selected
2022-09-15T10:23:44.399Z [debug] [main] Not starting CMake driver: no kit selected
2022-09-15T10:23:44.594Z [debug] [main] Not starting CMake driver: no kit selected
2022-09-15T10:25:02.357Z [debug] [main] Not starting CMake driver: no kit selected
2022-09-15T10:25:14.285Z [debug] [main] Not starting CMake driver: no kit selected
2022-09-15T10:28:11.693Z [debug] [main] Not starting CMake driver: no kit selected
2022-09-15T10:28:12.298Z [debug] [main] Not starting CMake driver: no kit selected
2022-09-15T10:32:46.875Z [debug] [main] Not starting CMake driver: no kit selected
2022-09-15T10:33:11.949Z [debug] [main] Not starting CMake driver: no kit selected
2022-09-15T10:33:16.525Z [debug] [main] Not starting CMake driver: no kit selected
2022-09-15T10:34:19.474Z [debug] [main] Not starting CMake driver: no kit selected
2022-09-15T10:34:21.397Z [debug] [main] Not starting CMake driver: no kit selected
2022-09-15T10:35:16.290Z [debug] [main] Not starting CMake driver: no kit selected
2022-09-15T10:35:36.423Z [debug] [main] Not starting CMake driver: no kit selected
2022-09-15T10:36:10.821Z [debug] [main] Not starting CMake driver: no kit selected
2022-09-15T10:36:16.000Z [debug] [main] Not starting CMake driver: no kit selected
2022-09-15T10:36:23.534Z [debug] [main] Not starting CMake driver: no kit selected
2022-09-15T10:36:55.250Z [debug] [main] Not starting CMake driver: no kit selected
2022-09-15T10:37:42.964Z [debug] [main] Not starting CMake driver: no kit selected
2022-09-15T10:37:44.656Z [debug] [main] Not starting CMake driver: no kit selected
2022-09-15T10:37:53.588Z [debug] [main] Not starting CMake driver: no kit selected
2022-09-15T10:37:53.891Z [debug] [main] Not starting CMake driver: no kit selected
2022-09-15T10:37:54.103Z [debug] [main] Not starting CMake driver: no kit selected
2022-09-15T10:37:54.299Z [debug] [main] Not starting CMake driver: no kit selected
2022-09-15T10:37:54.411Z [debug] [main] Not starting CMake driver: no kit selected
2022-09-15T10:37:54.602Z [debug] [main] Not starting CMake driver: no kit selected
2022-09-15T10:37:54.712Z [debug] [main] Not starting CMake driver: no kit selected
2022-09-15T10:38:36.401Z [debug] [main] Not starting CMake driver: no kit selected
2022-09-15T11:05:08.200Z [debug] [main] Not starting CMake driver: no kit selected
2022-09-15T11:08:39.820Z [debug] [main] Not starting CMake driver: no kit selected
2022-09-15T11:11:02.631Z [debug] [main] Not starting CMake driver: no kit selected
2022-09-15T11:11:14.939Z [debug] [main] Not starting CMake driver: no kit selected
2022-09-15T11:11:16.391Z [debug] [main] Not starting CMake driver: no kit selected
2022-09-15T11:11:39.900Z [debug] [main] Not starting CMake driver: no kit selected
2022-09-15T11:11:39.972Z [debug] [main] Not starting CMake driver: no kit selected
2022-09-15T11:11:40.249Z [debug] [main] Not starting CMake driver: no kit selected
2022-09-15T11:12:04.726Z [debug] [main] Not starting CMake driver: no kit selected
2022-09-15T11:14:55.334Z [debug] [main] Not starting CMake driver: no kit selected
2022-09-15T11:14:59.468Z [debug] [main] Not starting CMake driver: no kit selected
2022-09-15T11:16:22.919Z [debug] [main] Not starting CMake driver: no kit selected
2022-09-15T11:16:39.623Z [debug] [main] Not starting CMake driver: no kit selected
2022-09-15T11:16:52.057Z [debug] [main] Not starting CMake driver: no kit selected
2022-09-15T11:17:13.421Z [debug] [main] Not starting CMake driver: no kit selected
2022-09-15T11:17:38.789Z [debug] [main] Not starting CMake driver: no kit selected
2022-09-15T11:20:31.556Z [debug] [main] Not starting CMake driver: no kit selected
2022-09-15T11:20:32.686Z [debug] [main] Not starting CMake driver: no kit selected
2022-09-15T11:20:35.094Z [debug] [main] Not starting CMake driver: no kit selected
2022-09-15T11:20:35.439Z [debug] [main] Not starting CMake driver: no kit selected
2022-09-15T11:20:44.197Z [debug] [main] Not starting CMake driver: no kit selected
2022-09-15T11:22:32.519Z [debug] [main] Not starting CMake driver: no kit selected
2022-09-15T11:23:32.234Z [debug] [main] Not starting CMake driver: no kit selected
2022-09-15T11:23:39.515Z [debug] [main] Not starting CMake driver: no kit selected
2022-09-15T11:23:59.124Z [debug] [main] Not starting CMake driver: no kit selected
2022-09-15T11:23:59.325Z [debug] [main] Not starting CMake driver: no kit selected
2022-09-15T11:23:59.574Z [debug] [main] Not starting CMake driver: no kit selected
2022-09-15T11:27:31.785Z [debug] [main] Not starting CMake driver: no kit selected
2022-09-15T11:28:26.590Z [debug] [main] Not starting CMake driver: no kit selected
2022-09-15T11:28:27.457Z [debug] [main] Not starting CMake driver: no kit selected
2022-09-15T11:28:54.246Z [debug] [main] Not starting CMake driver: no kit selected
2022-09-15T11:29:07.823Z [debug] [main] Not starting CMake driver: no kit selected
2022-09-15T11:30:39.748Z [debug] [main] Not starting CMake driver: no kit selected
2022-09-15T11:30:51.671Z [debug] [main] Not starting CMake driver: no kit selected
2022-09-15T11:30:57.668Z [debug] [main] Not starting CMake driver: no kit selected
2022-09-15T11:31:03.029Z [debug] [main] Not starting CMake driver: no kit selected
2022-09-15T11:31:11.612Z [debug] [main] Not starting CMake driver: no kit selected
2022-09-15T11:33:40.232Z [debug] [main] Not starting CMake driver: no kit selected
2022-09-15T11:33:44.408Z [debug] [main] Not starting CMake driver: no kit selected
2022-09-15T11:34:29.819Z [debug] [main] Not starting CMake driver: no kit selected
2022-09-15T11:34:34.812Z [debug] [main] Not starting CMake driver: no kit selected
2022-09-15T11:34:42.500Z [debug] [main] Not starting CMake driver: no kit selected
2022-09-15T11:42:15.508Z [debug] [main] Not starting CMake driver: no kit selected
2022-09-15T11:43:27.405Z [debug] [main] Not starting CMake driver: no kit selected
2022-09-15T11:46:02.329Z [debug] [main] Not starting CMake driver: no kit selected
2022-09-15T11:46:14.937Z [debug] [main] Not starting CMake driver: no kit selected
2022-09-15T11:46:16.732Z [debug] [main] Not starting CMake driver: no kit selected
2022-09-15T11:46:16.964Z [debug] [main] Not starting CMake driver: no kit selected
2022-09-15T11:46:20.411Z [debug] [main] Not starting CMake driver: no kit selected
2022-09-15T11:47:25.166Z [debug] [main] Not starting CMake driver: no kit selected
2022-09-15T11:47:27.605Z [debug] [main] Not starting CMake driver: no kit selected
2022-09-15T11:47:28.792Z [debug] [main] Not starting CMake driver: no kit selected
2022-09-15T12:00:22.943Z [debug] [main] Not starting CMake driver: no kit selected
2022-09-15T12:00:23.115Z [debug] [main] Not starting CMake driver: no kit selected
2022-09-15T12:00:23.289Z [debug] [main] Not starting CMake driver: no kit selected
2022-09-15T12:00:23.456Z [debug] [main] Not starting CMake driver: no kit selected
2022-09-15T12:00:54.743Z [debug] [main] Not starting CMake driver: no kit selected
