[rosmaster.main][INFO] 2023-02-09 14:40:48,767: initialization complete, waiting for shutdown
[rosmaster.main][INFO] 2023-02-09 14:40:48,768: Starting ROS Master Node
[xmlrpc][INFO] 2023-02-09 14:40:48,769: XML-RPC server binding to 0.0.0.0:11311
[xmlrpc][INFO] 2023-02-09 14:40:48,770: Started XML-RPC server [http://intechAGV:11311/]
[rosmaster.master][INFO] 2023-02-09 14:40:48,771: Master initialized: port[11311], uri[http://intechAGV:11311/]
[xmlrpc][INFO] 2023-02-09 14:40:48,771: xml rpc node: starting XML-RPC server
[rosmaster.master][INFO] 2023-02-09 14:40:48,834: +PARAM [/run_id] by /roslaunch
[rosmaster.master][INFO] 2023-02-09 14:40:48,838: +PARAM [/roslaunch/uris/host_intechagv__34417] by /roslaunch
[rosmaster.master][INFO] 2023-02-09 14:40:48,927: +PARAM [/rosversion] by /roslaunch
[rosmaster.master][INFO] 2023-02-09 14:40:48,928: +PARAM [/rosdistro] by /roslaunch
[rosmaster.master][INFO] 2023-02-09 14:40:48,958: +SERVICE [/rosout/get_loggers] /rosout http://intechAGV:38181/
[rosmaster.master][INFO] 2023-02-09 14:40:48,960: +SERVICE [/rosout/set_logger_level] /rosout http://intechAGV:38181/
[rosmaster.master][INFO] 2023-02-09 14:40:48,963: +PUB [/rosout_agg] /rosout http://intechAGV:38181/
[rosmaster.master][INFO] 2023-02-09 14:40:48,969: +SUB [/rosout] /rosout http://intechAGV:38181/
[rosmaster.master][INFO] 2023-02-09 14:40:51,959: +PARAM [/roslaunch/uris/host_intechagv__41649] by /roslaunch
[rosmaster.master][INFO] 2023-02-09 14:40:51,970: +PARAM [/rosversion] by /roslaunch
[rosmaster.master][INFO] 2023-02-09 14:40:51,970: +PARAM [/rosdistro] by /roslaunch
[rosmaster.master][INFO] 2023-02-09 14:40:51,970: +PARAM [/baseController/nameTopic_cmd_vel] by /roslaunch
[rosmaster.master][INFO] 2023-02-09 14:40:51,971: +PARAM [/baseController/rate] by /roslaunch
[rosmaster.master][INFO] 2023-02-09 14:40:51,971: +PARAM [/gpio/rate] by /roslaunch
[rosmaster.master][INFO] 2023-02-09 14:40:51,972: +PARAM [/followline/port_fl_forward] by /roslaunch
[rosmaster.master][INFO] 2023-02-09 14:40:51,972: +PARAM [/followline/port_fl_backward] by /roslaunch
[rosmaster.master][INFO] 2023-02-09 14:40:51,972: +PARAM [/followline/rate] by /roslaunch
[rosmaster.master][INFO] 2023-02-09 14:40:51,972: +PARAM [/RFID/port_RFID] by /roslaunch
[rosmaster.master][INFO] 2023-02-09 14:40:51,973: +PARAM [/RFID/rate] by /roslaunch
[rosmaster.master][INFO] 2023-02-09 14:40:51,973: +PARAM [/xbee/port_xbee] by /roslaunch
[rosmaster.master][INFO] 2023-02-09 14:40:51,973: +PARAM [/xbee/rate] by /roslaunch
[rosmaster.master][INFO] 2023-02-09 14:40:53,906: +PUB [/rosout] /RFID http://intechAGV:40305/
[rosmaster.master][INFO] 2023-02-09 14:40:53,917: +SERVICE [/RFID/get_loggers] /RFID http://intechAGV:40305/
[rosmaster.master][INFO] 2023-02-09 14:40:53,921: +SERVICE [/RFID/set_logger_level] /RFID http://intechAGV:40305/
[rosmaster.master][INFO] 2023-02-09 14:40:53,925: +CACHEDPARAM [/rosout_disable_topics_generation] by /RFID
[rosmaster.master][INFO] 2023-02-09 14:40:53,942: +PUB [/rosout] /xbee http://intechAGV:45935/
[rosmaster.master][INFO] 2023-02-09 14:40:53,951: +SERVICE [/xbee/get_loggers] /xbee http://intechAGV:45935/
[rosmaster.master][INFO] 2023-02-09 14:40:53,954: +SERVICE [/xbee/set_logger_level] /xbee http://intechAGV:45935/
[rosmaster.master][INFO] 2023-02-09 14:40:53,958: +CACHEDPARAM [/rosout_disable_topics_generation] by /xbee
[rosmaster.master][INFO] 2023-02-09 14:40:53,972: +SUB [/xbeeConveyor_topic] /xbee http://intechAGV:45935/
[rosmaster.master][INFO] 2023-02-09 14:40:53,976: +PUB [/rosout] /followline http://intechAGV:45147/
[rosmaster.master][INFO] 2023-02-09 14:40:53,978: +PUB [/xbeeConveyor_topic] /xbee http://intechAGV:45935/
[rosmaster.master][INFO] 2023-02-09 14:40:53,980: publisherUpdate[/rosout] -> http://intechAGV:38181/ ['http://intechAGV:40305/']
[rosmaster.master][INFO] 2023-02-09 14:40:53,982: publisherUpdate[/xbeeConveyor_topic] -> http://intechAGV:45935/ ['http://intechAGV:45935/']
[rosmaster.master][INFO] 2023-02-09 14:40:53,986: +PUB [/conveyor_topic] /xbee http://intechAGV:45935/
[rosmaster.master][INFO] 2023-02-09 14:40:53,999: +SERVICE [/followline/get_loggers] /followline http://intechAGV:45147/
[rosmaster.master][INFO] 2023-02-09 14:40:54,002: publisherUpdate[/rosout] -> http://intechAGV:38181/ ['http://intechAGV:40305/']: sec=0.02, result=[1, '', 0]
[rosmaster.master][INFO] 2023-02-09 14:40:54,005: publisherUpdate[/rosout] -> http://intechAGV:38181/ ['http://intechAGV:40305/', 'http://intechAGV:45935/']
[rosmaster.master][INFO] 2023-02-09 14:40:54,004: +SERVICE [/followline/set_logger_level] /followline http://intechAGV:45147/
[rosmaster.master][INFO] 2023-02-09 14:40:54,006: publisherUpdate[/xbeeConveyor_topic] -> http://intechAGV:45935/ ['http://intechAGV:45935/']: sec=0.02, result=[1, '', 0]
[rosmaster.master][INFO] 2023-02-09 14:40:54,012: +CACHEDPARAM [/rosout_disable_topics_generation] by /followline
[rosmaster.master][INFO] 2023-02-09 14:40:54,014: publisherUpdate[/rosout] -> http://intechAGV:38181/ ['http://intechAGV:40305/', 'http://intechAGV:45935/']: sec=0.01, result=[1, '', 0]
[rosmaster.master][INFO] 2023-02-09 14:40:54,014: publisherUpdate[/rosout] -> http://intechAGV:38181/ ['http://intechAGV:40305/', 'http://intechAGV:45935/', 'http://intechAGV:45147/']
[rosmaster.master][INFO] 2023-02-09 14:40:54,018: publisherUpdate[/rosout] -> http://intechAGV:38181/ ['http://intechAGV:40305/', 'http://intechAGV:45935/', 'http://intechAGV:45147/']: sec=0.00, result=[1, '', 0]
[rosmaster.master][INFO] 2023-02-09 14:40:54,229: +CACHEDPARAM [/rosout/omit_topics] by /rosout
[rosmaster.master][INFO] 2023-02-09 14:40:54,254: +PUB [/rosout] /baseController http://intechAGV:43129/
[rosmaster.master][INFO] 2023-02-09 14:40:54,261: +SERVICE [/baseController/get_loggers] /baseController http://intechAGV:43129/
[rosmaster.master][INFO] 2023-02-09 14:40:54,263: +SERVICE [/baseController/set_logger_level] /baseController http://intechAGV:43129/
[rosmaster.master][INFO] 2023-02-09 14:40:54,267: +CACHEDPARAM [/rosout_disable_topics_generation] by /baseController
[rosmaster.master][INFO] 2023-02-09 14:40:54,278: +SUB [/cmd_vel] /baseController http://intechAGV:43129/
[rosmaster.master][INFO] 2023-02-09 14:40:54,283: publisherUpdate[/rosout] -> http://intechAGV:38181/ ['http://intechAGV:40305/', 'http://intechAGV:45935/', 'http://intechAGV:45147/', 'http://intechAGV:43129/']
[rosmaster.master][INFO] 2023-02-09 14:40:54,288: publisherUpdate[/rosout] -> http://intechAGV:38181/ ['http://intechAGV:40305/', 'http://intechAGV:45935/', 'http://intechAGV:45147/', 'http://intechAGV:43129/']: sec=0.00, result=[1, '', 0]
[rosmaster.master][INFO] 2023-02-09 14:40:54,325: +PUB [/rosout] /gpio http://intechAGV:42019/
[rosmaster.master][INFO] 2023-02-09 14:40:54,331: +SERVICE [/gpio/get_loggers] /gpio http://intechAGV:42019/
[rosmaster.master][INFO] 2023-02-09 14:40:54,334: +SERVICE [/gpio/set_logger_level] /gpio http://intechAGV:42019/
[rosmaster.master][INFO] 2023-02-09 14:40:54,338: +CACHEDPARAM [/rosout_disable_topics_generation] by /gpio
[rosmaster.master][INFO] 2023-02-09 14:40:54,345: +SUB [/conveyor_topic] /gpio http://intechAGV:42019/
[rosmaster.master][INFO] 2023-02-09 14:40:54,354: +SUB [/speaker_topic] /gpio http://intechAGV:42019/
[rosmaster.master][INFO] 2023-02-09 14:40:54,359: +PUB [/safety_topic] /gpio http://intechAGV:42019/
[rosmaster.master][INFO] 2023-02-09 14:40:54,389: publisherUpdate[/rosout] -> http://intechAGV:38181/ ['http://intechAGV:40305/', 'http://intechAGV:45935/', 'http://intechAGV:45147/', 'http://intechAGV:43129/', 'http://intechAGV:42019/']
[rosmaster.master][INFO] 2023-02-09 14:40:54,393: publisherUpdate[/rosout] -> http://intechAGV:38181/ ['http://intechAGV:40305/', 'http://intechAGV:45935/', 'http://intechAGV:45147/', 'http://intechAGV:43129/', 'http://intechAGV:42019/']: sec=0.00, result=[1, '', 0]
[rosmaster.master][INFO] 2023-02-09 14:40:59,735: -PUB [/rosout] /followline http://intechAGV:45147/
[rosmaster.master][INFO] 2023-02-09 14:40:59,736: -SERVICE [/followline/get_loggers] /followline rosrpc://intechAGV:44409
[rosmaster.master][INFO] 2023-02-09 14:40:59,738: -SERVICE [/followline/set_logger_level] /followline rosrpc://intechAGV:44409
[rosmaster.master][INFO] 2023-02-09 14:40:59,763: -PUB [/rosout] /RFID http://intechAGV:40305/
[rosmaster.master][INFO] 2023-02-09 14:40:59,764: -SERVICE [/RFID/get_loggers] /RFID rosrpc://intechAGV:34017
[rosmaster.master][INFO] 2023-02-09 14:40:59,764: -SERVICE [/RFID/set_logger_level] /RFID rosrpc://intechAGV:34017
[rosmaster.master][INFO] 2023-02-09 14:40:59,819: publisherUpdate[/rosout] -> http://intechAGV:38181/ ['http://intechAGV:40305/', 'http://intechAGV:45935/', 'http://intechAGV:43129/', 'http://intechAGV:42019/']
[rosmaster.master][INFO] 2023-02-09 14:40:59,823: publisherUpdate[/rosout] -> http://intechAGV:38181/ ['http://intechAGV:40305/', 'http://intechAGV:45935/', 'http://intechAGV:43129/', 'http://intechAGV:42019/']: sec=0.00, result=[1, '', 0]
[rosmaster.master][INFO] 2023-02-09 14:40:59,824: publisherUpdate[/rosout] -> http://intechAGV:38181/ ['http://intechAGV:45935/', 'http://intechAGV:43129/', 'http://intechAGV:42019/']
[rosmaster.master][INFO] 2023-02-09 14:40:59,826: publisherUpdate[/rosout] -> http://intechAGV:38181/ ['http://intechAGV:45935/', 'http://intechAGV:43129/', 'http://intechAGV:42019/']: sec=0.00, result=[1, '', 0]
[rosmaster.master][INFO] 2023-02-09 14:41:00,987: +PUB [/rosout] /AGV1_MASTER http://intechAGV:36685/
[rosmaster.master][INFO] 2023-02-09 14:41:00,994: +SERVICE [/AGV1_MASTER/get_loggers] /AGV1_MASTER http://intechAGV:36685/
[rosmaster.master][INFO] 2023-02-09 14:41:00,997: +SERVICE [/AGV1_MASTER/set_logger_level] /AGV1_MASTER http://intechAGV:36685/
[rosmaster.master][INFO] 2023-02-09 14:41:01,000: +CACHEDPARAM [/rosout_disable_topics_generation] by /AGV1_MASTER
[rosmaster.master][INFO] 2023-02-09 14:41:01,003: +PUB [/cmd_vel] /AGV1_MASTER http://intechAGV:36685/
[rosmaster.master][INFO] 2023-02-09 14:41:01,009: +SUB [/followline_topic] /AGV1_MASTER http://intechAGV:36685/
[rosmaster.master][INFO] 2023-02-09 14:41:01,014: +SUB [/rfid_topic] /AGV1_MASTER http://intechAGV:36685/
[rosmaster.master][INFO] 2023-02-09 14:41:01,019: +SUB [/safety_topic] /AGV1_MASTER http://intechAGV:36685/
[rosmaster.master][INFO] 2023-02-09 14:41:01,025: +SUB [/xbeeConveyor_topic] /AGV1_MASTER http://intechAGV:36685/
[rosmaster.master][INFO] 2023-02-09 14:41:01,026: publisherUpdate[/rosout] -> http://intechAGV:38181/ ['http://intechAGV:45935/', 'http://intechAGV:43129/', 'http://intechAGV:42019/', 'http://intechAGV:36685/']
[rosmaster.master][INFO] 2023-02-09 14:41:01,029: publisherUpdate[/rosout] -> http://intechAGV:38181/ ['http://intechAGV:45935/', 'http://intechAGV:43129/', 'http://intechAGV:42019/', 'http://intechAGV:36685/']: sec=0.00, result=[1, '', 0]
[rosmaster.master][INFO] 2023-02-09 14:41:01,029: publisherUpdate[/cmd_vel] -> http://intechAGV:43129/ ['http://intechAGV:36685/']
[rosmaster.master][INFO] 2023-02-09 14:41:01,032: +PUB [/xbeeConveyor_topic] /AGV1_MASTER http://intechAGV:36685/
[rosmaster.master][INFO] 2023-02-09 14:41:01,033: publisherUpdate[/xbeeConveyor_topic] -> http://intechAGV:45935/ ['http://intechAGV:45935/', 'http://intechAGV:36685/']
[rosmaster.master][INFO] 2023-02-09 14:41:01,037: publisherUpdate[/cmd_vel] -> http://intechAGV:43129/ ['http://intechAGV:36685/']: sec=0.01, result=[1, '', 0]
[rosmaster.master][INFO] 2023-02-09 14:41:01,038: publisherUpdate[/xbeeConveyor_topic] -> http://intechAGV:36685/ ['http://intechAGV:45935/', 'http://intechAGV:36685/']
[rosmaster.master][INFO] 2023-02-09 14:41:01,041: publisherUpdate[/xbeeConveyor_topic] -> http://intechAGV:45935/ ['http://intechAGV:45935/', 'http://intechAGV:36685/']: sec=0.01, result=[1, '', 0]
[rosmaster.master][INFO] 2023-02-09 14:41:01,042: +PUB [/speaker_topic] /AGV1_MASTER http://intechAGV:36685/
[rosmaster.master][INFO] 2023-02-09 14:41:01,046: publisherUpdate[/xbeeConveyor_topic] -> http://intechAGV:36685/ ['http://intechAGV:45935/', 'http://intechAGV:36685/']: sec=0.01, result=[1, '', 0]
[rosmaster.master][INFO] 2023-02-09 14:41:01,047: publisherUpdate[/speaker_topic] -> http://intechAGV:42019/ ['http://intechAGV:36685/']
[rosmaster.master][INFO] 2023-02-09 14:41:01,053: publisherUpdate[/speaker_topic] -> http://intechAGV:42019/ ['http://intechAGV:36685/']: sec=0.00, result=[1, '', 0]
[rosmaster.master][INFO] 2023-02-09 14:41:03,198: -SUB [/conveyor_topic] /gpio http://intechAGV:42019/
[rosmaster.master][INFO] 2023-02-09 14:41:03,200: -SUB [/cmd_vel] /baseController http://intechAGV:43129/
[rosmaster.master][INFO] 2023-02-09 14:41:03,201: -SUB [/speaker_topic] /gpio http://intechAGV:42019/
[rosmaster.master][INFO] 2023-02-09 14:41:03,201: -PUB [/rosout] /baseController http://intechAGV:43129/
[rosmaster.master][INFO] 2023-02-09 14:41:03,201: -PUB [/rosout] /gpio http://intechAGV:42019/
[rosmaster.master][INFO] 2023-02-09 14:41:03,202: -SERVICE [/baseController/get_loggers] /baseController rosrpc://intechAGV:43447
[rosmaster.master][INFO] 2023-02-09 14:41:03,202: -PUB [/safety_topic] /gpio http://intechAGV:42019/
[rosmaster.master][INFO] 2023-02-09 14:41:03,202: -SERVICE [/baseController/set_logger_level] /baseController rosrpc://intechAGV:43447
[rosmaster.master][INFO] 2023-02-09 14:41:03,203: -SERVICE [/gpio/get_loggers] /gpio rosrpc://intechAGV:45613
[rosmaster.master][INFO] 2023-02-09 14:41:03,203: -SERVICE [/gpio/set_logger_level] /gpio rosrpc://intechAGV:45613
[rosmaster.master][INFO] 2023-02-09 14:41:03,234: publisherUpdate[/rosout] -> http://intechAGV:38181/ ['http://intechAGV:45935/', 'http://intechAGV:42019/', 'http://intechAGV:36685/']
[rosmaster.master][INFO] 2023-02-09 14:41:03,237: publisherUpdate[/rosout] -> http://intechAGV:38181/ ['http://intechAGV:45935/', 'http://intechAGV:42019/', 'http://intechAGV:36685/']: sec=0.00, result=[1, '', 0]
[rosmaster.master][INFO] 2023-02-09 14:41:03,238: publisherUpdate[/rosout] -> http://intechAGV:38181/ ['http://intechAGV:45935/', 'http://intechAGV:36685/']
[rosmaster.master][INFO] 2023-02-09 14:41:03,241: publisherUpdate[/rosout] -> http://intechAGV:38181/ ['http://intechAGV:45935/', 'http://intechAGV:36685/']: sec=0.00, result=[1, '', 0]
[rosmaster.master][INFO] 2023-02-09 14:41:03,242: publisherUpdate[/safety_topic] -> http://intechAGV:36685/ []
[rosmaster.master][INFO] 2023-02-09 14:41:03,248: publisherUpdate[/safety_topic] -> http://intechAGV:36685/ []: sec=0.01, result=[1, '', 0]
[rosmaster.master][INFO] 2023-02-09 14:41:04,322: -SUB [/xbeeConveyor_topic] /xbee http://intechAGV:45935/
[rosmaster.master][INFO] 2023-02-09 14:41:04,323: -PUB [/rosout] /xbee http://intechAGV:45935/
[rosmaster.master][INFO] 2023-02-09 14:41:04,323: -PUB [/xbeeConveyor_topic] /xbee http://intechAGV:45935/
[rosmaster.master][INFO] 2023-02-09 14:41:04,323: -PUB [/conveyor_topic] /xbee http://intechAGV:45935/
[rosmaster.master][INFO] 2023-02-09 14:41:04,324: -SERVICE [/xbee/get_loggers] /xbee rosrpc://intechAGV:42287
[rosmaster.master][INFO] 2023-02-09 14:41:04,324: -SERVICE [/xbee/set_logger_level] /xbee rosrpc://intechAGV:42287
[rosmaster.master][INFO] 2023-02-09 14:41:04,348: publisherUpdate[/rosout] -> http://intechAGV:38181/ ['http://intechAGV:36685/']
[rosmaster.master][INFO] 2023-02-09 14:41:04,351: publisherUpdate[/rosout] -> http://intechAGV:38181/ ['http://intechAGV:36685/']: sec=0.00, result=[1, '', 0]
[rosmaster.master][INFO] 2023-02-09 14:41:04,351: publisherUpdate[/xbeeConveyor_topic] -> http://intechAGV:36685/ ['http://intechAGV:36685/']
[rosmaster.master][INFO] 2023-02-09 14:41:04,355: publisherUpdate[/xbeeConveyor_topic] -> http://intechAGV:36685/ ['http://intechAGV:36685/']: sec=0.00, result=[1, '', 0]
[rosmaster.master][INFO] 2023-02-09 14:41:04,662: -SUB [/followline_topic] /AGV1_MASTER http://intechAGV:36685/
[rosmaster.master][INFO] 2023-02-09 14:41:04,663: -SUB [/rfid_topic] /AGV1_MASTER http://intechAGV:36685/
[rosmaster.master][INFO] 2023-02-09 14:41:04,663: -SUB [/safety_topic] /AGV1_MASTER http://intechAGV:36685/
[rosmaster.master][INFO] 2023-02-09 14:41:04,663: -SUB [/xbeeConveyor_topic] /AGV1_MASTER http://intechAGV:36685/
[rosmaster.master][INFO] 2023-02-09 14:41:04,664: -PUB [/rosout] /AGV1_MASTER http://intechAGV:36685/
[rosmaster.master][INFO] 2023-02-09 14:41:04,664: -PUB [/cmd_vel] /AGV1_MASTER http://intechAGV:36685/
[rosmaster.master][INFO] 2023-02-09 14:41:04,664: -PUB [/xbeeConveyor_topic] /AGV1_MASTER http://intechAGV:36685/
[rosmaster.master][INFO] 2023-02-09 14:41:04,665: -PUB [/speaker_topic] /AGV1_MASTER http://intechAGV:36685/
[rosmaster.master][INFO] 2023-02-09 14:41:04,665: -SERVICE [/AGV1_MASTER/get_loggers] /AGV1_MASTER rosrpc://intechAGV:36789
[rosmaster.master][INFO] 2023-02-09 14:41:04,665: -SERVICE [/AGV1_MASTER/set_logger_level] /AGV1_MASTER rosrpc://intechAGV:36789
[rosmaster.master][INFO] 2023-02-09 14:41:04,752: publisherUpdate[/rosout] -> http://intechAGV:38181/ []
[rosmaster.master][INFO] 2023-02-09 14:41:04,754: publisherUpdate[/rosout] -> http://intechAGV:38181/ []: sec=0.00, result=[1, '', 0]
[rosmaster.master][INFO] 2023-02-09 14:41:06,256: -PUB [/rosout_agg] /rosout http://intechAGV:38181/
[rosmaster.master][INFO] 2023-02-09 14:41:06,258: -SUB [/rosout] /rosout http://intechAGV:38181/
[rosmaster.master][INFO] 2023-02-09 14:41:06,259: -SERVICE [/rosout/get_loggers] /rosout rosrpc://intechAGV:53201
[rosmaster.master][INFO] 2023-02-09 14:41:06,261: -SERVICE [/rosout/set_logger_level] /rosout rosrpc://intechAGV:53201
[rosmaster.master][INFO] 2023-02-09 14:41:06,262: -CACHEDPARAM [/rosout/omit_topics] by /rosout
[rosmaster.main][INFO] 2023-02-09 14:41:06,358: keyboard interrupt, will exit
[rosmaster.main][INFO] 2023-02-09 14:41:06,358: stopping master...
[rospy.core][INFO] 2023-02-09 14:41:06,358: signal_shutdown [atexit]
