[roslaunch][INFO] 2023-02-01 16:06:37,366: Checking log directory for disk usage. This may take a while.
Press Ctrl-C to interrupt
[roslaunch][INFO] 2023-02-01 16:06:37,399: Done checking log file disk usage. Usage is <1GB.
[roslaunch][INFO] 2023-02-01 16:06:37,400: roslaunch starting with args ['roscore', '--core']
[roslaunch][INFO] 2023-02-01 16:06:37,400: roslaunch env is environ({'SHELL': '/bin/bash', 'ROS_VERSION': '1', 'PKG_CONFIG_PATH': '/home/intechAGV/catkin_ws/devel/lib/pkgconfig:/opt/ros/noetic/lib/pkgconfig', 'ROS_PYTHON_VERSION': '3', 'LC_ADDRESS': 'C.UTF-8', 'LC_NAME': 'C.UTF-8', 'LC_MONETARY': 'C.UTF-8', 'ROS_PACKAGE_PATH': '/home/intech/catkin_ws/src:/home/intechAGV/catkin_ws/src:/opt/ros/noetic/share', 'ROSLISP_PACKAGE_DIRECTORIES': '/home/intechAGV/catkin_ws/devel/share/common-lisp', 'PWD': '/home/intechAGV', 'LOGNAME': 'intechAGV', 'XDG_SESSION_TYPE': 'tty', 'MOTD_SHOWN': 'pam', 'HOME': '/home/intechAGV', 'LANG': 'C.UTF-8', 'LC_PAPER': 'C.UTF-8', 'ROS_ETC_DIR': '/opt/ros/noetic/etc/ros', 'LS_COLORS': 'rs=0:di=01;34:ln=01;36:mh=00:pi=40;33:so=01;35:do=01;35:bd=40;33;01:cd=40;33;01:or=40;31;01:mi=00:su=37;41:sg=30;43:ca=30;41:tw=30;42:ow=34;42:st=37;44:ex=01;32:*.tar=01;31:*.tgz=01;31:*.arc=01;31:*.arj=01;31:*.taz=01;31:*.lha=01;31:*.lz4=01;31:*.lzh=01;31:*.lzma=01;31:*.tlz=01;31:*.txz=01;31:*.tzo=01;31:*.t7z=01;31:*.zip=01;31:*.z=01;31:*.dz=01;31:*.gz=01;31:*.lrz=01;31:*.lz=01;31:*.lzo=01;31:*.xz=01;31:*.zst=01;31:*.tzst=01;31:*.bz2=01;31:*.bz=01;31:*.tbz=01;31:*.tbz2=01;31:*.tz=01;31:*.deb=01;31:*.rpm=01;31:*.jar=01;31:*.war=01;31:*.ear=01;31:*.sar=01;31:*.rar=01;31:*.alz=01;31:*.ace=01;31:*.zoo=01;31:*.cpio=01;31:*.7z=01;31:*.rz=01;31:*.cab=01;31:*.wim=01;31:*.swm=01;31:*.dwm=01;31:*.esd=01;31:*.jpg=01;35:*.jpeg=01;35:*.mjpg=01;35:*.mjpeg=01;35:*.gif=01;35:*.bmp=01;35:*.pbm=01;35:*.pgm=01;35:*.ppm=01;35:*.tga=01;35:*.xbm=01;35:*.xpm=01;35:*.tif=01;35:*.tiff=01;35:*.png=01;35:*.svg=01;35:*.svgz=01;35:*.mng=01;35:*.pcx=01;35:*.mov=01;35:*.mpg=01;35:*.mpeg=01;35:*.m2v=01;35:*.mkv=01;35:*.webm=01;35:*.ogm=01;35:*.mp4=01;35:*.m4v=01;35:*.mp4v=01;35:*.vob=01;35:*.qt=01;35:*.nuv=01;35:*.wmv=01;35:*.asf=01;35:*.rm=01;35:*.rmvb=01;35:*.flc=01;35:*.avi=01;35:*.fli=01;35:*.flv=01;35:*.gl=01;35:*.dl=01;35:*.xcf=01;35:*.xwd=01;35:*.yuv=01;35:*.cgm=01;35:*.emf=01;35:*.ogv=01;35:*.ogx=01;35:*.aac=00;36:*.au=00;36:*.flac=00;36:*.m4a=00;36:*.mid=00;36:*.midi=00;36:*.mka=00;36:*.mp3=00;36:*.mpc=00;36:*.ogg=00;36:*.ra=00;36:*.wav=00;36:*.oga=00;36:*.opus=00;36:*.spx=00;36:*.xspf=00;36:', 'CMAKE_PREFIX_PATH': '/home/intechAGV/catkin_ws/devel:/opt/ros/noetic', 'SSH_CONNECTION': '192.168.0.112 50028 192.168.0.120 22', 'LESSCLOSE': '/usr/bin/lesspipe %s %s', 'XDG_SESSION_CLASS': 'user', 'PYTHONPATH': '/home/intechAGV/catkin_ws/devel/lib/python3/dist-packages:/opt/ros/noetic/lib/python3/dist-packages', 'TERM': 'xterm-256color', 'LC_IDENTIFICATION': 'C.UTF-8', 'LESSOPEN': '| /usr/bin/lesspipe %s', 'USER': 'intechAGV', 'SHLVL': '1', 'LC_TELEPHONE': 'C.UTF-8', 'ROS_MASTER_URI': 'http://localhost:11311', 'LC_MEASUREMENT': 'C.UTF-8', 'XDG_SESSION_ID': '1', 'LD_LIBRARY_PATH': '/home/intechAGV/catkin_ws/devel/lib:/opt/ros/noetic/lib', 'XDG_RUNTIME_DIR': '/run/user/1000', 'SSH_CLIENT': '192.168.0.112 50028 22', 'LC_TIME': 'C.UTF-8', 'XDG_DATA_DIRS': '/usr/local/share:/usr/share:/var/lib/snapd/desktop', 'PATH': '/opt/ros/noetic/bin:/usr/local/sbin:/usr/local/bin:/usr/sbin:/usr/bin:/sbin:/bin:/usr/games:/usr/local/games:/snap/bin', 'DBUS_SESSION_BUS_ADDRESS': 'unix:path=/run/user/1000/bus', 'SSH_TTY': '/dev/pts/0', 'ROS_ROOT': '/opt/ros/noetic/share/ros', 'ROS_DISTRO': 'noetic', 'LC_NUMERIC': 'C.UTF-8', '_': '/opt/ros/noetic/bin/roscore', 'ROS_LOG_FILENAME': '/home/intechAGV/.ros/log/bb6c2e72-a20f-11ed-97bf-c97f17882b0d/roslaunch-intechAGV-1196.log'})
[roslaunch][INFO] 2023-02-01 16:06:37,401: starting in server mode
[roslaunch.parent][INFO] 2023-02-01 16:06:37,402: starting roslaunch parent run
[roslaunch][INFO] 2023-02-01 16:06:37,403: loading roscore config file /opt/ros/noetic/etc/ros/roscore.xml
[roslaunch][INFO] 2023-02-01 16:06:37,874: Added core node of type [rosout/rosout] in namespace [/]
[roslaunch.pmon][INFO] 2023-02-01 16:06:37,874: start_process_monitor: creating ProcessMonitor
[roslaunch.pmon][INFO] 2023-02-01 16:06:37,875: created process monitor <ProcessMonitor(ProcessMonitor-1, initial daemon)>
[roslaunch.pmon][INFO] 2023-02-01 16:06:37,875: start_process_monitor: ProcessMonitor started
[roslaunch.parent][INFO] 2023-02-01 16:06:37,876: starting parent XML-RPC server
[roslaunch.server][INFO] 2023-02-01 16:06:37,876: starting roslaunch XML-RPC server
[roslaunch.server][INFO] 2023-02-01 16:06:37,876: waiting for roslaunch XML-RPC server to initialize
[xmlrpc][INFO] 2023-02-01 16:06:37,877: XML-RPC server binding to 0.0.0.0:0
[xmlrpc][INFO] 2023-02-01 16:06:37,877: Started XML-RPC server [http://intechAGV:39971/]
[xmlrpc][INFO] 2023-02-01 16:06:37,878: xml rpc node: starting XML-RPC server
[roslaunch][INFO] 2023-02-01 16:06:37,893: started roslaunch server http://intechAGV:39971/
[roslaunch.parent][INFO] 2023-02-01 16:06:37,894: ... parent XML-RPC server started
[roslaunch][INFO] 2023-02-01 16:06:37,895: master.is_running[http://intechAGV:11311/]
[roslaunch][INFO] 2023-02-01 16:06:37,901: auto-starting new master
[roslaunch][INFO] 2023-02-01 16:06:37,901: create_master_process: rosmaster, /opt/ros/noetic/share/ros, 11311, 3, None, False
[roslaunch][INFO] 2023-02-01 16:06:37,902: process[master]: launching with args [['rosmaster', '--core', '-p', '11311', '-w', '3']]
[roslaunch.pmon][INFO] 2023-02-01 16:06:37,902: ProcessMonitor.register[master]
[roslaunch.pmon][INFO] 2023-02-01 16:06:37,903: ProcessMonitor.register[master] complete
[roslaunch][INFO] 2023-02-01 16:06:37,903: process[master]: starting os process
[roslaunch][INFO] 2023-02-01 16:06:37,903: process[master]: start w/ args [['rosmaster', '--core', '-p', '11311', '-w', '3', '__log:=/home/intechAGV/.ros/log/bb6c2e72-a20f-11ed-97bf-c97f17882b0d/master.log']]
[roslaunch][INFO] 2023-02-01 16:06:37,904: process[master]: cwd will be [/home/intechAGV/.ros]
[roslaunch][INFO] 2023-02-01 16:06:37,915: process[master]: started with pid [1206]
[roslaunch][INFO] 2023-02-01 16:06:37,916: master.is_running[http://intechAGV:11311/]
[roslaunch][INFO] 2023-02-01 16:06:38,017: master.is_running[http://intechAGV:11311/]
[roslaunch][INFO] 2023-02-01 16:06:38,119: master.is_running[http://intechAGV:11311/]
[roslaunch][INFO] 2023-02-01 16:06:38,220: master.is_running[http://intechAGV:11311/]
[roslaunch][INFO] 2023-02-01 16:06:38,322: master.is_running[http://intechAGV:11311/]
[roslaunch][INFO] 2023-02-01 16:06:38,423: master.is_running[http://intechAGV:11311/]
[roslaunch][INFO] 2023-02-01 16:06:38,524: master.is_running[http://intechAGV:11311/]
[roslaunch][INFO] 2023-02-01 16:06:38,626: master.is_running[http://intechAGV:11311/]
[roslaunch][INFO] 2023-02-01 16:06:38,727: master.is_running[http://intechAGV:11311/]
[roslaunch][INFO] 2023-02-01 16:06:38,735: master.is_running[http://intechAGV:11311/]
[roslaunch][INFO] 2023-02-01 16:06:38,741: ROS_MASTER_URI=http://intechAGV:11311/
[roslaunch][INFO] 2023-02-01 16:06:38,745: setting /run_id to bb6c2e72-a20f-11ed-97bf-c97f17882b0d
[roslaunch][INFO] 2023-02-01 16:06:38,748: setting /roslaunch/uris/host_intechagv__39971' to http://intechAGV:39971/
[roslaunch][INFO] 2023-02-01 16:06:38,754: ... preparing to launch node of type [rosout/rosout]
[roslaunch][INFO] 2023-02-01 16:06:38,755: create_node_process: package[rosout] type[rosout] machine[Machine(name[] env_loader[None] address[localhost] ssh_port[22] user[None] assignable[True] timeout[10.0])] master_uri[http://intechAGV:11311/]
[roslaunch][INFO] 2023-02-01 16:06:38,755: process[rosout-1]: env[{'SHELL': '/bin/bash', 'ROS_VERSION': '1', 'PKG_CONFIG_PATH': '/home/intechAGV/catkin_ws/devel/lib/pkgconfig:/opt/ros/noetic/lib/pkgconfig', 'ROS_PYTHON_VERSION': '3', 'LC_ADDRESS': 'C.UTF-8', 'LC_NAME': 'C.UTF-8', 'LC_MONETARY': 'C.UTF-8', 'ROS_PACKAGE_PATH': '/home/intech/catkin_ws/src:/home/intechAGV/catkin_ws/src:/opt/ros/noetic/share', 'ROSLISP_PACKAGE_DIRECTORIES': '/home/intechAGV/catkin_ws/devel/share/common-lisp', 'PWD': '/home/intechAGV', 'LOGNAME': 'intechAGV', 'XDG_SESSION_TYPE': 'tty', 'MOTD_SHOWN': 'pam', 'HOME': '/home/intechAGV', 'LANG': 'C.UTF-8', 'LC_PAPER': 'C.UTF-8', 'ROS_ETC_DIR': '/opt/ros/noetic/etc/ros', 'LS_COLORS': 'rs=0:di=01;34:ln=01;36:mh=00:pi=40;33:so=01;35:do=01;35:bd=40;33;01:cd=40;33;01:or=40;31;01:mi=00:su=37;41:sg=30;43:ca=30;41:tw=30;42:ow=34;42:st=37;44:ex=01;32:*.tar=01;31:*.tgz=01;31:*.arc=01;31:*.arj=01;31:*.taz=01;31:*.lha=01;31:*.lz4=01;31:*.lzh=01;31:*.lzma=01;31:*.tlz=01;31:*.txz=01;31:*.tzo=01;31:*.t7z=01;31:*.zip=01;31:*.z=01;31:*.dz=01;31:*.gz=01;31:*.lrz=01;31:*.lz=01;31:*.lzo=01;31:*.xz=01;31:*.zst=01;31:*.tzst=01;31:*.bz2=01;31:*.bz=01;31:*.tbz=01;31:*.tbz2=01;31:*.tz=01;31:*.deb=01;31:*.rpm=01;31:*.jar=01;31:*.war=01;31:*.ear=01;31:*.sar=01;31:*.rar=01;31:*.alz=01;31:*.ace=01;31:*.zoo=01;31:*.cpio=01;31:*.7z=01;31:*.rz=01;31:*.cab=01;31:*.wim=01;31:*.swm=01;31:*.dwm=01;31:*.esd=01;31:*.jpg=01;35:*.jpeg=01;35:*.mjpg=01;35:*.mjpeg=01;35:*.gif=01;35:*.bmp=01;35:*.pbm=01;35:*.pgm=01;35:*.ppm=01;35:*.tga=01;35:*.xbm=01;35:*.xpm=01;35:*.tif=01;35:*.tiff=01;35:*.png=01;35:*.svg=01;35:*.svgz=01;35:*.mng=01;35:*.pcx=01;35:*.mov=01;35:*.mpg=01;35:*.mpeg=01;35:*.m2v=01;35:*.mkv=01;35:*.webm=01;35:*.ogm=01;35:*.mp4=01;35:*.m4v=01;35:*.mp4v=01;35:*.vob=01;35:*.qt=01;35:*.nuv=01;35:*.wmv=01;35:*.asf=01;35:*.rm=01;35:*.rmvb=01;35:*.flc=01;35:*.avi=01;35:*.fli=01;35:*.flv=01;35:*.gl=01;35:*.dl=01;35:*.xcf=01;35:*.xwd=01;35:*.yuv=01;35:*.cgm=01;35:*.emf=01;35:*.ogv=01;35:*.ogx=01;35:*.aac=00;36:*.au=00;36:*.flac=00;36:*.m4a=00;36:*.mid=00;36:*.midi=00;36:*.mka=00;36:*.mp3=00;36:*.mpc=00;36:*.ogg=00;36:*.ra=00;36:*.wav=00;36:*.oga=00;36:*.opus=00;36:*.spx=00;36:*.xspf=00;36:', 'CMAKE_PREFIX_PATH': '/home/intechAGV/catkin_ws/devel:/opt/ros/noetic', 'SSH_CONNECTION': '192.168.0.112 50028 192.168.0.120 22', 'LESSCLOSE': '/usr/bin/lesspipe %s %s', 'XDG_SESSION_CLASS': 'user', 'PYTHONPATH': '/home/intechAGV/catkin_ws/devel/lib/python3/dist-packages:/opt/ros/noetic/lib/python3/dist-packages', 'TERM': 'xterm-256color', 'LC_IDENTIFICATION': 'C.UTF-8', 'LESSOPEN': '| /usr/bin/lesspipe %s', 'USER': 'intechAGV', 'SHLVL': '1', 'LC_TELEPHONE': 'C.UTF-8', 'ROS_MASTER_URI': 'http://intechAGV:11311/', 'LC_MEASUREMENT': 'C.UTF-8', 'XDG_SESSION_ID': '1', 'LD_LIBRARY_PATH': '/home/intechAGV/catkin_ws/devel/lib:/opt/ros/noetic/lib', 'XDG_RUNTIME_DIR': '/run/user/1000', 'SSH_CLIENT': '192.168.0.112 50028 22', 'LC_TIME': 'C.UTF-8', 'XDG_DATA_DIRS': '/usr/local/share:/usr/share:/var/lib/snapd/desktop', 'PATH': '/opt/ros/noetic/bin:/usr/local/sbin:/usr/local/bin:/usr/sbin:/usr/bin:/sbin:/bin:/usr/games:/usr/local/games:/snap/bin', 'DBUS_SESSION_BUS_ADDRESS': 'unix:path=/run/user/1000/bus', 'SSH_TTY': '/dev/pts/0', 'ROS_ROOT': '/opt/ros/noetic/share/ros', 'ROS_DISTRO': 'noetic', 'LC_NUMERIC': 'C.UTF-8', '_': '/opt/ros/noetic/bin/roscore', 'ROS_LOG_FILENAME': '/home/intechAGV/.ros/log/bb6c2e72-a20f-11ed-97bf-c97f17882b0d/roslaunch-intechAGV-1196.log'}]
[roslaunch][INFO] 2023-02-01 16:06:38,817: process[rosout-1]: args[['/opt/ros/noetic/lib/rosout/rosout', '__name:=rosout']]
[roslaunch][INFO] 2023-02-01 16:06:38,817: ... created process [rosout-1]
[roslaunch.pmon][INFO] 2023-02-01 16:06:38,818: ProcessMonitor.register[rosout-1]
[roslaunch.pmon][INFO] 2023-02-01 16:06:38,818: ProcessMonitor.register[rosout-1] complete
[roslaunch][INFO] 2023-02-01 16:06:38,818: ... registered process [rosout-1]
[roslaunch][INFO] 2023-02-01 16:06:38,818: process[rosout-1]: starting os process
[roslaunch][INFO] 2023-02-01 16:06:38,818: process[rosout-1]: start w/ args [['/opt/ros/noetic/lib/rosout/rosout', '__name:=rosout', '__log:=/home/intechAGV/.ros/log/bb6c2e72-a20f-11ed-97bf-c97f17882b0d/rosout-1.log']]
[roslaunch][INFO] 2023-02-01 16:06:38,819: process[rosout-1]: cwd will be [/home/intechAGV/.ros]
[roslaunch][INFO] 2023-02-01 16:06:38,831: process[rosout-1]: started with pid [1216]
[roslaunch][INFO] 2023-02-01 16:06:38,831: ... successfully launched [rosout-1]
[roslaunch][INFO] 2023-02-01 16:06:38,832: load_parameters starting ...
[roslaunch][INFO] 2023-02-01 16:06:38,841: ... load_parameters complete
[roslaunch][INFO] 2023-02-01 16:06:38,842: launch_nodes: launching local nodes ...
[roslaunch][INFO] 2023-02-01 16:06:38,842: ... launch_nodes complete
[roslaunch.pmon][INFO] 2023-02-01 16:06:38,843: registrations completed <ProcessMonitor(ProcessMonitor-1, started daemon 281473141465568)>
[roslaunch.parent][INFO] 2023-02-01 16:06:38,843: ... roslaunch parent running, waiting for process exit
[roslaunch][INFO] 2023-02-01 16:06:38,843: spin
[roslaunch.pmon][INFO] 2023-02-01 16:49:12,834: ProcessMonitor.shutdown <ProcessMonitor(ProcessMonitor-1, started daemon 281473141465568)>
[roslaunch.pmon][INFO] 2023-02-01 16:49:12,925: ProcessMonitor._post_run <ProcessMonitor(ProcessMonitor-1, started daemon 281473141465568)>
[roslaunch.pmon][INFO] 2023-02-01 16:49:12,926: ProcessMonitor._post_run <ProcessMonitor(ProcessMonitor-1, started daemon 281473141465568)>: remaining procs are [<roslaunch.nodeprocess.LocalProcess object at 0xffff929f43d0>, <roslaunch.nodeprocess.LocalProcess object at 0xffff929f4550>]
[roslaunch.pmon][INFO] 2023-02-01 16:49:12,929: ProcessMonitor exit: killing rosout-1
[roslaunch][INFO] 2023-02-01 16:49:12,929: [rosout-1] killing on exit
[roslaunch][INFO] 2023-02-01 16:49:12,930: process[rosout-1]: killing os process with pid[1216] pgid[1216]
[roslaunch][INFO] 2023-02-01 16:49:12,930: [rosout-1] sending SIGINT to pgid [1216]
[roslaunch][INFO] 2023-02-01 16:49:12,930: [rosout-1] sent SIGINT to pgid [1216]
[roslaunch][INFO] 2023-02-01 16:49:13,232: process[rosout-1]: SIGINT killed with return value 0
[roslaunch.pmon][INFO] 2023-02-01 16:49:13,233: ProcessMonitor exit: killing master
[roslaunch][INFO] 2023-02-01 16:49:13,234: [master] killing on exit
[roslaunch][INFO] 2023-02-01 16:49:13,235: process[master]: killing os process with pid[1206] pgid[1206]
[roslaunch][INFO] 2023-02-01 16:49:13,235: [master] sending SIGINT to pgid [1206]
[roslaunch][INFO] 2023-02-01 16:49:13,236: [master] sent SIGINT to pgid [1206]
[roslaunch][INFO] 2023-02-01 16:49:13,537: process[master]: SIGINT killed with return value 0
[roslaunch.pmon][INFO] 2023-02-01 16:49:13,538: ProcessMonitor exit: cleaning up data structures and signals
[roslaunch.pmon][INFO] 2023-02-01 16:49:13,538: ProcessMonitor exit: pmon has shutdown
[roslaunch][INFO] 2023-02-01 16:49:13,539: process monitor is done spinning, initiating full shutdown
[roslaunch][INFO] 2023-02-01 16:49:13,539: runner.stop()
[roslaunch][INFO] 2023-02-01 16:49:13,539: shutting down processing monitor...
[roslaunch][INFO] 2023-02-01 16:49:13,539: shutting down processing monitor <ProcessMonitor(ProcessMonitor-1, stopped daemon 281473141465568)>
[roslaunch.pmon][INFO] 2023-02-01 16:49:13,540: ProcessMonitor.shutdown <ProcessMonitor(ProcessMonitor-1, stopped daemon 281473141465568)>
[roslaunch][INFO] 2023-02-01 16:49:13,540: ... shutting down processing monitor complete
[roslaunch][INFO] 2023-02-01 16:49:13,540: done
[roslaunch.pmon][INFO] 2023-02-01 16:49:13,540: ProcessMonitor.shutdown <ProcessMonitor(ProcessMonitor-1, stopped daemon 281473141465568)>
[rospy.core][INFO] 2023-02-01 16:49:13,541: signal_shutdown [atexit]
